ISO-10303-21;
HEADER;
/* Generated by software containing ST-Developer
 * from STEP Tools, Inc. (www.steptools.com) 
 */

FILE_DESCRIPTION(
/* description */ (''),
/* implementation_level */ '2;1');

FILE_NAME(
/* name */ 
'D:\\Javier\\Documents\\proyectos\\lola_3mm\\Archivos Generados\\Corte
\\LOLA3_006_superior.stp',
/* time_stamp */ '2018-02-27T13:31:06+01:00',
/* author */ ('javi'),
/* organization */ (''),
/* preprocessor_version */ 'ST-DEVELOPER v16.5',
/* originating_system */ 'Autodesk Inventor 2017',
/* authorisation */ '');

FILE_SCHEMA (('AUTOMOTIVE_DESIGN { 1 0 10303 214 3 1 1 }'));
ENDSEC;

DATA;
#10=MECHANICAL_DESIGN_GEOMETRIC_PRESENTATION_REPRESENTATION('',(#13),#972);
#11=SHAPE_REPRESENTATION_RELATIONSHIP('SRR','None',#981,#12);
#12=ADVANCED_BREP_SHAPE_REPRESENTATION('',(#14),#971);
#13=STYLED_ITEM('',(#990),#14);
#14=MANIFOLD_SOLID_BREP('S\X\F3lido1',#570);
#15=PLANE('',#599);
#16=PLANE('',#600);
#17=PLANE('',#617);
#18=PLANE('',#618);
#19=PLANE('',#635);
#20=PLANE('',#638);
#21=PLANE('',#639);
#22=PLANE('',#642);
#23=LINE('',#854,#48);
#24=LINE('',#857,#49);
#25=LINE('',#860,#50);
#26=LINE('',#862,#51);
#27=LINE('',#863,#52);
#28=LINE('',#869,#53);
#29=LINE('',#876,#54);
#30=LINE('',#880,#55);
#31=LINE('',#884,#56);
#32=LINE('',#888,#57);
#33=LINE('',#904,#58);
#34=LINE('',#907,#59);
#35=LINE('',#909,#60);
#36=LINE('',#928,#61);
#37=LINE('',#931,#62);
#38=LINE('',#934,#63);
#39=LINE('',#938,#64);
#40=LINE('',#948,#65);
#41=LINE('',#949,#66);
#42=LINE('',#951,#67);
#43=LINE('',#953,#68);
#44=LINE('',#956,#69);
#45=LINE('',#957,#70);
#46=LINE('',#959,#71);
#47=LINE('',#961,#72);
#48=VECTOR('',#691,10.);
#49=VECTOR('',#694,10.);
#50=VECTOR('',#697,10.);
#51=VECTOR('',#698,10.);
#52=VECTOR('',#699,10.);
#53=VECTOR('',#706,10.);
#54=VECTOR('',#711,10.);
#55=VECTOR('',#714,10.);
#56=VECTOR('',#717,10.);
#57=VECTOR('',#720,10.);
#58=VECTOR('',#737,10.);
#59=VECTOR('',#740,10.);
#60=VECTOR('',#743,10.);
#61=VECTOR('',#762,10.);
#62=VECTOR('',#765,10.);
#63=VECTOR('',#766,10.);
#64=VECTOR('',#769,10.);
#65=VECTOR('',#784,10.);
#66=VECTOR('',#785,10.);
#67=VECTOR('',#788,10.);
#68=VECTOR('',#791,10.);
#69=VECTOR('',#796,10.);
#70=VECTOR('',#797,10.);
#71=VECTOR('',#800,10.);
#72=VECTOR('',#803,10.);
#73=FACE_BOUND('',#149,.T.);
#74=FACE_BOUND('',#151,.T.);
#75=FACE_BOUND('',#153,.T.);
#76=FACE_BOUND('',#155,.T.);
#77=FACE_BOUND('',#157,.T.);
#78=FACE_BOUND('',#159,.T.);
#79=FACE_BOUND('',#163,.T.);
#80=FACE_BOUND('',#164,.T.);
#81=FACE_BOUND('',#165,.T.);
#82=FACE_BOUND('',#166,.T.);
#83=FACE_BOUND('',#167,.T.);
#84=FACE_BOUND('',#168,.T.);
#85=FACE_BOUND('',#169,.T.);
#86=FACE_BOUND('',#170,.T.);
#87=FACE_BOUND('',#171,.T.);
#88=FACE_BOUND('',#172,.T.);
#89=FACE_BOUND('',#173,.T.);
#90=FACE_BOUND('',#174,.T.);
#91=FACE_BOUND('',#175,.T.);
#92=FACE_BOUND('',#176,.T.);
#93=FACE_BOUND('',#177,.T.);
#94=FACE_BOUND('',#178,.T.);
#95=FACE_BOUND('',#182,.T.);
#96=FACE_BOUND('',#183,.T.);
#97=FACE_BOUND('',#184,.T.);
#98=FACE_BOUND('',#185,.T.);
#99=FACE_BOUND('',#186,.T.);
#100=FACE_BOUND('',#187,.T.);
#101=FACE_BOUND('',#188,.T.);
#102=FACE_BOUND('',#189,.T.);
#103=FACE_BOUND('',#190,.T.);
#104=FACE_BOUND('',#191,.T.);
#105=FACE_BOUND('',#192,.T.);
#106=FACE_BOUND('',#193,.T.);
#107=FACE_BOUND('',#194,.T.);
#108=FACE_BOUND('',#195,.T.);
#109=FACE_BOUND('',#196,.T.);
#110=FACE_BOUND('',#197,.T.);
#111=FACE_BOUND('',#200,.T.);
#112=FACE_BOUND('',#202,.T.);
#113=FACE_BOUND('',#212,.T.);
#114=FACE_BOUND('',#214,.T.);
#115=FACE_BOUND('',#216,.T.);
#116=FACE_BOUND('',#218,.T.);
#117=FACE_BOUND('',#220,.T.);
#118=FACE_BOUND('',#222,.T.);
#119=FACE_OUTER_BOUND('',#148,.T.);
#120=FACE_OUTER_BOUND('',#150,.T.);
#121=FACE_OUTER_BOUND('',#152,.T.);
#122=FACE_OUTER_BOUND('',#154,.T.);
#123=FACE_OUTER_BOUND('',#156,.T.);
#124=FACE_OUTER_BOUND('',#158,.T.);
#125=FACE_OUTER_BOUND('',#160,.T.);
#126=FACE_OUTER_BOUND('',#161,.T.);
#127=FACE_OUTER_BOUND('',#162,.T.);
#128=FACE_OUTER_BOUND('',#179,.T.);
#129=FACE_OUTER_BOUND('',#180,.T.);
#130=FACE_OUTER_BOUND('',#181,.T.);
#131=FACE_OUTER_BOUND('',#198,.T.);
#132=FACE_OUTER_BOUND('',#199,.T.);
#133=FACE_OUTER_BOUND('',#201,.T.);
#134=FACE_OUTER_BOUND('',#203,.T.);
#135=FACE_OUTER_BOUND('',#204,.T.);
#136=FACE_OUTER_BOUND('',#205,.T.);
#137=FACE_OUTER_BOUND('',#206,.T.);
#138=FACE_OUTER_BOUND('',#207,.T.);
#139=FACE_OUTER_BOUND('',#208,.T.);
#140=FACE_OUTER_BOUND('',#209,.T.);
#141=FACE_OUTER_BOUND('',#210,.T.);
#142=FACE_OUTER_BOUND('',#211,.T.);
#143=FACE_OUTER_BOUND('',#213,.T.);
#144=FACE_OUTER_BOUND('',#215,.T.);
#145=FACE_OUTER_BOUND('',#217,.T.);
#146=FACE_OUTER_BOUND('',#219,.T.);
#147=FACE_OUTER_BOUND('',#221,.T.);
#148=EDGE_LOOP('',(#386));
#149=EDGE_LOOP('',(#387));
#150=EDGE_LOOP('',(#388));
#151=EDGE_LOOP('',(#389));
#152=EDGE_LOOP('',(#390));
#153=EDGE_LOOP('',(#391));
#154=EDGE_LOOP('',(#392));
#155=EDGE_LOOP('',(#393));
#156=EDGE_LOOP('',(#394));
#157=EDGE_LOOP('',(#395));
#158=EDGE_LOOP('',(#396));
#159=EDGE_LOOP('',(#397));
#160=EDGE_LOOP('',(#398,#399,#400,#401));
#161=EDGE_LOOP('',(#402,#403,#404,#405));
#162=EDGE_LOOP('',(#406,#407,#408,#409,#410));
#163=EDGE_LOOP('',(#411));
#164=EDGE_LOOP('',(#412));
#165=EDGE_LOOP('',(#413));
#166=EDGE_LOOP('',(#414));
#167=EDGE_LOOP('',(#415));
#168=EDGE_LOOP('',(#416));
#169=EDGE_LOOP('',(#417));
#170=EDGE_LOOP('',(#418));
#171=EDGE_LOOP('',(#419,#420,#421,#422));
#172=EDGE_LOOP('',(#423,#424,#425,#426));
#173=EDGE_LOOP('',(#427));
#174=EDGE_LOOP('',(#428));
#175=EDGE_LOOP('',(#429));
#176=EDGE_LOOP('',(#430));
#177=EDGE_LOOP('',(#431));
#178=EDGE_LOOP('',(#432));
#179=EDGE_LOOP('',(#433,#434,#435,#436));
#180=EDGE_LOOP('',(#437,#438,#439,#440));
#181=EDGE_LOOP('',(#441,#442,#443,#444,#445));
#182=EDGE_LOOP('',(#446));
#183=EDGE_LOOP('',(#447));
#184=EDGE_LOOP('',(#448));
#185=EDGE_LOOP('',(#449));
#186=EDGE_LOOP('',(#450));
#187=EDGE_LOOP('',(#451));
#188=EDGE_LOOP('',(#452));
#189=EDGE_LOOP('',(#453));
#190=EDGE_LOOP('',(#454));
#191=EDGE_LOOP('',(#455));
#192=EDGE_LOOP('',(#456));
#193=EDGE_LOOP('',(#457));
#194=EDGE_LOOP('',(#458,#459,#460,#461));
#195=EDGE_LOOP('',(#462,#463,#464,#465));
#196=EDGE_LOOP('',(#466));
#197=EDGE_LOOP('',(#467));
#198=EDGE_LOOP('',(#468,#469,#470,#471));
#199=EDGE_LOOP('',(#472));
#200=EDGE_LOOP('',(#473));
#201=EDGE_LOOP('',(#474));
#202=EDGE_LOOP('',(#475));
#203=EDGE_LOOP('',(#476,#477,#478,#479));
#204=EDGE_LOOP('',(#480,#481,#482,#483));
#205=EDGE_LOOP('',(#484,#485,#486,#487));
#206=EDGE_LOOP('',(#488,#489,#490,#491));
#207=EDGE_LOOP('',(#492,#493,#494,#495));
#208=EDGE_LOOP('',(#496,#497,#498,#499));
#209=EDGE_LOOP('',(#500,#501,#502,#503));
#210=EDGE_LOOP('',(#504,#505,#506,#507));
#211=EDGE_LOOP('',(#508));
#212=EDGE_LOOP('',(#509));
#213=EDGE_LOOP('',(#510));
#214=EDGE_LOOP('',(#511));
#215=EDGE_LOOP('',(#512));
#216=EDGE_LOOP('',(#513));
#217=EDGE_LOOP('',(#514));
#218=EDGE_LOOP('',(#515));
#219=EDGE_LOOP('',(#516));
#220=EDGE_LOOP('',(#517));
#221=EDGE_LOOP('',(#518));
#222=EDGE_LOOP('',(#519));
#223=CIRCLE('',#579,2.1);
#224=CIRCLE('',#580,2.1);
#225=CIRCLE('',#582,2.1);
#226=CIRCLE('',#583,2.1);
#227=CIRCLE('',#585,2.6);
#228=CIRCLE('',#586,2.6);
#229=CIRCLE('',#588,2.6);
#230=CIRCLE('',#589,2.6);
#231=CIRCLE('',#591,2.6);
#232=CIRCLE('',#592,2.6);
#233=CIRCLE('',#594,2.6);
#234=CIRCLE('',#595,2.6);
#235=CIRCLE('',#597,2.);
#236=CIRCLE('',#598,2.);
#237=CIRCLE('',#601,145.);
#238=CIRCLE('',#602,2.);
#239=CIRCLE('',#603,2.1);
#240=CIRCLE('',#604,2.1);
#241=CIRCLE('',#605,1.5);
#242=CIRCLE('',#606,2.5);
#243=CIRCLE('',#607,1.5);
#244=CIRCLE('',#608,1.5);
#245=CIRCLE('',#609,2.75);
#246=CIRCLE('',#610,2.75);
#247=CIRCLE('',#611,2.6);
#248=CIRCLE('',#612,2.6);
#249=CIRCLE('',#613,2.6);
#250=CIRCLE('',#614,2.6);
#251=CIRCLE('',#616,2.);
#252=CIRCLE('',#619,145.);
#253=CIRCLE('',#620,2.6);
#254=CIRCLE('',#621,2.6);
#255=CIRCLE('',#622,2.6);
#256=CIRCLE('',#623,2.6);
#257=CIRCLE('',#624,2.75);
#258=CIRCLE('',#625,2.75);
#259=CIRCLE('',#626,1.5);
#260=CIRCLE('',#627,1.5);
#261=CIRCLE('',#628,2.5);
#262=CIRCLE('',#629,1.5);
#263=CIRCLE('',#630,2.1);
#264=CIRCLE('',#631,2.1);
#265=VERTEX_POINT('',#820);
#266=VERTEX_POINT('',#822);
#267=VERTEX_POINT('',#825);
#268=VERTEX_POINT('',#827);
#269=VERTEX_POINT('',#830);
#270=VERTEX_POINT('',#832);
#271=VERTEX_POINT('',#835);
#272=VERTEX_POINT('',#837);
#273=VERTEX_POINT('',#840);
#274=VERTEX_POINT('',#842);
#275=VERTEX_POINT('',#845);
#276=VERTEX_POINT('',#847);
#277=VERTEX_POINT('',#850);
#278=VERTEX_POINT('',#851);
#279=VERTEX_POINT('',#853);
#280=VERTEX_POINT('',#855);
#281=VERTEX_POINT('',#859);
#282=VERTEX_POINT('',#861);
#283=VERTEX_POINT('',#865);
#284=VERTEX_POINT('',#867);
#285=VERTEX_POINT('',#870);
#286=VERTEX_POINT('',#872);
#287=VERTEX_POINT('',#874);
#288=VERTEX_POINT('',#875);
#289=VERTEX_POINT('',#877);
#290=VERTEX_POINT('',#879);
#291=VERTEX_POINT('',#882);
#292=VERTEX_POINT('',#883);
#293=VERTEX_POINT('',#885);
#294=VERTEX_POINT('',#887);
#295=VERTEX_POINT('',#890);
#296=VERTEX_POINT('',#892);
#297=VERTEX_POINT('',#894);
#298=VERTEX_POINT('',#896);
#299=VERTEX_POINT('',#898);
#300=VERTEX_POINT('',#900);
#301=VERTEX_POINT('',#903);
#302=VERTEX_POINT('',#905);
#303=VERTEX_POINT('',#912);
#304=VERTEX_POINT('',#914);
#305=VERTEX_POINT('',#916);
#306=VERTEX_POINT('',#918);
#307=VERTEX_POINT('',#920);
#308=VERTEX_POINT('',#922);
#309=VERTEX_POINT('',#924);
#310=VERTEX_POINT('',#925);
#311=VERTEX_POINT('',#927);
#312=VERTEX_POINT('',#929);
#313=VERTEX_POINT('',#932);
#314=VERTEX_POINT('',#933);
#315=VERTEX_POINT('',#935);
#316=VERTEX_POINT('',#937);
#317=VERTEX_POINT('',#940);
#318=VERTEX_POINT('',#942);
#319=EDGE_CURVE('',#265,#265,#223,.T.);
#320=EDGE_CURVE('',#266,#266,#224,.T.);
#321=EDGE_CURVE('',#267,#267,#225,.T.);
#322=EDGE_CURVE('',#268,#268,#226,.T.);
#323=EDGE_CURVE('',#269,#269,#227,.T.);
#324=EDGE_CURVE('',#270,#270,#228,.T.);
#325=EDGE_CURVE('',#271,#271,#229,.T.);
#326=EDGE_CURVE('',#272,#272,#230,.T.);
#327=EDGE_CURVE('',#273,#273,#231,.T.);
#328=EDGE_CURVE('',#274,#274,#232,.T.);
#329=EDGE_CURVE('',#275,#275,#233,.T.);
#330=EDGE_CURVE('',#276,#276,#234,.T.);
#331=EDGE_CURVE('',#277,#278,#235,.T.);
#332=EDGE_CURVE('',#278,#279,#23,.T.);
#333=EDGE_CURVE('',#279,#280,#236,.T.);
#334=EDGE_CURVE('',#280,#277,#24,.T.);
#335=EDGE_CURVE('',#281,#280,#25,.T.);
#336=EDGE_CURVE('',#282,#281,#26,.T.);
#337=EDGE_CURVE('',#277,#282,#27,.T.);
#338=EDGE_CURVE('',#279,#283,#237,.T.);
#339=EDGE_CURVE('',#284,#283,#238,.T.);
#340=EDGE_CURVE('',#284,#281,#28,.T.);
#341=EDGE_CURVE('',#285,#285,#239,.T.);
#342=EDGE_CURVE('',#286,#286,#240,.T.);
#343=EDGE_CURVE('',#287,#288,#29,.T.);
#344=EDGE_CURVE('',#289,#288,#241,.T.);
#345=EDGE_CURVE('',#289,#290,#30,.T.);
#346=EDGE_CURVE('',#290,#287,#242,.T.);
#347=EDGE_CURVE('',#291,#292,#31,.T.);
#348=EDGE_CURVE('',#293,#292,#243,.T.);
#349=EDGE_CURVE('',#293,#294,#32,.T.);
#350=EDGE_CURVE('',#291,#294,#244,.T.);
#351=EDGE_CURVE('',#295,#295,#245,.T.);
#352=EDGE_CURVE('',#296,#296,#246,.T.);
#353=EDGE_CURVE('',#297,#297,#247,.T.);
#354=EDGE_CURVE('',#298,#298,#248,.T.);
#355=EDGE_CURVE('',#299,#299,#249,.T.);
#356=EDGE_CURVE('',#300,#300,#250,.T.);
#357=EDGE_CURVE('',#283,#301,#33,.T.);
#358=EDGE_CURVE('',#301,#302,#251,.T.);
#359=EDGE_CURVE('',#302,#284,#34,.T.);
#360=EDGE_CURVE('',#282,#302,#35,.T.);
#361=EDGE_CURVE('',#301,#278,#252,.T.);
#362=EDGE_CURVE('',#303,#303,#253,.T.);
#363=EDGE_CURVE('',#304,#304,#254,.T.);
#364=EDGE_CURVE('',#305,#305,#255,.T.);
#365=EDGE_CURVE('',#306,#306,#256,.T.);
#366=EDGE_CURVE('',#307,#307,#257,.T.);
#367=EDGE_CURVE('',#308,#308,#258,.T.);
#368=EDGE_CURVE('',#309,#310,#259,.T.);
#369=EDGE_CURVE('',#309,#311,#36,.T.);
#370=EDGE_CURVE('',#312,#311,#260,.T.);
#371=EDGE_CURVE('',#312,#310,#37,.T.);
#372=EDGE_CURVE('',#313,#314,#38,.T.);
#373=EDGE_CURVE('',#314,#315,#261,.T.);
#374=EDGE_CURVE('',#315,#316,#39,.T.);
#375=EDGE_CURVE('',#313,#316,#262,.T.);
#376=EDGE_CURVE('',#317,#317,#263,.T.);
#377=EDGE_CURVE('',#318,#318,#264,.T.);
#378=EDGE_CURVE('',#316,#289,#40,.T.);
#379=EDGE_CURVE('',#315,#290,#41,.T.);
#380=EDGE_CURVE('',#288,#313,#42,.T.);
#381=EDGE_CURVE('',#287,#314,#43,.T.);
#382=EDGE_CURVE('',#310,#291,#44,.T.);
#383=EDGE_CURVE('',#292,#312,#45,.T.);
#384=EDGE_CURVE('',#294,#309,#46,.T.);
#385=EDGE_CURVE('',#311,#293,#47,.T.);
#386=ORIENTED_EDGE('',*,*,#319,.F.);
#387=ORIENTED_EDGE('',*,*,#320,.F.);
#388=ORIENTED_EDGE('',*,*,#321,.F.);
#389=ORIENTED_EDGE('',*,*,#322,.F.);
#390=ORIENTED_EDGE('',*,*,#323,.F.);
#391=ORIENTED_EDGE('',*,*,#324,.F.);
#392=ORIENTED_EDGE('',*,*,#325,.F.);
#393=ORIENTED_EDGE('',*,*,#326,.F.);
#394=ORIENTED_EDGE('',*,*,#327,.F.);
#395=ORIENTED_EDGE('',*,*,#328,.F.);
#396=ORIENTED_EDGE('',*,*,#329,.F.);
#397=ORIENTED_EDGE('',*,*,#330,.F.);
#398=ORIENTED_EDGE('',*,*,#331,.T.);
#399=ORIENTED_EDGE('',*,*,#332,.T.);
#400=ORIENTED_EDGE('',*,*,#333,.T.);
#401=ORIENTED_EDGE('',*,*,#334,.T.);
#402=ORIENTED_EDGE('',*,*,#334,.F.);
#403=ORIENTED_EDGE('',*,*,#335,.F.);
#404=ORIENTED_EDGE('',*,*,#336,.F.);
#405=ORIENTED_EDGE('',*,*,#337,.F.);
#406=ORIENTED_EDGE('',*,*,#333,.F.);
#407=ORIENTED_EDGE('',*,*,#338,.T.);
#408=ORIENTED_EDGE('',*,*,#339,.F.);
#409=ORIENTED_EDGE('',*,*,#340,.T.);
#410=ORIENTED_EDGE('',*,*,#335,.T.);
#411=ORIENTED_EDGE('',*,*,#319,.T.);
#412=ORIENTED_EDGE('',*,*,#321,.T.);
#413=ORIENTED_EDGE('',*,*,#323,.T.);
#414=ORIENTED_EDGE('',*,*,#325,.T.);
#415=ORIENTED_EDGE('',*,*,#327,.T.);
#416=ORIENTED_EDGE('',*,*,#329,.T.);
#417=ORIENTED_EDGE('',*,*,#341,.T.);
#418=ORIENTED_EDGE('',*,*,#342,.T.);
#419=ORIENTED_EDGE('',*,*,#343,.T.);
#420=ORIENTED_EDGE('',*,*,#344,.F.);
#421=ORIENTED_EDGE('',*,*,#345,.T.);
#422=ORIENTED_EDGE('',*,*,#346,.T.);
#423=ORIENTED_EDGE('',*,*,#347,.T.);
#424=ORIENTED_EDGE('',*,*,#348,.F.);
#425=ORIENTED_EDGE('',*,*,#349,.T.);
#426=ORIENTED_EDGE('',*,*,#350,.F.);
#427=ORIENTED_EDGE('',*,*,#351,.T.);
#428=ORIENTED_EDGE('',*,*,#352,.T.);
#429=ORIENTED_EDGE('',*,*,#353,.T.);
#430=ORIENTED_EDGE('',*,*,#354,.T.);
#431=ORIENTED_EDGE('',*,*,#355,.T.);
#432=ORIENTED_EDGE('',*,*,#356,.T.);
#433=ORIENTED_EDGE('',*,*,#339,.T.);
#434=ORIENTED_EDGE('',*,*,#357,.T.);
#435=ORIENTED_EDGE('',*,*,#358,.T.);
#436=ORIENTED_EDGE('',*,*,#359,.T.);
#437=ORIENTED_EDGE('',*,*,#359,.F.);
#438=ORIENTED_EDGE('',*,*,#360,.F.);
#439=ORIENTED_EDGE('',*,*,#336,.T.);
#440=ORIENTED_EDGE('',*,*,#340,.F.);
#441=ORIENTED_EDGE('',*,*,#331,.F.);
#442=ORIENTED_EDGE('',*,*,#337,.T.);
#443=ORIENTED_EDGE('',*,*,#360,.T.);
#444=ORIENTED_EDGE('',*,*,#358,.F.);
#445=ORIENTED_EDGE('',*,*,#361,.T.);
#446=ORIENTED_EDGE('',*,*,#320,.T.);
#447=ORIENTED_EDGE('',*,*,#322,.T.);
#448=ORIENTED_EDGE('',*,*,#324,.T.);
#449=ORIENTED_EDGE('',*,*,#326,.T.);
#450=ORIENTED_EDGE('',*,*,#328,.T.);
#451=ORIENTED_EDGE('',*,*,#330,.T.);
#452=ORIENTED_EDGE('',*,*,#362,.T.);
#453=ORIENTED_EDGE('',*,*,#363,.T.);
#454=ORIENTED_EDGE('',*,*,#364,.T.);
#455=ORIENTED_EDGE('',*,*,#365,.T.);
#456=ORIENTED_EDGE('',*,*,#366,.T.);
#457=ORIENTED_EDGE('',*,*,#367,.T.);
#458=ORIENTED_EDGE('',*,*,#368,.F.);
#459=ORIENTED_EDGE('',*,*,#369,.T.);
#460=ORIENTED_EDGE('',*,*,#370,.F.);
#461=ORIENTED_EDGE('',*,*,#371,.T.);
#462=ORIENTED_EDGE('',*,*,#372,.T.);
#463=ORIENTED_EDGE('',*,*,#373,.T.);
#464=ORIENTED_EDGE('',*,*,#374,.T.);
#465=ORIENTED_EDGE('',*,*,#375,.F.);
#466=ORIENTED_EDGE('',*,*,#376,.T.);
#467=ORIENTED_EDGE('',*,*,#377,.T.);
#468=ORIENTED_EDGE('',*,*,#332,.F.);
#469=ORIENTED_EDGE('',*,*,#361,.F.);
#470=ORIENTED_EDGE('',*,*,#357,.F.);
#471=ORIENTED_EDGE('',*,*,#338,.F.);
#472=ORIENTED_EDGE('',*,*,#341,.F.);
#473=ORIENTED_EDGE('',*,*,#377,.F.);
#474=ORIENTED_EDGE('',*,*,#342,.F.);
#475=ORIENTED_EDGE('',*,*,#376,.F.);
#476=ORIENTED_EDGE('',*,*,#378,.F.);
#477=ORIENTED_EDGE('',*,*,#374,.F.);
#478=ORIENTED_EDGE('',*,*,#379,.T.);
#479=ORIENTED_EDGE('',*,*,#345,.F.);
#480=ORIENTED_EDGE('',*,*,#375,.T.);
#481=ORIENTED_EDGE('',*,*,#378,.T.);
#482=ORIENTED_EDGE('',*,*,#344,.T.);
#483=ORIENTED_EDGE('',*,*,#380,.T.);
#484=ORIENTED_EDGE('',*,*,#346,.F.);
#485=ORIENTED_EDGE('',*,*,#379,.F.);
#486=ORIENTED_EDGE('',*,*,#373,.F.);
#487=ORIENTED_EDGE('',*,*,#381,.F.);
#488=ORIENTED_EDGE('',*,*,#380,.F.);
#489=ORIENTED_EDGE('',*,*,#343,.F.);
#490=ORIENTED_EDGE('',*,*,#381,.T.);
#491=ORIENTED_EDGE('',*,*,#372,.F.);
#492=ORIENTED_EDGE('',*,*,#382,.F.);
#493=ORIENTED_EDGE('',*,*,#371,.F.);
#494=ORIENTED_EDGE('',*,*,#383,.F.);
#495=ORIENTED_EDGE('',*,*,#347,.F.);
#496=ORIENTED_EDGE('',*,*,#368,.T.);
#497=ORIENTED_EDGE('',*,*,#382,.T.);
#498=ORIENTED_EDGE('',*,*,#350,.T.);
#499=ORIENTED_EDGE('',*,*,#384,.T.);
#500=ORIENTED_EDGE('',*,*,#370,.T.);
#501=ORIENTED_EDGE('',*,*,#385,.T.);
#502=ORIENTED_EDGE('',*,*,#348,.T.);
#503=ORIENTED_EDGE('',*,*,#383,.T.);
#504=ORIENTED_EDGE('',*,*,#384,.F.);
#505=ORIENTED_EDGE('',*,*,#349,.F.);
#506=ORIENTED_EDGE('',*,*,#385,.F.);
#507=ORIENTED_EDGE('',*,*,#369,.F.);
#508=ORIENTED_EDGE('',*,*,#351,.F.);
#509=ORIENTED_EDGE('',*,*,#367,.F.);
#510=ORIENTED_EDGE('',*,*,#352,.F.);
#511=ORIENTED_EDGE('',*,*,#366,.F.);
#512=ORIENTED_EDGE('',*,*,#353,.F.);
#513=ORIENTED_EDGE('',*,*,#365,.F.);
#514=ORIENTED_EDGE('',*,*,#354,.F.);
#515=ORIENTED_EDGE('',*,*,#364,.F.);
#516=ORIENTED_EDGE('',*,*,#355,.F.);
#517=ORIENTED_EDGE('',*,*,#363,.F.);
#518=ORIENTED_EDGE('',*,*,#356,.F.);
#519=ORIENTED_EDGE('',*,*,#362,.F.);
#520=CYLINDRICAL_SURFACE('',#578,2.1);
#521=CYLINDRICAL_SURFACE('',#581,2.1);
#522=CYLINDRICAL_SURFACE('',#584,2.6);
#523=CYLINDRICAL_SURFACE('',#587,2.6);
#524=CYLINDRICAL_SURFACE('',#590,2.6);
#525=CYLINDRICAL_SURFACE('',#593,2.6);
#526=CYLINDRICAL_SURFACE('',#596,2.);
#527=CYLINDRICAL_SURFACE('',#615,2.);
#528=CYLINDRICAL_SURFACE('',#632,145.);
#529=CYLINDRICAL_SURFACE('',#633,2.1);
#530=CYLINDRICAL_SURFACE('',#634,2.1);
#531=CYLINDRICAL_SURFACE('',#636,1.5);
#532=CYLINDRICAL_SURFACE('',#637,2.5);
#533=CYLINDRICAL_SURFACE('',#640,1.5);
#534=CYLINDRICAL_SURFACE('',#641,1.5);
#535=CYLINDRICAL_SURFACE('',#643,2.75);
#536=CYLINDRICAL_SURFACE('',#644,2.75);
#537=CYLINDRICAL_SURFACE('',#645,2.6);
#538=CYLINDRICAL_SURFACE('',#646,2.6);
#539=CYLINDRICAL_SURFACE('',#647,2.6);
#540=CYLINDRICAL_SURFACE('',#648,2.6);
#541=ADVANCED_FACE('',(#119,#73),#520,.F.);
#542=ADVANCED_FACE('',(#120,#74),#521,.F.);
#543=ADVANCED_FACE('',(#121,#75),#522,.F.);
#544=ADVANCED_FACE('',(#122,#76),#523,.F.);
#545=ADVANCED_FACE('',(#123,#77),#524,.F.);
#546=ADVANCED_FACE('',(#124,#78),#525,.F.);
#547=ADVANCED_FACE('',(#125),#526,.T.);
#548=ADVANCED_FACE('',(#126),#15,.F.);
#549=ADVANCED_FACE('',(#127,#79,#80,#81,#82,#83,#84,#85,#86,#87,#88,#89,
#90,#91,#92,#93,#94),#16,.F.);
#550=ADVANCED_FACE('',(#128),#527,.T.);
#551=ADVANCED_FACE('',(#129),#17,.F.);
#552=ADVANCED_FACE('',(#130,#95,#96,#97,#98,#99,#100,#101,#102,#103,#104,
#105,#106,#107,#108,#109,#110),#18,.T.);
#553=ADVANCED_FACE('',(#131),#528,.T.);
#554=ADVANCED_FACE('',(#132,#111),#529,.F.);
#555=ADVANCED_FACE('',(#133,#112),#530,.F.);
#556=ADVANCED_FACE('',(#134),#19,.F.);
#557=ADVANCED_FACE('',(#135),#531,.F.);
#558=ADVANCED_FACE('',(#136),#532,.F.);
#559=ADVANCED_FACE('',(#137),#20,.F.);
#560=ADVANCED_FACE('',(#138),#21,.F.);
#561=ADVANCED_FACE('',(#139),#533,.F.);
#562=ADVANCED_FACE('',(#140),#534,.F.);
#563=ADVANCED_FACE('',(#141),#22,.F.);
#564=ADVANCED_FACE('',(#142,#113),#535,.F.);
#565=ADVANCED_FACE('',(#143,#114),#536,.F.);
#566=ADVANCED_FACE('',(#144,#115),#537,.F.);
#567=ADVANCED_FACE('',(#145,#116),#538,.F.);
#568=ADVANCED_FACE('',(#146,#117),#539,.F.);
#569=ADVANCED_FACE('',(#147,#118),#540,.F.);
#570=CLOSED_SHELL('',(#541,#542,#543,#544,#545,#546,#547,#548,#549,#550,
#551,#552,#553,#554,#555,#556,#557,#558,#559,#560,#561,#562,#563,#564,#565,
#566,#567,#568,#569));
#571=DATE_TIME_ROLE('creation_date');
#572=APPLIED_DATE_AND_TIME_ASSIGNMENT(#573,#571,(#983));
#573=DATE_AND_TIME(#574,#575);
#574=CALENDAR_DATE(2016,5,12);
#575=LOCAL_TIME(20,5,42.,#576);
#576=COORDINATED_UNIVERSAL_TIME_OFFSET(0,0,.BEHIND.);
#577=AXIS2_PLACEMENT_3D('placement',#818,#649,#650);
#578=AXIS2_PLACEMENT_3D('',#819,#651,#652);
#579=AXIS2_PLACEMENT_3D('',#821,#653,#654);
#580=AXIS2_PLACEMENT_3D('',#823,#655,#656);
#581=AXIS2_PLACEMENT_3D('',#824,#657,#658);
#582=AXIS2_PLACEMENT_3D('',#826,#659,#660);
#583=AXIS2_PLACEMENT_3D('',#828,#661,#662);
#584=AXIS2_PLACEMENT_3D('',#829,#663,#664);
#585=AXIS2_PLACEMENT_3D('',#831,#665,#666);
#586=AXIS2_PLACEMENT_3D('',#833,#667,#668);
#587=AXIS2_PLACEMENT_3D('',#834,#669,#670);
#588=AXIS2_PLACEMENT_3D('',#836,#671,#672);
#589=AXIS2_PLACEMENT_3D('',#838,#673,#674);
#590=AXIS2_PLACEMENT_3D('',#839,#675,#676);
#591=AXIS2_PLACEMENT_3D('',#841,#677,#678);
#592=AXIS2_PLACEMENT_3D('',#843,#679,#680);
#593=AXIS2_PLACEMENT_3D('',#844,#681,#682);
#594=AXIS2_PLACEMENT_3D('',#846,#683,#684);
#595=AXIS2_PLACEMENT_3D('',#848,#685,#686);
#596=AXIS2_PLACEMENT_3D('',#849,#687,#688);
#597=AXIS2_PLACEMENT_3D('',#852,#689,#690);
#598=AXIS2_PLACEMENT_3D('',#856,#692,#693);
#599=AXIS2_PLACEMENT_3D('',#858,#695,#696);
#600=AXIS2_PLACEMENT_3D('',#864,#700,#701);
#601=AXIS2_PLACEMENT_3D('',#866,#702,#703);
#602=AXIS2_PLACEMENT_3D('',#868,#704,#705);
#603=AXIS2_PLACEMENT_3D('',#871,#707,#708);
#604=AXIS2_PLACEMENT_3D('',#873,#709,#710);
#605=AXIS2_PLACEMENT_3D('',#878,#712,#713);
#606=AXIS2_PLACEMENT_3D('',#881,#715,#716);
#607=AXIS2_PLACEMENT_3D('',#886,#718,#719);
#608=AXIS2_PLACEMENT_3D('',#889,#721,#722);
#609=AXIS2_PLACEMENT_3D('',#891,#723,#724);
#610=AXIS2_PLACEMENT_3D('',#893,#725,#726);
#611=AXIS2_PLACEMENT_3D('',#895,#727,#728);
#612=AXIS2_PLACEMENT_3D('',#897,#729,#730);
#613=AXIS2_PLACEMENT_3D('',#899,#731,#732);
#614=AXIS2_PLACEMENT_3D('',#901,#733,#734);
#615=AXIS2_PLACEMENT_3D('',#902,#735,#736);
#616=AXIS2_PLACEMENT_3D('',#906,#738,#739);
#617=AXIS2_PLACEMENT_3D('',#908,#741,#742);
#618=AXIS2_PLACEMENT_3D('',#910,#744,#745);
#619=AXIS2_PLACEMENT_3D('',#911,#746,#747);
#620=AXIS2_PLACEMENT_3D('',#913,#748,#749);
#621=AXIS2_PLACEMENT_3D('',#915,#750,#751);
#622=AXIS2_PLACEMENT_3D('',#917,#752,#753);
#623=AXIS2_PLACEMENT_3D('',#919,#754,#755);
#624=AXIS2_PLACEMENT_3D('',#921,#756,#757);
#625=AXIS2_PLACEMENT_3D('',#923,#758,#759);
#626=AXIS2_PLACEMENT_3D('',#926,#760,#761);
#627=AXIS2_PLACEMENT_3D('',#930,#763,#764);
#628=AXIS2_PLACEMENT_3D('',#936,#767,#768);
#629=AXIS2_PLACEMENT_3D('',#939,#770,#771);
#630=AXIS2_PLACEMENT_3D('',#941,#772,#773);
#631=AXIS2_PLACEMENT_3D('',#943,#774,#775);
#632=AXIS2_PLACEMENT_3D('',#944,#776,#777);
#633=AXIS2_PLACEMENT_3D('',#945,#778,#779);
#634=AXIS2_PLACEMENT_3D('',#946,#780,#781);
#635=AXIS2_PLACEMENT_3D('',#947,#782,#783);
#636=AXIS2_PLACEMENT_3D('',#950,#786,#787);
#637=AXIS2_PLACEMENT_3D('',#952,#789,#790);
#638=AXIS2_PLACEMENT_3D('',#954,#792,#793);
#639=AXIS2_PLACEMENT_3D('',#955,#794,#795);
#640=AXIS2_PLACEMENT_3D('',#958,#798,#799);
#641=AXIS2_PLACEMENT_3D('',#960,#801,#802);
#642=AXIS2_PLACEMENT_3D('',#962,#804,#805);
#643=AXIS2_PLACEMENT_3D('',#963,#806,#807);
#644=AXIS2_PLACEMENT_3D('',#964,#808,#809);
#645=AXIS2_PLACEMENT_3D('',#965,#810,#811);
#646=AXIS2_PLACEMENT_3D('',#966,#812,#813);
#647=AXIS2_PLACEMENT_3D('',#967,#814,#815);
#648=AXIS2_PLACEMENT_3D('',#968,#816,#817);
#649=DIRECTION('axis',(0.,0.,1.));
#650=DIRECTION('refdir',(1.,0.,0.));
#651=DIRECTION('center_axis',(0.,0.,1.));
#652=DIRECTION('ref_axis',(1.,0.,0.));
#653=DIRECTION('center_axis',(0.,0.,1.));
#654=DIRECTION('ref_axis',(1.,0.,0.));
#655=DIRECTION('center_axis',(0.,0.,-1.));
#656=DIRECTION('ref_axis',(1.,0.,0.));
#657=DIRECTION('center_axis',(0.,0.,1.));
#658=DIRECTION('ref_axis',(1.,0.,0.));
#659=DIRECTION('center_axis',(0.,0.,1.));
#660=DIRECTION('ref_axis',(1.,0.,0.));
#661=DIRECTION('center_axis',(0.,0.,-1.));
#662=DIRECTION('ref_axis',(1.,0.,0.));
#663=DIRECTION('center_axis',(0.,0.,1.));
#664=DIRECTION('ref_axis',(1.,0.,0.));
#665=DIRECTION('center_axis',(0.,0.,1.));
#666=DIRECTION('ref_axis',(1.,0.,0.));
#667=DIRECTION('center_axis',(0.,0.,-1.));
#668=DIRECTION('ref_axis',(1.,0.,0.));
#669=DIRECTION('center_axis',(0.,0.,1.));
#670=DIRECTION('ref_axis',(1.,0.,0.));
#671=DIRECTION('center_axis',(0.,0.,1.));
#672=DIRECTION('ref_axis',(1.,0.,0.));
#673=DIRECTION('center_axis',(0.,0.,-1.));
#674=DIRECTION('ref_axis',(1.,0.,0.));
#675=DIRECTION('center_axis',(0.,0.,1.));
#676=DIRECTION('ref_axis',(1.,0.,0.));
#677=DIRECTION('center_axis',(0.,0.,1.));
#678=DIRECTION('ref_axis',(1.,0.,0.));
#679=DIRECTION('center_axis',(0.,0.,-1.));
#680=DIRECTION('ref_axis',(1.,0.,0.));
#681=DIRECTION('center_axis',(0.,0.,1.));
#682=DIRECTION('ref_axis',(1.,0.,0.));
#683=DIRECTION('center_axis',(0.,0.,1.));
#684=DIRECTION('ref_axis',(1.,0.,0.));
#685=DIRECTION('center_axis',(0.,0.,-1.));
#686=DIRECTION('ref_axis',(1.,0.,0.));
#687=DIRECTION('center_axis',(0.,0.,1.));
#688=DIRECTION('ref_axis',(0.870605157450203,0.491982377551379,0.));
#689=DIRECTION('center_axis',(0.,0.,-1.));
#690=DIRECTION('ref_axis',(0.870605157450203,0.491982377551379,0.));
#691=DIRECTION('',(0.,0.,-1.));
#692=DIRECTION('center_axis',(0.,0.,1.));
#693=DIRECTION('ref_axis',(0.870605157450203,0.491982377551379,0.));
#694=DIRECTION('',(0.,0.,1.));
#695=DIRECTION('center_axis',(-0.500000000000012,-0.866025403784432,0.));
#696=DIRECTION('ref_axis',(-0.866025403784431,0.500000000000013,0.));
#697=DIRECTION('',(0.866025403784431,-0.500000000000012,0.));
#698=DIRECTION('',(0.,0.,-1.));
#699=DIRECTION('',(-0.866025403784431,0.500000000000012,0.));
#700=DIRECTION('center_axis',(0.,0.,1.));
#701=DIRECTION('ref_axis',(1.,0.,0.));
#702=DIRECTION('center_axis',(0.,0.,-1.));
#703=DIRECTION('ref_axis',(-1.,0.,0.));
#704=DIRECTION('center_axis',(0.,0.,1.));
#705=DIRECTION('ref_axis',(0.870605157450197,-0.491982377551389,0.));
#706=DIRECTION('',(-0.866025403784443,-0.499999999999992,0.));
#707=DIRECTION('center_axis',(0.,0.,1.));
#708=DIRECTION('ref_axis',(1.,0.,0.));
#709=DIRECTION('center_axis',(0.,0.,1.));
#710=DIRECTION('ref_axis',(1.,0.,0.));
#711=DIRECTION('',(1.,6.93889390390723E-17,0.));
#712=DIRECTION('center_axis',(0.,0.,-1.));
#713=DIRECTION('ref_axis',(0.707106781186548,0.707106781186547,0.));
#714=DIRECTION('',(-1.,6.93889390390723E-17,0.));
#715=DIRECTION('center_axis',(0.,0.,1.));
#716=DIRECTION('ref_axis',(1.,0.,0.));
#717=DIRECTION('',(-2.22044604925031E-16,1.,0.));
#718=DIRECTION('center_axis',(0.,0.,-1.));
#719=DIRECTION('ref_axis',(-0.707106781186547,0.707106781186547,0.));
#720=DIRECTION('',(5.55111512312578E-17,-1.,0.));
#721=DIRECTION('center_axis',(0.,0.,-1.));
#722=DIRECTION('ref_axis',(0.707106781186547,-0.707106781186547,0.));
#723=DIRECTION('center_axis',(0.,0.,1.));
#724=DIRECTION('ref_axis',(1.,0.,0.));
#725=DIRECTION('center_axis',(0.,0.,1.));
#726=DIRECTION('ref_axis',(1.,0.,0.));
#727=DIRECTION('center_axis',(0.,0.,1.));
#728=DIRECTION('ref_axis',(1.,0.,0.));
#729=DIRECTION('center_axis',(0.,0.,1.));
#730=DIRECTION('ref_axis',(1.,0.,0.));
#731=DIRECTION('center_axis',(0.,0.,1.));
#732=DIRECTION('ref_axis',(1.,0.,0.));
#733=DIRECTION('center_axis',(0.,0.,1.));
#734=DIRECTION('ref_axis',(1.,0.,0.));
#735=DIRECTION('center_axis',(0.,0.,-1.));
#736=DIRECTION('ref_axis',(0.870605157450197,-0.491982377551389,0.));
#737=DIRECTION('',(0.,0.,1.));
#738=DIRECTION('center_axis',(0.,0.,-1.));
#739=DIRECTION('ref_axis',(0.870605157450197,-0.491982377551389,0.));
#740=DIRECTION('',(0.,0.,-1.));
#741=DIRECTION('center_axis',(-0.499999999999992,0.866025403784443,0.));
#742=DIRECTION('ref_axis',(0.866025403784443,0.499999999999992,0.));
#743=DIRECTION('',(0.866025403784443,0.499999999999992,0.));
#744=DIRECTION('center_axis',(0.,0.,1.));
#745=DIRECTION('ref_axis',(1.,0.,0.));
#746=DIRECTION('center_axis',(0.,0.,1.));
#747=DIRECTION('ref_axis',(-1.,0.,0.));
#748=DIRECTION('center_axis',(0.,0.,-1.));
#749=DIRECTION('ref_axis',(1.,0.,0.));
#750=DIRECTION('center_axis',(0.,0.,-1.));
#751=DIRECTION('ref_axis',(1.,0.,0.));
#752=DIRECTION('center_axis',(0.,0.,-1.));
#753=DIRECTION('ref_axis',(1.,0.,0.));
#754=DIRECTION('center_axis',(0.,0.,-1.));
#755=DIRECTION('ref_axis',(1.,0.,0.));
#756=DIRECTION('center_axis',(0.,0.,-1.));
#757=DIRECTION('ref_axis',(1.,0.,0.));
#758=DIRECTION('center_axis',(0.,0.,-1.));
#759=DIRECTION('ref_axis',(1.,0.,0.));
#760=DIRECTION('center_axis',(0.,0.,1.));
#761=DIRECTION('ref_axis',(-0.707106781186547,-0.707106781186548,0.));
#762=DIRECTION('',(-5.55111512312578E-17,1.,0.));
#763=DIRECTION('center_axis',(0.,0.,1.));
#764=DIRECTION('ref_axis',(0.707106781186547,0.707106781186548,0.));
#765=DIRECTION('',(2.22044604925031E-16,-1.,0.));
#766=DIRECTION('',(-1.,-6.93889390390723E-17,0.));
#767=DIRECTION('center_axis',(0.,0.,-1.));
#768=DIRECTION('ref_axis',(1.,0.,0.));
#769=DIRECTION('',(1.,-6.93889390390723E-17,0.));
#770=DIRECTION('center_axis',(0.,0.,1.));
#771=DIRECTION('ref_axis',(0.707106781186546,-0.707106781186549,0.));
#772=DIRECTION('center_axis',(0.,0.,-1.));
#773=DIRECTION('ref_axis',(1.,0.,0.));
#774=DIRECTION('center_axis',(0.,0.,-1.));
#775=DIRECTION('ref_axis',(1.,0.,0.));
#776=DIRECTION('center_axis',(0.,0.,1.));
#777=DIRECTION('ref_axis',(-1.,0.,0.));
#778=DIRECTION('center_axis',(0.,0.,1.));
#779=DIRECTION('ref_axis',(1.,0.,0.));
#780=DIRECTION('center_axis',(0.,0.,1.));
#781=DIRECTION('ref_axis',(1.,0.,0.));
#782=DIRECTION('center_axis',(6.93889390390723E-17,1.,0.));
#783=DIRECTION('ref_axis',(1.,-6.66133814775094E-17,0.));
#784=DIRECTION('',(0.,0.,-1.));
#785=DIRECTION('',(0.,0.,-1.));
#786=DIRECTION('center_axis',(0.,0.,-1.));
#787=DIRECTION('ref_axis',(0.707106781186546,-0.707106781186549,0.));
#788=DIRECTION('',(0.,0.,1.));
#789=DIRECTION('center_axis',(0.,0.,-1.));
#790=DIRECTION('ref_axis',(1.,0.,0.));
#791=DIRECTION('',(0.,0.,1.));
#792=DIRECTION('center_axis',(6.93889390390723E-17,-1.,0.));
#793=DIRECTION('ref_axis',(-1.,-6.66133814775094E-17,0.));
#794=DIRECTION('center_axis',(1.,2.22044604925031E-16,0.));
#795=DIRECTION('ref_axis',(1.77635683940025E-16,-1.,0.));
#796=DIRECTION('',(0.,0.,-1.));
#797=DIRECTION('',(0.,0.,1.));
#798=DIRECTION('center_axis',(0.,0.,-1.));
#799=DIRECTION('ref_axis',(-0.707106781186547,-0.707106781186548,0.));
#800=DIRECTION('',(0.,0.,1.));
#801=DIRECTION('center_axis',(0.,0.,-1.));
#802=DIRECTION('ref_axis',(-0.707106781186547,0.707106781186547,0.));
#803=DIRECTION('',(0.,0.,-1.));
#804=DIRECTION('center_axis',(-1.,-5.55111512312578E-17,0.));
#805=DIRECTION('ref_axis',(0.,1.,0.));
#806=DIRECTION('center_axis',(0.,0.,1.));
#807=DIRECTION('ref_axis',(1.,0.,0.));
#808=DIRECTION('center_axis',(0.,0.,1.));
#809=DIRECTION('ref_axis',(1.,0.,0.));
#810=DIRECTION('center_axis',(0.,0.,1.));
#811=DIRECTION('ref_axis',(1.,0.,0.));
#812=DIRECTION('center_axis',(0.,0.,1.));
#813=DIRECTION('ref_axis',(1.,0.,0.));
#814=DIRECTION('center_axis',(0.,0.,1.));
#815=DIRECTION('ref_axis',(1.,0.,0.));
#816=DIRECTION('center_axis',(0.,0.,1.));
#817=DIRECTION('ref_axis',(1.,0.,0.));
#818=CARTESIAN_POINT('',(0.,0.,0.));
#819=CARTESIAN_POINT('Origin',(89.1745363169517,24.5795051344948,-407.115664858224));
#820=CARTESIAN_POINT('',(87.0745363169517,24.5795051344948,0.));
#821=CARTESIAN_POINT('Origin',(89.1745363169517,24.5795051344948,0.));
#822=CARTESIAN_POINT('',(91.2745363169517,24.5795051344948,3.));
#823=CARTESIAN_POINT('Origin',(89.1745363169517,24.5795051344948,2.99999999999997));
#824=CARTESIAN_POINT('Origin',(89.1745363169517,-24.5795051344948,-407.115664858224));
#825=CARTESIAN_POINT('',(87.0745363169517,-24.5795051344948,0.));
#826=CARTESIAN_POINT('Origin',(89.1745363169517,-24.5795051344948,0.));
#827=CARTESIAN_POINT('',(91.2745363169517,-24.5795051344948,3.));
#828=CARTESIAN_POINT('Origin',(89.1745363169517,-24.5795051344948,2.99999999999997));
#829=CARTESIAN_POINT('Origin',(136.746760613138,-14.3726636993023,-407.115664858224));
#830=CARTESIAN_POINT('',(134.146760613138,-14.3726636993023,0.));
#831=CARTESIAN_POINT('Origin',(136.746760613138,-14.3726636993023,0.));
#832=CARTESIAN_POINT('',(139.346760613138,-14.3726636993023,3.));
#833=CARTESIAN_POINT('Origin',(136.746760613138,-14.3726636993023,2.99999999999997));
#834=CARTESIAN_POINT('Origin',(136.746760613138,14.3726636993023,-407.115664858224));
#835=CARTESIAN_POINT('',(134.146760613138,14.3726636993023,0.));
#836=CARTESIAN_POINT('Origin',(136.746760613138,14.3726636993023,0.));
#837=CARTESIAN_POINT('',(139.346760613138,14.3726636993023,3.));
#838=CARTESIAN_POINT('Origin',(136.746760613138,14.3726636993023,2.99999999999997));
#839=CARTESIAN_POINT('Origin',(134.495295100898,28.5878574874419,-407.115664858224));
#840=CARTESIAN_POINT('',(131.895295100898,28.5878574874419,0.));
#841=CARTESIAN_POINT('Origin',(134.495295100898,28.5878574874419,0.));
#842=CARTESIAN_POINT('',(137.095295100898,28.5878574874419,3.));
#843=CARTESIAN_POINT('Origin',(134.495295100898,28.5878574874419,2.99999999999997));
#844=CARTESIAN_POINT('Origin',(134.495295100898,-28.5878574874419,-407.115664858224));
#845=CARTESIAN_POINT('',(131.895295100898,-28.5878574874419,0.));
#846=CARTESIAN_POINT('Origin',(134.495295100898,-28.5878574874419,0.));
#847=CARTESIAN_POINT('',(137.095295100898,-28.5878574874419,3.));
#848=CARTESIAN_POINT('Origin',(134.495295100898,-28.5878574874419,2.99999999999997));
#849=CARTESIAN_POINT('Origin',(142.975617185486,-2.64062311385586,0.));
#850=CARTESIAN_POINT('',(143.975617185486,-0.908572306286977,3.));
#851=CARTESIAN_POINT('',(144.975276167101,-2.67755490565804,3.));
#852=CARTESIAN_POINT('Origin',(142.975617185486,-2.64062311385586,3.));
#853=CARTESIAN_POINT('',(144.975276167101,-2.67755490565804,0.));
#854=CARTESIAN_POINT('',(144.975276167101,-2.67755490565804,0.));
#855=CARTESIAN_POINT('',(143.975617185486,-0.908572306286977,-2.77555756156289E-16));
#856=CARTESIAN_POINT('Origin',(142.975617185486,-2.64062311385586,0.));
#857=CARTESIAN_POINT('',(143.975617185486,-0.908572306286986,0.));
#858=CARTESIAN_POINT('Origin',(145.,-1.5,3.));
#859=CARTESIAN_POINT('',(142.401923788647,3.5527136788005E-14,0.));
#860=CARTESIAN_POINT('',(90.3002404735817,30.0809208871864,-2.77555756156289E-16));
#861=CARTESIAN_POINT('',(142.401923788647,3.5527136788005E-14,3.));
#862=CARTESIAN_POINT('',(142.401923788647,3.5527136788005E-14,3.));
#863=CARTESIAN_POINT('',(90.3002404735817,30.0809208871864,3.));
#864=CARTESIAN_POINT('Origin',(-1.45472341606497E-14,-3.26686315292E-15,
0.));
#865=CARTESIAN_POINT('',(144.975276167101,2.67755490565804,0.));
#866=CARTESIAN_POINT('Origin',(0.,0.,0.));
#867=CARTESIAN_POINT('',(143.975617185486,0.908572306286972,-2.77555756156289E-16));
#868=CARTESIAN_POINT('Origin',(142.975617185486,2.64062311385586,0.));
#869=CARTESIAN_POINT('',(89.0012023679036,-30.8309208871856,-2.77555756156289E-16));
#870=CARTESIAN_POINT('',(51.6111958404036,-62.796268506035,0.));
#871=CARTESIAN_POINT('Origin',(53.7111958404036,-62.796268506035,0.));
#872=CARTESIAN_POINT('',(51.6111958404036,63.403731493965,0.));
#873=CARTESIAN_POINT('Origin',(53.7111958404036,63.403731493965,0.));
#874=CARTESIAN_POINT('',(21.5,-1.5,0.));
#875=CARTESIAN_POINT('',(36.,-1.5,0.));
#876=CARTESIAN_POINT('',(18.75,-1.5,0.));
#877=CARTESIAN_POINT('',(36.,1.5,0.));
#878=CARTESIAN_POINT('Origin',(36.,-1.2490009027033E-15,0.));
#879=CARTESIAN_POINT('',(21.5,1.5,0.));
#880=CARTESIAN_POINT('',(8.74999999999999,1.5,0.));
#881=CARTESIAN_POINT('Origin',(19.5,0.,0.));
#882=CARTESIAN_POINT('',(13.,-8.5,0.));
#883=CARTESIAN_POINT('',(13.,8.5,0.));
#884=CARTESIAN_POINT('',(13.,5.,0.));
#885=CARTESIAN_POINT('',(10.,8.5,0.));
#886=CARTESIAN_POINT('Origin',(11.5,8.5,0.));
#887=CARTESIAN_POINT('',(10.,-8.5,0.));
#888=CARTESIAN_POINT('',(10.,-5.,0.));
#889=CARTESIAN_POINT('Origin',(11.5,-8.5,0.));
#890=CARTESIAN_POINT('',(-2.75,-8.,0.));
#891=CARTESIAN_POINT('Origin',(0.,-8.,0.));
#892=CARTESIAN_POINT('',(-2.75,8.,0.));
#893=CARTESIAN_POINT('Origin',(0.,8.,0.));
#894=CARTESIAN_POINT('',(-102.911195840404,-82.6901686361093,0.));
#895=CARTESIAN_POINT('Origin',(-100.311195840404,-82.6901686361093,0.));
#896=CARTESIAN_POINT('',(97.7111958404036,-82.6901686361093,0.));
#897=CARTESIAN_POINT('Origin',(100.311195840404,-82.6901686361093,0.));
#898=CARTESIAN_POINT('',(97.7111958404036,82.6901686361093,0.));
#899=CARTESIAN_POINT('Origin',(100.311195840404,82.6901686361093,0.));
#900=CARTESIAN_POINT('',(-102.911195840404,82.6901686361093,0.));
#901=CARTESIAN_POINT('Origin',(-100.311195840404,82.6901686361093,0.));
#902=CARTESIAN_POINT('Origin',(142.975617185486,2.64062311385586,0.));
#903=CARTESIAN_POINT('',(144.975276167101,2.67755490565804,3.));
#904=CARTESIAN_POINT('',(144.975276167101,2.67755490565804,0.));
#905=CARTESIAN_POINT('',(143.975617185486,0.908572306286972,3.));
#906=CARTESIAN_POINT('Origin',(142.975617185486,2.64062311385586,3.));
#907=CARTESIAN_POINT('',(143.975617185486,0.908572306286979,0.));
#908=CARTESIAN_POINT('Origin',(142.401923788647,3.5527136788005E-14,3.));
#909=CARTESIAN_POINT('',(89.0012023679036,-30.8309208871856,3.));
#910=CARTESIAN_POINT('Origin',(-1.45472341606497E-14,-3.26686315292E-15,
3.));
#911=CARTESIAN_POINT('Origin',(0.,0.,3.));
#912=CARTESIAN_POINT('',(-97.7111958404036,82.6901686361093,3.));
#913=CARTESIAN_POINT('Origin',(-100.311195840404,82.6901686361093,2.99999999999997));
#914=CARTESIAN_POINT('',(102.911195840404,82.6901686361093,3.));
#915=CARTESIAN_POINT('Origin',(100.311195840404,82.6901686361093,2.99999999999997));
#916=CARTESIAN_POINT('',(102.911195840404,-82.6901686361093,3.));
#917=CARTESIAN_POINT('Origin',(100.311195840404,-82.6901686361093,2.99999999999997));
#918=CARTESIAN_POINT('',(-97.7111958404036,-82.6901686361093,3.));
#919=CARTESIAN_POINT('Origin',(-100.311195840404,-82.6901686361093,2.99999999999997));
#920=CARTESIAN_POINT('',(2.75,8.,3.));
#921=CARTESIAN_POINT('Origin',(0.,8.,2.99999999999997));
#922=CARTESIAN_POINT('',(2.75,-8.,3.));
#923=CARTESIAN_POINT('Origin',(0.,-8.,2.99999999999997));
#924=CARTESIAN_POINT('',(10.,-8.5,3.));
#925=CARTESIAN_POINT('',(13.,-8.5,3.));
#926=CARTESIAN_POINT('Origin',(11.5,-8.5,3.));
#927=CARTESIAN_POINT('',(10.,8.5,3.));
#928=CARTESIAN_POINT('',(10.,-5.,3.));
#929=CARTESIAN_POINT('',(13.,8.5,3.));
#930=CARTESIAN_POINT('Origin',(11.5,8.5,3.));
#931=CARTESIAN_POINT('',(13.,5.,3.));
#932=CARTESIAN_POINT('',(36.,-1.5,3.));
#933=CARTESIAN_POINT('',(21.5,-1.5,3.));
#934=CARTESIAN_POINT('',(18.75,-1.5,3.));
#935=CARTESIAN_POINT('',(21.5,1.5,3.));
#936=CARTESIAN_POINT('Origin',(19.5,0.,3.));
#937=CARTESIAN_POINT('',(36.,1.5,3.));
#938=CARTESIAN_POINT('',(8.74999999999999,1.5,3.));
#939=CARTESIAN_POINT('Origin',(36.,1.33573707650214E-15,3.));
#940=CARTESIAN_POINT('',(55.8111958404036,63.403731493965,3.));
#941=CARTESIAN_POINT('Origin',(53.7111958404036,63.403731493965,2.99999999999997));
#942=CARTESIAN_POINT('',(55.8111958404036,-62.796268506035,3.));
#943=CARTESIAN_POINT('Origin',(53.7111958404036,-62.796268506035,2.99999999999997));
#944=CARTESIAN_POINT('Origin',(0.,0.,0.));
#945=CARTESIAN_POINT('Origin',(53.7111958404036,-62.796268506035,-407.13290528803));
#946=CARTESIAN_POINT('Origin',(53.7111958404036,63.403731493965,-407.13290528803));
#947=CARTESIAN_POINT('Origin',(17.5,1.5,3.));
#948=CARTESIAN_POINT('',(36.,1.5,3.));
#949=CARTESIAN_POINT('',(21.5,1.5,3.));
#950=CARTESIAN_POINT('Origin',(36.,1.33573707650214E-15,3.));
#951=CARTESIAN_POINT('',(36.,-1.5,3.));
#952=CARTESIAN_POINT('Origin',(19.5,0.,3.));
#953=CARTESIAN_POINT('',(21.5,-1.5,3.));
#954=CARTESIAN_POINT('Origin',(37.5,-1.5,3.));
#955=CARTESIAN_POINT('Origin',(13.,10.,3.));
#956=CARTESIAN_POINT('',(13.,-8.5,3.));
#957=CARTESIAN_POINT('',(13.,8.5,3.));
#958=CARTESIAN_POINT('Origin',(11.5,-8.5,3.));
#959=CARTESIAN_POINT('',(10.,-8.5,3.));
#960=CARTESIAN_POINT('Origin',(11.5,8.5,3.));
#961=CARTESIAN_POINT('',(10.,8.5,3.));
#962=CARTESIAN_POINT('Origin',(10.,-10.,3.));
#963=CARTESIAN_POINT('Origin',(0.,-8.,-407.13290528803));
#964=CARTESIAN_POINT('Origin',(0.,8.,-407.13290528803));
#965=CARTESIAN_POINT('Origin',(-100.311195840404,-82.6901686361093,-407.13290528803));
#966=CARTESIAN_POINT('Origin',(100.311195840404,-82.6901686361093,-407.13290528803));
#967=CARTESIAN_POINT('Origin',(100.311195840404,82.6901686361093,-407.13290528803));
#968=CARTESIAN_POINT('Origin',(-100.311195840404,82.6901686361093,-407.13290528803));
#969=UNCERTAINTY_MEASURE_WITH_UNIT(LENGTH_MEASURE(0.01),#973,
'DISTANCE_ACCURACY_VALUE',
'Maximum model space distance between geometric entities at asserted c
onnectivities');
#970=UNCERTAINTY_MEASURE_WITH_UNIT(LENGTH_MEASURE(1.E-6),#973,
'DISTANCE_ACCURACY_VALUE',
'Maximum model space distance between geometric entities at asserted c
onnectivities');
#971=(
GEOMETRIC_REPRESENTATION_CONTEXT(3)
GLOBAL_UNCERTAINTY_ASSIGNED_CONTEXT((#969))
GLOBAL_UNIT_ASSIGNED_CONTEXT((#973,#976,#974))
REPRESENTATION_CONTEXT('','3D')
);
#972=(
GEOMETRIC_REPRESENTATION_CONTEXT(3)
GLOBAL_UNCERTAINTY_ASSIGNED_CONTEXT((#970))
GLOBAL_UNIT_ASSIGNED_CONTEXT((#973,#976,#974))
REPRESENTATION_CONTEXT('','3D')
);
#973=(
LENGTH_UNIT()
NAMED_UNIT(*)
SI_UNIT(.MILLI.,.METRE.)
);
#974=(
NAMED_UNIT(*)
SI_UNIT($,.STERADIAN.)
SOLID_ANGLE_UNIT()
);
#975=DIMENSIONAL_EXPONENTS(0.,0.,0.,0.,0.,0.,0.);
#976=(
CONVERSION_BASED_UNIT('degree',#978)
NAMED_UNIT(#975)
PLANE_ANGLE_UNIT()
);
#977=(
NAMED_UNIT(*)
PLANE_ANGLE_UNIT()
SI_UNIT($,.RADIAN.)
);
#978=PLANE_ANGLE_MEASURE_WITH_UNIT(PLANE_ANGLE_MEASURE(0.01745329252),#977);
#979=SHAPE_DEFINITION_REPRESENTATION(#980,#981);
#980=PRODUCT_DEFINITION_SHAPE('',$,#983);
#981=SHAPE_REPRESENTATION('',(#577),#971);
#982=PRODUCT_DEFINITION_CONTEXT('part definition',#987,'design');
#983=PRODUCT_DEFINITION('Plataforma_superior','LOLA3_006_superior',#984,
#982);
#984=PRODUCT_DEFINITION_FORMATION('',$,#989);
#985=PRODUCT_RELATED_PRODUCT_CATEGORY('LOLA3_006_superior',
'LOLA3_006_superior',(#989));
#986=APPLICATION_PROTOCOL_DEFINITION('international standard',
'automotive_design',2009,#987);
#987=APPLICATION_CONTEXT(
'Core Data for Automotive Mechanical Design Process');
#988=PRODUCT_CONTEXT('part definition',#987,'mechanical');
#989=PRODUCT('Plataforma_superior','LOLA3_006_superior',$,(#988));
#990=PRESENTATION_STYLE_ASSIGNMENT((#991));
#991=SURFACE_STYLE_USAGE(.BOTH.,#992);
#992=SURFACE_SIDE_STYLE('',(#993));
#993=SURFACE_STYLE_FILL_AREA(#994);
#994=FILL_AREA_STYLE('',(#995));
#995=FILL_AREA_STYLE_COLOUR('',#996);
#996=COLOUR_RGB('',0.749019607843137,0.749019607843137,0.749019607843137);
ENDSEC;
END-ISO-10303-21;
