ISO-10303-21;
HEADER;
/* Generated by software containing ST-Developer
 * from STEP Tools, Inc. (www.steptools.com) 
 */

FILE_DESCRIPTION(
/* description */ (''),
/* implementation_level */ '2;1');

FILE_NAME(
/* name */ 
'D:\\Javier\\Documents\\proyectos\\lola_3mm\\Archivos Generados\\Corte
\\LOLA3_003_paragolpes.stp',
/* time_stamp */ '2018-02-27T13:32:05+01:00',
/* author */ ('javi'),
/* organization */ (''),
/* preprocessor_version */ 'ST-DEVELOPER v16.5',
/* originating_system */ 'Autodesk Inventor 2017',
/* authorisation */ '');

FILE_SCHEMA (('AUTOMOTIVE_DESIGN { 1 0 10303 214 3 1 1 }'));
ENDSEC;

DATA;
#10=MECHANICAL_DESIGN_GEOMETRIC_PRESENTATION_REPRESENTATION('',(#13),#2253);
#11=SHAPE_REPRESENTATION_RELATIONSHIP('SRR','None',#2262,#12);
#12=ADVANCED_BREP_SHAPE_REPRESENTATION('',(#14),#2252);
#13=STYLED_ITEM('',(#2271),#14);
#14=MANIFOLD_SOLID_BREP('S\X\F3lido1',#1311);
#15=FACE_BOUND('',#127,.T.);
#16=FACE_BOUND('',#128,.T.);
#17=FACE_BOUND('',#129,.T.);
#18=FACE_BOUND('',#130,.T.);
#19=FACE_BOUND('',#131,.T.);
#20=FACE_BOUND('',#132,.T.);
#21=FACE_BOUND('',#133,.T.);
#22=FACE_BOUND('',#190,.T.);
#23=FACE_BOUND('',#192,.T.);
#24=FACE_BOUND('',#199,.T.);
#25=FACE_BOUND('',#200,.T.);
#26=FACE_BOUND('',#201,.T.);
#27=FACE_BOUND('',#202,.T.);
#28=FACE_BOUND('',#203,.T.);
#29=FACE_BOUND('',#204,.T.);
#30=FACE_BOUND('',#205,.T.);
#31=PLANE('',#1322);
#32=PLANE('',#1323);
#33=PLANE('',#1364);
#34=PLANE('',#1365);
#35=PLANE('',#1368);
#36=PLANE('',#1373);
#37=PLANE('',#1378);
#38=PLANE('',#1381);
#39=PLANE('',#1384);
#40=PLANE('',#1389);
#41=PLANE('',#1396);
#42=PLANE('',#1409);
#43=PLANE('',#1418);
#44=PLANE('',#1421);
#45=PLANE('',#1424);
#46=PLANE('',#1429);
#47=PLANE('',#1432);
#48=PLANE('',#1437);
#49=PLANE('',#1440);
#50=PLANE('',#1443);
#51=PLANE('',#1446);
#52=PLANE('',#1447);
#53=PLANE('',#1456);
#54=PLANE('',#1459);
#55=PLANE('',#1460);
#56=PLANE('',#1461);
#57=PLANE('',#1462);
#58=FACE_OUTER_BOUND('',#124,.T.);
#59=FACE_OUTER_BOUND('',#125,.T.);
#60=FACE_OUTER_BOUND('',#126,.T.);
#61=FACE_OUTER_BOUND('',#134,.T.);
#62=FACE_OUTER_BOUND('',#135,.T.);
#63=FACE_OUTER_BOUND('',#136,.T.);
#64=FACE_OUTER_BOUND('',#137,.T.);
#65=FACE_OUTER_BOUND('',#138,.T.);
#66=FACE_OUTER_BOUND('',#139,.T.);
#67=FACE_OUTER_BOUND('',#140,.T.);
#68=FACE_OUTER_BOUND('',#141,.T.);
#69=FACE_OUTER_BOUND('',#142,.T.);
#70=FACE_OUTER_BOUND('',#143,.T.);
#71=FACE_OUTER_BOUND('',#144,.T.);
#72=FACE_OUTER_BOUND('',#145,.T.);
#73=FACE_OUTER_BOUND('',#146,.T.);
#74=FACE_OUTER_BOUND('',#147,.T.);
#75=FACE_OUTER_BOUND('',#148,.T.);
#76=FACE_OUTER_BOUND('',#149,.T.);
#77=FACE_OUTER_BOUND('',#150,.T.);
#78=FACE_OUTER_BOUND('',#151,.T.);
#79=FACE_OUTER_BOUND('',#152,.T.);
#80=FACE_OUTER_BOUND('',#153,.T.);
#81=FACE_OUTER_BOUND('',#154,.T.);
#82=FACE_OUTER_BOUND('',#155,.T.);
#83=FACE_OUTER_BOUND('',#156,.T.);
#84=FACE_OUTER_BOUND('',#157,.T.);
#85=FACE_OUTER_BOUND('',#158,.T.);
#86=FACE_OUTER_BOUND('',#159,.T.);
#87=FACE_OUTER_BOUND('',#160,.T.);
#88=FACE_OUTER_BOUND('',#161,.T.);
#89=FACE_OUTER_BOUND('',#162,.T.);
#90=FACE_OUTER_BOUND('',#163,.T.);
#91=FACE_OUTER_BOUND('',#164,.T.);
#92=FACE_OUTER_BOUND('',#165,.T.);
#93=FACE_OUTER_BOUND('',#166,.T.);
#94=FACE_OUTER_BOUND('',#167,.T.);
#95=FACE_OUTER_BOUND('',#168,.T.);
#96=FACE_OUTER_BOUND('',#169,.T.);
#97=FACE_OUTER_BOUND('',#170,.T.);
#98=FACE_OUTER_BOUND('',#171,.T.);
#99=FACE_OUTER_BOUND('',#172,.T.);
#100=FACE_OUTER_BOUND('',#173,.T.);
#101=FACE_OUTER_BOUND('',#174,.T.);
#102=FACE_OUTER_BOUND('',#175,.T.);
#103=FACE_OUTER_BOUND('',#176,.T.);
#104=FACE_OUTER_BOUND('',#177,.T.);
#105=FACE_OUTER_BOUND('',#178,.T.);
#106=FACE_OUTER_BOUND('',#179,.T.);
#107=FACE_OUTER_BOUND('',#180,.T.);
#108=FACE_OUTER_BOUND('',#181,.T.);
#109=FACE_OUTER_BOUND('',#182,.T.);
#110=FACE_OUTER_BOUND('',#183,.T.);
#111=FACE_OUTER_BOUND('',#184,.T.);
#112=FACE_OUTER_BOUND('',#185,.T.);
#113=FACE_OUTER_BOUND('',#186,.T.);
#114=FACE_OUTER_BOUND('',#187,.T.);
#115=FACE_OUTER_BOUND('',#188,.T.);
#116=FACE_OUTER_BOUND('',#189,.T.);
#117=FACE_OUTER_BOUND('',#191,.T.);
#118=FACE_OUTER_BOUND('',#193,.T.);
#119=FACE_OUTER_BOUND('',#194,.T.);
#120=FACE_OUTER_BOUND('',#195,.T.);
#121=FACE_OUTER_BOUND('',#196,.T.);
#122=FACE_OUTER_BOUND('',#197,.T.);
#123=FACE_OUTER_BOUND('',#198,.T.);
#124=EDGE_LOOP('',(#826,#827,#828,#829));
#125=EDGE_LOOP('',(#830,#831,#832,#833));
#126=EDGE_LOOP('',(#834,#835,#836,#837));
#127=EDGE_LOOP('',(#838,#839));
#128=EDGE_LOOP('',(#840,#841));
#129=EDGE_LOOP('',(#842,#843,#844,#845,#846,#847,#848,#849));
#130=EDGE_LOOP('',(#850,#851,#852,#853,#854,#855,#856,#857));
#131=EDGE_LOOP('',(#858));
#132=EDGE_LOOP('',(#859,#860,#861,#862,#863,#864,#865,#866,#867,#868,#869,
#870,#871,#872,#873,#874,#875,#876,#877,#878,#879,#880,#881,#882,#883,#884,
#885,#886,#887,#888,#889,#890,#891,#892,#893,#894,#895,#896));
#133=EDGE_LOOP('',(#897));
#134=EDGE_LOOP('',(#898,#899,#900,#901));
#135=EDGE_LOOP('',(#902,#903,#904,#905));
#136=EDGE_LOOP('',(#906,#907,#908,#909));
#137=EDGE_LOOP('',(#910,#911,#912,#913));
#138=EDGE_LOOP('',(#914,#915,#916,#917));
#139=EDGE_LOOP('',(#918,#919,#920,#921));
#140=EDGE_LOOP('',(#922,#923,#924,#925));
#141=EDGE_LOOP('',(#926,#927,#928,#929));
#142=EDGE_LOOP('',(#930,#931,#932,#933));
#143=EDGE_LOOP('',(#934,#935,#936,#937));
#144=EDGE_LOOP('',(#938,#939,#940,#941));
#145=EDGE_LOOP('',(#942,#943,#944,#945));
#146=EDGE_LOOP('',(#946,#947,#948,#949));
#147=EDGE_LOOP('',(#950,#951,#952,#953));
#148=EDGE_LOOP('',(#954,#955,#956,#957));
#149=EDGE_LOOP('',(#958,#959,#960,#961));
#150=EDGE_LOOP('',(#962,#963,#964,#965));
#151=EDGE_LOOP('',(#966,#967,#968,#969));
#152=EDGE_LOOP('',(#970,#971,#972,#973));
#153=EDGE_LOOP('',(#974,#975,#976,#977));
#154=EDGE_LOOP('',(#978,#979,#980,#981));
#155=EDGE_LOOP('',(#982,#983,#984,#985));
#156=EDGE_LOOP('',(#986,#987,#988,#989));
#157=EDGE_LOOP('',(#990,#991,#992,#993));
#158=EDGE_LOOP('',(#994,#995,#996,#997));
#159=EDGE_LOOP('',(#998,#999,#1000,#1001));
#160=EDGE_LOOP('',(#1002,#1003,#1004,#1005));
#161=EDGE_LOOP('',(#1006,#1007,#1008,#1009));
#162=EDGE_LOOP('',(#1010,#1011,#1012,#1013));
#163=EDGE_LOOP('',(#1014,#1015,#1016,#1017));
#164=EDGE_LOOP('',(#1018,#1019,#1020,#1021));
#165=EDGE_LOOP('',(#1022,#1023,#1024,#1025));
#166=EDGE_LOOP('',(#1026,#1027,#1028,#1029));
#167=EDGE_LOOP('',(#1030,#1031,#1032,#1033));
#168=EDGE_LOOP('',(#1034,#1035,#1036,#1037));
#169=EDGE_LOOP('',(#1038,#1039,#1040,#1041));
#170=EDGE_LOOP('',(#1042,#1043,#1044,#1045));
#171=EDGE_LOOP('',(#1046,#1047,#1048,#1049));
#172=EDGE_LOOP('',(#1050,#1051,#1052,#1053));
#173=EDGE_LOOP('',(#1054,#1055,#1056,#1057));
#174=EDGE_LOOP('',(#1058,#1059,#1060,#1061));
#175=EDGE_LOOP('',(#1062,#1063,#1064,#1065));
#176=EDGE_LOOP('',(#1066,#1067,#1068,#1069));
#177=EDGE_LOOP('',(#1070,#1071,#1072,#1073));
#178=EDGE_LOOP('',(#1074,#1075,#1076,#1077));
#179=EDGE_LOOP('',(#1078,#1079,#1080,#1081));
#180=EDGE_LOOP('',(#1082,#1083,#1084,#1085));
#181=EDGE_LOOP('',(#1086,#1087,#1088,#1089));
#182=EDGE_LOOP('',(#1090,#1091,#1092,#1093));
#183=EDGE_LOOP('',(#1094,#1095,#1096,#1097));
#184=EDGE_LOOP('',(#1098,#1099,#1100,#1101));
#185=EDGE_LOOP('',(#1102,#1103,#1104,#1105));
#186=EDGE_LOOP('',(#1106,#1107,#1108,#1109));
#187=EDGE_LOOP('',(#1110,#1111,#1112,#1113));
#188=EDGE_LOOP('',(#1114,#1115,#1116,#1117));
#189=EDGE_LOOP('',(#1118));
#190=EDGE_LOOP('',(#1119));
#191=EDGE_LOOP('',(#1120));
#192=EDGE_LOOP('',(#1121));
#193=EDGE_LOOP('',(#1122,#1123,#1124,#1125));
#194=EDGE_LOOP('',(#1126,#1127,#1128,#1129));
#195=EDGE_LOOP('',(#1130,#1131,#1132,#1133));
#196=EDGE_LOOP('',(#1134,#1135,#1136,#1137));
#197=EDGE_LOOP('',(#1138,#1139,#1140,#1141));
#198=EDGE_LOOP('',(#1142,#1143,#1144,#1145));
#199=EDGE_LOOP('',(#1146,#1147,#1148,#1149,#1150,#1151,#1152,#1153,#1154,
#1155,#1156,#1157,#1158,#1159,#1160,#1161,#1162,#1163,#1164,#1165,#1166,
#1167,#1168,#1169,#1170,#1171,#1172,#1173,#1174,#1175,#1176,#1177,#1178,
#1179,#1180,#1181,#1182,#1183));
#200=EDGE_LOOP('',(#1184,#1185));
#201=EDGE_LOOP('',(#1186,#1187));
#202=EDGE_LOOP('',(#1188,#1189,#1190,#1191,#1192,#1193,#1194,#1195));
#203=EDGE_LOOP('',(#1196));
#204=EDGE_LOOP('',(#1197));
#205=EDGE_LOOP('',(#1198,#1199,#1200,#1201,#1202,#1203,#1204,#1205));
#206=LINE('',#1871,#318);
#207=LINE('',#1874,#319);
#208=LINE('',#1877,#320);
#209=LINE('',#1879,#321);
#210=LINE('',#1880,#322);
#211=LINE('',#1886,#323);
#212=LINE('',#1893,#324);
#213=LINE('',#1897,#325);
#214=LINE('',#1904,#326);
#215=LINE('',#1908,#327);
#216=LINE('',#1912,#328);
#217=LINE('',#1916,#329);
#218=LINE('',#1920,#330);
#219=LINE('',#1924,#331);
#220=LINE('',#1928,#332);
#221=LINE('',#1933,#333);
#222=LINE('',#1937,#334);
#223=LINE('',#1941,#335);
#224=LINE('',#1945,#336);
#225=LINE('',#1953,#337);
#226=LINE('',#1957,#338);
#227=LINE('',#1965,#339);
#228=LINE('',#1969,#340);
#229=LINE('',#1973,#341);
#230=LINE('',#1977,#342);
#231=LINE('',#1981,#343);
#232=LINE('',#1985,#344);
#233=LINE('',#1993,#345);
#234=LINE('',#1997,#346);
#235=LINE('',#2007,#347);
#236=LINE('',#2010,#348);
#237=LINE('',#2013,#349);
#238=LINE('',#2014,#350);
#239=LINE('',#2017,#351);
#240=LINE('',#2019,#352);
#241=LINE('',#2020,#353);
#242=LINE('',#2025,#354);
#243=LINE('',#2027,#355);
#244=LINE('',#2028,#356);
#245=LINE('',#2035,#357);
#246=LINE('',#2036,#358);
#247=LINE('',#2039,#359);
#248=LINE('',#2040,#360);
#249=LINE('',#2044,#361);
#250=LINE('',#2047,#362);
#251=LINE('',#2050,#363);
#252=LINE('',#2052,#364);
#253=LINE('',#2055,#365);
#254=LINE('',#2058,#366);
#255=LINE('',#2060,#367);
#256=LINE('',#2063,#368);
#257=LINE('',#2066,#369);
#258=LINE('',#2069,#370);
#259=LINE('',#2070,#371);
#260=LINE('',#2074,#372);
#261=LINE('',#2079,#373);
#262=LINE('',#2080,#374);
#263=LINE('',#2083,#375);
#264=LINE('',#2084,#376);
#265=LINE('',#2090,#377);
#266=LINE('',#2095,#378);
#267=LINE('',#2096,#379);
#268=LINE('',#2099,#380);
#269=LINE('',#2100,#381);
#270=LINE('',#2105,#382);
#271=LINE('',#2106,#383);
#272=LINE('',#2112,#384);
#273=LINE('',#2117,#385);
#274=LINE('',#2118,#386);
#275=LINE('',#2122,#387);
#276=LINE('',#2126,#388);
#277=LINE('',#2129,#389);
#278=LINE('',#2130,#390);
#279=LINE('',#2135,#391);
#280=LINE('',#2136,#392);
#281=LINE('',#2140,#393);
#282=LINE('',#2144,#394);
#283=LINE('',#2148,#395);
#284=LINE('',#2151,#396);
#285=LINE('',#2152,#397);
#286=LINE('',#2155,#398);
#287=LINE('',#2158,#399);
#288=LINE('',#2161,#400);
#289=LINE('',#2162,#401);
#290=LINE('',#2167,#402);
#291=LINE('',#2168,#403);
#292=LINE('',#2171,#404);
#293=LINE('',#2172,#405);
#294=LINE('',#2176,#406);
#295=LINE('',#2180,#407);
#296=LINE('',#2183,#408);
#297=LINE('',#2184,#409);
#298=LINE('',#2187,#410);
#299=LINE('',#2191,#411);
#300=LINE('',#2192,#412);
#301=LINE('',#2197,#413);
#302=LINE('',#2200,#414);
#303=LINE('',#2203,#415);
#304=LINE('',#2204,#416);
#305=LINE('',#2207,#417);
#306=LINE('',#2210,#418);
#307=LINE('',#2212,#419);
#308=LINE('',#2215,#420);
#309=LINE('',#2219,#421);
#310=LINE('',#2220,#422);
#311=LINE('',#2223,#423);
#312=LINE('',#2226,#424);
#313=LINE('',#2228,#425);
#314=LINE('',#2240,#426);
#315=LINE('',#2244,#427);
#316=LINE('',#2246,#428);
#317=LINE('',#2248,#429);
#318=VECTOR('',#1469,10.);
#319=VECTOR('',#1472,10.);
#320=VECTOR('',#1475,10.);
#321=VECTOR('',#1476,10.);
#322=VECTOR('',#1477,10.);
#323=VECTOR('',#1482,10.);
#324=VECTOR('',#1489,10.);
#325=VECTOR('',#1492,10.);
#326=VECTOR('',#1497,10.);
#327=VECTOR('',#1500,10.);
#328=VECTOR('',#1503,10.);
#329=VECTOR('',#1506,10.);
#330=VECTOR('',#1509,10.);
#331=VECTOR('',#1512,10.);
#332=VECTOR('',#1515,10.);
#333=VECTOR('',#1520,10.);
#334=VECTOR('',#1523,10.);
#335=VECTOR('',#1526,10.);
#336=VECTOR('',#1529,10.);
#337=VECTOR('',#1536,10.);
#338=VECTOR('',#1539,10.);
#339=VECTOR('',#1546,10.);
#340=VECTOR('',#1549,10.);
#341=VECTOR('',#1552,10.);
#342=VECTOR('',#1555,10.);
#343=VECTOR('',#1558,10.);
#344=VECTOR('',#1561,10.);
#345=VECTOR('',#1568,10.);
#346=VECTOR('',#1571,10.);
#347=VECTOR('',#1582,10.);
#348=VECTOR('',#1585,10.);
#349=VECTOR('',#1588,10.);
#350=VECTOR('',#1589,10.);
#351=VECTOR('',#1592,10.);
#352=VECTOR('',#1593,10.);
#353=VECTOR('',#1594,10.);
#354=VECTOR('',#1601,10.);
#355=VECTOR('',#1602,10.);
#356=VECTOR('',#1603,10.);
#357=VECTOR('',#1612,10.);
#358=VECTOR('',#1613,10.);
#359=VECTOR('',#1616,10.);
#360=VECTOR('',#1617,10.);
#361=VECTOR('',#1622,10.);
#362=VECTOR('',#1625,10.);
#363=VECTOR('',#1628,10.);
#364=VECTOR('',#1631,10.);
#365=VECTOR('',#1634,10.);
#366=VECTOR('',#1637,10.);
#367=VECTOR('',#1640,10.);
#368=VECTOR('',#1643,10.);
#369=VECTOR('',#1646,10.);
#370=VECTOR('',#1649,10.);
#371=VECTOR('',#1650,10.);
#372=VECTOR('',#1655,10.);
#373=VECTOR('',#1660,10.);
#374=VECTOR('',#1661,10.);
#375=VECTOR('',#1664,10.);
#376=VECTOR('',#1665,10.);
#377=VECTOR('',#1674,10.);
#378=VECTOR('',#1679,10.);
#379=VECTOR('',#1680,10.);
#380=VECTOR('',#1683,10.);
#381=VECTOR('',#1684,10.);
#382=VECTOR('',#1689,10.);
#383=VECTOR('',#1690,10.);
#384=VECTOR('',#1699,10.);
#385=VECTOR('',#1704,10.);
#386=VECTOR('',#1705,10.);
#387=VECTOR('',#1710,10.);
#388=VECTOR('',#1715,10.);
#389=VECTOR('',#1718,10.);
#390=VECTOR('',#1719,10.);
#391=VECTOR('',#1724,10.);
#392=VECTOR('',#1725,10.);
#393=VECTOR('',#1730,10.);
#394=VECTOR('',#1735,10.);
#395=VECTOR('',#1740,10.);
#396=VECTOR('',#1743,10.);
#397=VECTOR('',#1744,10.);
#398=VECTOR('',#1747,10.);
#399=VECTOR('',#1750,10.);
#400=VECTOR('',#1753,10.);
#401=VECTOR('',#1754,10.);
#402=VECTOR('',#1759,10.);
#403=VECTOR('',#1760,10.);
#404=VECTOR('',#1763,10.);
#405=VECTOR('',#1764,10.);
#406=VECTOR('',#1769,10.);
#407=VECTOR('',#1774,10.);
#408=VECTOR('',#1777,10.);
#409=VECTOR('',#1778,10.);
#410=VECTOR('',#1781,10.);
#411=VECTOR('',#1786,10.);
#412=VECTOR('',#1787,10.);
#413=VECTOR('',#1794,10.);
#414=VECTOR('',#1797,10.);
#415=VECTOR('',#1800,10.);
#416=VECTOR('',#1801,10.);
#417=VECTOR('',#1804,10.);
#418=VECTOR('',#1807,10.);
#419=VECTOR('',#1810,10.);
#420=VECTOR('',#1813,10.);
#421=VECTOR('',#1818,10.);
#422=VECTOR('',#1819,10.);
#423=VECTOR('',#1822,10.);
#424=VECTOR('',#1827,10.);
#425=VECTOR('',#1830,10.);
#426=VECTOR('',#1849,10.);
#427=VECTOR('',#1856,10.);
#428=VECTOR('',#1859,10.);
#429=VECTOR('',#1862,10.);
#430=CIRCLE('',#1320,30.);
#431=CIRCLE('',#1321,30.);
#432=CIRCLE('',#1324,20.);
#433=CIRCLE('',#1325,20.);
#434=CIRCLE('',#1326,165.);
#435=CIRCLE('',#1327,16.);
#436=CIRCLE('',#1328,16.);
#437=CIRCLE('',#1329,160.);
#438=CIRCLE('',#1330,2.);
#439=CIRCLE('',#1331,2.);
#440=CIRCLE('',#1332,2.);
#441=CIRCLE('',#1333,2.);
#442=CIRCLE('',#1334,2.25);
#443=CIRCLE('',#1335,2.25);
#444=CIRCLE('',#1336,2.25);
#445=CIRCLE('',#1337,2.25);
#446=CIRCLE('',#1338,1.65);
#447=CIRCLE('',#1339,6.5);
#448=CIRCLE('',#1340,6.5);
#449=CIRCLE('',#1341,30.);
#450=CIRCLE('',#1342,6.5);
#451=CIRCLE('',#1343,160.);
#452=CIRCLE('',#1344,6.5);
#453=CIRCLE('',#1345,6.5);
#454=CIRCLE('',#1346,6.5);
#455=CIRCLE('',#1347,160.);
#456=CIRCLE('',#1348,6.5);
#457=CIRCLE('',#1349,6.5);
#458=CIRCLE('',#1350,6.5);
#459=CIRCLE('',#1351,6.5);
#460=CIRCLE('',#1352,6.5);
#461=CIRCLE('',#1353,6.5);
#462=CIRCLE('',#1354,6.5);
#463=CIRCLE('',#1355,160.);
#464=CIRCLE('',#1356,6.5);
#465=CIRCLE('',#1357,6.5);
#466=CIRCLE('',#1358,6.5);
#467=CIRCLE('',#1359,160.);
#468=CIRCLE('',#1360,6.5);
#469=CIRCLE('',#1361,1.65);
#470=CIRCLE('',#1363,30.);
#471=CIRCLE('',#1367,16.);
#472=CIRCLE('',#1370,16.);
#473=CIRCLE('',#1372,2.);
#474=CIRCLE('',#1375,2.);
#475=CIRCLE('',#1377,2.);
#476=CIRCLE('',#1380,2.);
#477=CIRCLE('',#1383,20.);
#478=CIRCLE('',#1386,20.);
#479=CIRCLE('',#1388,6.5);
#480=CIRCLE('',#1391,6.5);
#481=CIRCLE('',#1393,6.5);
#482=CIRCLE('',#1395,6.5);
#483=CIRCLE('',#1398,6.5);
#484=CIRCLE('',#1400,160.);
#485=CIRCLE('',#1402,6.5);
#486=CIRCLE('',#1404,6.5);
#487=CIRCLE('',#1406,160.);
#488=CIRCLE('',#1408,6.5);
#489=CIRCLE('',#1411,6.5);
#490=CIRCLE('',#1413,160.);
#491=CIRCLE('',#1415,6.5);
#492=CIRCLE('',#1417,6.5);
#493=CIRCLE('',#1420,6.5);
#494=CIRCLE('',#1423,6.5);
#495=CIRCLE('',#1426,6.5);
#496=CIRCLE('',#1428,6.5);
#497=CIRCLE('',#1431,6.5);
#498=CIRCLE('',#1434,6.5);
#499=CIRCLE('',#1436,2.25);
#500=CIRCLE('',#1439,2.25);
#501=CIRCLE('',#1442,2.25);
#502=CIRCLE('',#1445,2.25);
#503=CIRCLE('',#1449,160.);
#504=CIRCLE('',#1451,160.);
#505=CIRCLE('',#1453,1.65);
#506=CIRCLE('',#1455,1.65);
#507=CIRCLE('',#1458,165.);
#508=VERTEX_POINT('',#1867);
#509=VERTEX_POINT('',#1868);
#510=VERTEX_POINT('',#1870);
#511=VERTEX_POINT('',#1872);
#512=VERTEX_POINT('',#1876);
#513=VERTEX_POINT('',#1878);
#514=VERTEX_POINT('',#1882);
#515=VERTEX_POINT('',#1883);
#516=VERTEX_POINT('',#1885);
#517=VERTEX_POINT('',#1887);
#518=VERTEX_POINT('',#1890);
#519=VERTEX_POINT('',#1891);
#520=VERTEX_POINT('',#1894);
#521=VERTEX_POINT('',#1895);
#522=VERTEX_POINT('',#1898);
#523=VERTEX_POINT('',#1899);
#524=VERTEX_POINT('',#1901);
#525=VERTEX_POINT('',#1903);
#526=VERTEX_POINT('',#1905);
#527=VERTEX_POINT('',#1907);
#528=VERTEX_POINT('',#1909);
#529=VERTEX_POINT('',#1911);
#530=VERTEX_POINT('',#1914);
#531=VERTEX_POINT('',#1915);
#532=VERTEX_POINT('',#1917);
#533=VERTEX_POINT('',#1919);
#534=VERTEX_POINT('',#1921);
#535=VERTEX_POINT('',#1923);
#536=VERTEX_POINT('',#1925);
#537=VERTEX_POINT('',#1927);
#538=VERTEX_POINT('',#1930);
#539=VERTEX_POINT('',#1932);
#540=VERTEX_POINT('',#1934);
#541=VERTEX_POINT('',#1936);
#542=VERTEX_POINT('',#1938);
#543=VERTEX_POINT('',#1940);
#544=VERTEX_POINT('',#1942);
#545=VERTEX_POINT('',#1944);
#546=VERTEX_POINT('',#1946);
#547=VERTEX_POINT('',#1948);
#548=VERTEX_POINT('',#1950);
#549=VERTEX_POINT('',#1952);
#550=VERTEX_POINT('',#1954);
#551=VERTEX_POINT('',#1956);
#552=VERTEX_POINT('',#1958);
#553=VERTEX_POINT('',#1960);
#554=VERTEX_POINT('',#1962);
#555=VERTEX_POINT('',#1964);
#556=VERTEX_POINT('',#1966);
#557=VERTEX_POINT('',#1968);
#558=VERTEX_POINT('',#1970);
#559=VERTEX_POINT('',#1972);
#560=VERTEX_POINT('',#1974);
#561=VERTEX_POINT('',#1976);
#562=VERTEX_POINT('',#1978);
#563=VERTEX_POINT('',#1980);
#564=VERTEX_POINT('',#1982);
#565=VERTEX_POINT('',#1984);
#566=VERTEX_POINT('',#1986);
#567=VERTEX_POINT('',#1988);
#568=VERTEX_POINT('',#1990);
#569=VERTEX_POINT('',#1992);
#570=VERTEX_POINT('',#1994);
#571=VERTEX_POINT('',#1996);
#572=VERTEX_POINT('',#1998);
#573=VERTEX_POINT('',#2000);
#574=VERTEX_POINT('',#2003);
#575=VERTEX_POINT('',#2006);
#576=VERTEX_POINT('',#2008);
#577=VERTEX_POINT('',#2012);
#578=VERTEX_POINT('',#2016);
#579=VERTEX_POINT('',#2018);
#580=VERTEX_POINT('',#2024);
#581=VERTEX_POINT('',#2026);
#582=VERTEX_POINT('',#2032);
#583=VERTEX_POINT('',#2033);
#584=VERTEX_POINT('',#2038);
#585=VERTEX_POINT('',#2042);
#586=VERTEX_POINT('',#2046);
#587=VERTEX_POINT('',#2048);
#588=VERTEX_POINT('',#2054);
#589=VERTEX_POINT('',#2056);
#590=VERTEX_POINT('',#2062);
#591=VERTEX_POINT('',#2064);
#592=VERTEX_POINT('',#2068);
#593=VERTEX_POINT('',#2072);
#594=VERTEX_POINT('',#2076);
#595=VERTEX_POINT('',#2077);
#596=VERTEX_POINT('',#2082);
#597=VERTEX_POINT('',#2088);
#598=VERTEX_POINT('',#2092);
#599=VERTEX_POINT('',#2093);
#600=VERTEX_POINT('',#2098);
#601=VERTEX_POINT('',#2102);
#602=VERTEX_POINT('',#2103);
#603=VERTEX_POINT('',#2110);
#604=VERTEX_POINT('',#2114);
#605=VERTEX_POINT('',#2115);
#606=VERTEX_POINT('',#2120);
#607=VERTEX_POINT('',#2124);
#608=VERTEX_POINT('',#2128);
#609=VERTEX_POINT('',#2132);
#610=VERTEX_POINT('',#2133);
#611=VERTEX_POINT('',#2138);
#612=VERTEX_POINT('',#2142);
#613=VERTEX_POINT('',#2146);
#614=VERTEX_POINT('',#2150);
#615=VERTEX_POINT('',#2154);
#616=VERTEX_POINT('',#2156);
#617=VERTEX_POINT('',#2160);
#618=VERTEX_POINT('',#2164);
#619=VERTEX_POINT('',#2165);
#620=VERTEX_POINT('',#2170);
#621=VERTEX_POINT('',#2174);
#622=VERTEX_POINT('',#2178);
#623=VERTEX_POINT('',#2182);
#624=VERTEX_POINT('',#2186);
#625=VERTEX_POINT('',#2190);
#626=VERTEX_POINT('',#2196);
#627=VERTEX_POINT('',#2198);
#628=VERTEX_POINT('',#2202);
#629=VERTEX_POINT('',#2206);
#630=VERTEX_POINT('',#2208);
#631=VERTEX_POINT('',#2214);
#632=VERTEX_POINT('',#2218);
#633=VERTEX_POINT('',#2222);
#634=VERTEX_POINT('',#2234);
#635=VERTEX_POINT('',#2237);
#636=EDGE_CURVE('',#508,#509,#430,.T.);
#637=EDGE_CURVE('',#509,#510,#206,.T.);
#638=EDGE_CURVE('',#510,#511,#431,.T.);
#639=EDGE_CURVE('',#511,#508,#207,.T.);
#640=EDGE_CURVE('',#512,#509,#208,.T.);
#641=EDGE_CURVE('',#513,#512,#209,.T.);
#642=EDGE_CURVE('',#513,#510,#210,.T.);
#643=EDGE_CURVE('',#514,#515,#432,.T.);
#644=EDGE_CURVE('',#514,#516,#211,.T.);
#645=EDGE_CURVE('',#517,#516,#433,.T.);
#646=EDGE_CURVE('',#517,#515,#434,.T.);
#647=EDGE_CURVE('',#518,#519,#435,.T.);
#648=EDGE_CURVE('',#519,#518,#212,.T.);
#649=EDGE_CURVE('',#520,#521,#436,.T.);
#650=EDGE_CURVE('',#521,#520,#213,.T.);
#651=EDGE_CURVE('',#522,#523,#437,.T.);
#652=EDGE_CURVE('',#524,#523,#438,.T.);
#653=EDGE_CURVE('',#524,#525,#214,.T.);
#654=EDGE_CURVE('',#526,#525,#439,.T.);
#655=EDGE_CURVE('',#526,#527,#215,.T.);
#656=EDGE_CURVE('',#528,#527,#440,.T.);
#657=EDGE_CURVE('',#528,#529,#216,.T.);
#658=EDGE_CURVE('',#522,#529,#441,.T.);
#659=EDGE_CURVE('',#530,#531,#217,.T.);
#660=EDGE_CURVE('',#532,#531,#442,.T.);
#661=EDGE_CURVE('',#532,#533,#218,.T.);
#662=EDGE_CURVE('',#534,#533,#443,.T.);
#663=EDGE_CURVE('',#534,#535,#219,.T.);
#664=EDGE_CURVE('',#536,#535,#444,.T.);
#665=EDGE_CURVE('',#536,#537,#220,.T.);
#666=EDGE_CURVE('',#530,#537,#445,.T.);
#667=EDGE_CURVE('',#538,#538,#446,.T.);
#668=EDGE_CURVE('',#508,#539,#221,.T.);
#669=EDGE_CURVE('',#540,#539,#447,.T.);
#670=EDGE_CURVE('',#540,#541,#222,.T.);
#671=EDGE_CURVE('',#542,#541,#448,.T.);
#672=EDGE_CURVE('',#542,#543,#223,.T.);
#673=EDGE_CURVE('',#544,#543,#449,.T.);
#674=EDGE_CURVE('',#544,#545,#224,.T.);
#675=EDGE_CURVE('',#546,#545,#450,.T.);
#676=EDGE_CURVE('',#546,#547,#451,.T.);
#677=EDGE_CURVE('',#548,#547,#452,.T.);
#678=EDGE_CURVE('',#548,#549,#225,.T.);
#679=EDGE_CURVE('',#550,#549,#453,.T.);
#680=EDGE_CURVE('',#550,#551,#226,.T.);
#681=EDGE_CURVE('',#552,#551,#454,.T.);
#682=EDGE_CURVE('',#552,#553,#455,.T.);
#683=EDGE_CURVE('',#554,#553,#456,.T.);
#684=EDGE_CURVE('',#554,#555,#227,.T.);
#685=EDGE_CURVE('',#556,#555,#457,.T.);
#686=EDGE_CURVE('',#556,#557,#228,.T.);
#687=EDGE_CURVE('',#558,#557,#458,.T.);
#688=EDGE_CURVE('',#558,#559,#229,.T.);
#689=EDGE_CURVE('',#560,#559,#459,.T.);
#690=EDGE_CURVE('',#560,#561,#230,.T.);
#691=EDGE_CURVE('',#562,#561,#460,.T.);
#692=EDGE_CURVE('',#562,#563,#231,.T.);
#693=EDGE_CURVE('',#564,#563,#461,.T.);
#694=EDGE_CURVE('',#564,#565,#232,.T.);
#695=EDGE_CURVE('',#566,#565,#462,.T.);
#696=EDGE_CURVE('',#566,#567,#463,.T.);
#697=EDGE_CURVE('',#568,#567,#464,.T.);
#698=EDGE_CURVE('',#568,#569,#233,.T.);
#699=EDGE_CURVE('',#570,#569,#465,.T.);
#700=EDGE_CURVE('',#570,#571,#234,.T.);
#701=EDGE_CURVE('',#572,#571,#466,.T.);
#702=EDGE_CURVE('',#572,#573,#467,.T.);
#703=EDGE_CURVE('',#512,#573,#468,.T.);
#704=EDGE_CURVE('',#574,#574,#469,.T.);
#705=EDGE_CURVE('',#543,#575,#235,.T.);
#706=EDGE_CURVE('',#575,#576,#470,.T.);
#707=EDGE_CURVE('',#576,#544,#236,.T.);
#708=EDGE_CURVE('',#577,#542,#237,.T.);
#709=EDGE_CURVE('',#577,#575,#238,.T.);
#710=EDGE_CURVE('',#578,#519,#239,.T.);
#711=EDGE_CURVE('',#579,#578,#240,.T.);
#712=EDGE_CURVE('',#579,#518,#241,.T.);
#713=EDGE_CURVE('',#578,#579,#471,.T.);
#714=EDGE_CURVE('',#580,#521,#242,.T.);
#715=EDGE_CURVE('',#581,#580,#243,.T.);
#716=EDGE_CURVE('',#581,#520,#244,.T.);
#717=EDGE_CURVE('',#580,#581,#472,.T.);
#718=EDGE_CURVE('',#582,#583,#473,.T.);
#719=EDGE_CURVE('',#583,#524,#245,.T.);
#720=EDGE_CURVE('',#523,#582,#246,.T.);
#721=EDGE_CURVE('',#584,#583,#247,.T.);
#722=EDGE_CURVE('',#525,#584,#248,.T.);
#723=EDGE_CURVE('',#584,#585,#474,.T.);
#724=EDGE_CURVE('',#585,#526,#249,.T.);
#725=EDGE_CURVE('',#527,#586,#250,.T.);
#726=EDGE_CURVE('',#586,#587,#475,.T.);
#727=EDGE_CURVE('',#587,#528,#251,.T.);
#728=EDGE_CURVE('',#586,#585,#252,.T.);
#729=EDGE_CURVE('',#529,#588,#253,.T.);
#730=EDGE_CURVE('',#588,#589,#476,.T.);
#731=EDGE_CURVE('',#589,#522,#254,.T.);
#732=EDGE_CURVE('',#588,#587,#255,.T.);
#733=EDGE_CURVE('',#515,#590,#256,.T.);
#734=EDGE_CURVE('',#590,#591,#477,.T.);
#735=EDGE_CURVE('',#591,#514,#257,.T.);
#736=EDGE_CURVE('',#591,#592,#258,.T.);
#737=EDGE_CURVE('',#516,#592,#259,.T.);
#738=EDGE_CURVE('',#592,#593,#478,.T.);
#739=EDGE_CURVE('',#593,#517,#260,.T.);
#740=EDGE_CURVE('',#594,#595,#479,.T.);
#741=EDGE_CURVE('',#595,#540,#261,.T.);
#742=EDGE_CURVE('',#539,#594,#262,.T.);
#743=EDGE_CURVE('',#595,#596,#263,.T.);
#744=EDGE_CURVE('',#541,#596,#264,.T.);
#745=EDGE_CURVE('',#596,#577,#480,.T.);
#746=EDGE_CURVE('',#597,#513,#481,.T.);
#747=EDGE_CURVE('',#573,#597,#265,.T.);
#748=EDGE_CURVE('',#598,#599,#482,.T.);
#749=EDGE_CURVE('',#599,#568,#266,.T.);
#750=EDGE_CURVE('',#567,#598,#267,.T.);
#751=EDGE_CURVE('',#599,#600,#268,.T.);
#752=EDGE_CURVE('',#569,#600,#269,.T.);
#753=EDGE_CURVE('',#601,#602,#483,.T.);
#754=EDGE_CURVE('',#602,#572,#270,.T.);
#755=EDGE_CURVE('',#571,#601,#271,.T.);
#756=EDGE_CURVE('',#602,#597,#484,.T.);
#757=EDGE_CURVE('',#600,#603,#485,.T.);
#758=EDGE_CURVE('',#603,#570,#272,.T.);
#759=EDGE_CURVE('',#604,#605,#486,.T.);
#760=EDGE_CURVE('',#605,#546,#273,.T.);
#761=EDGE_CURVE('',#545,#604,#274,.T.);
#762=EDGE_CURVE('',#605,#606,#487,.T.);
#763=EDGE_CURVE('',#547,#606,#275,.T.);
#764=EDGE_CURVE('',#606,#607,#488,.T.);
#765=EDGE_CURVE('',#607,#548,#276,.T.);
#766=EDGE_CURVE('',#607,#608,#277,.T.);
#767=EDGE_CURVE('',#549,#608,#278,.T.);
#768=EDGE_CURVE('',#609,#610,#489,.T.);
#769=EDGE_CURVE('',#610,#552,#279,.T.);
#770=EDGE_CURVE('',#551,#609,#280,.T.);
#771=EDGE_CURVE('',#610,#611,#490,.T.);
#772=EDGE_CURVE('',#553,#611,#281,.T.);
#773=EDGE_CURVE('',#608,#612,#491,.T.);
#774=EDGE_CURVE('',#612,#550,#282,.T.);
#775=EDGE_CURVE('',#611,#613,#492,.T.);
#776=EDGE_CURVE('',#613,#554,#283,.T.);
#777=EDGE_CURVE('',#614,#613,#284,.T.);
#778=EDGE_CURVE('',#555,#614,#285,.T.);
#779=EDGE_CURVE('',#565,#615,#286,.T.);
#780=EDGE_CURVE('',#615,#616,#493,.T.);
#781=EDGE_CURVE('',#616,#566,#287,.T.);
#782=EDGE_CURVE('',#617,#564,#288,.T.);
#783=EDGE_CURVE('',#615,#617,#289,.T.);
#784=EDGE_CURVE('',#618,#619,#494,.T.);
#785=EDGE_CURVE('',#619,#558,#290,.T.);
#786=EDGE_CURVE('',#557,#618,#291,.T.);
#787=EDGE_CURVE('',#620,#619,#292,.T.);
#788=EDGE_CURVE('',#559,#620,#293,.T.);
#789=EDGE_CURVE('',#614,#621,#495,.T.);
#790=EDGE_CURVE('',#621,#556,#294,.T.);
#791=EDGE_CURVE('',#622,#617,#496,.T.);
#792=EDGE_CURVE('',#563,#622,#295,.T.);
#793=EDGE_CURVE('',#623,#562,#296,.T.);
#794=EDGE_CURVE('',#622,#623,#297,.T.);
#795=EDGE_CURVE('',#561,#624,#298,.T.);
#796=EDGE_CURVE('',#624,#623,#497,.T.);
#797=EDGE_CURVE('',#625,#560,#299,.T.);
#798=EDGE_CURVE('',#624,#625,#300,.T.);
#799=EDGE_CURVE('',#620,#625,#498,.T.);
#800=EDGE_CURVE('',#533,#626,#301,.T.);
#801=EDGE_CURVE('',#626,#627,#499,.T.);
#802=EDGE_CURVE('',#627,#534,#302,.T.);
#803=EDGE_CURVE('',#628,#532,#303,.T.);
#804=EDGE_CURVE('',#626,#628,#304,.T.);
#805=EDGE_CURVE('',#535,#629,#305,.T.);
#806=EDGE_CURVE('',#629,#630,#500,.T.);
#807=EDGE_CURVE('',#630,#536,#306,.T.);
#808=EDGE_CURVE('',#629,#627,#307,.T.);
#809=EDGE_CURVE('',#531,#631,#308,.T.);
#810=EDGE_CURVE('',#631,#628,#501,.T.);
#811=EDGE_CURVE('',#632,#530,#309,.T.);
#812=EDGE_CURVE('',#631,#632,#310,.T.);
#813=EDGE_CURVE('',#537,#633,#311,.T.);
#814=EDGE_CURVE('',#633,#632,#502,.T.);
#815=EDGE_CURVE('',#633,#630,#312,.T.);
#816=EDGE_CURVE('',#618,#621,#313,.T.);
#817=EDGE_CURVE('',#616,#598,#503,.T.);
#818=EDGE_CURVE('',#589,#582,#504,.T.);
#819=EDGE_CURVE('',#634,#634,#505,.T.);
#820=EDGE_CURVE('',#635,#635,#506,.T.);
#821=EDGE_CURVE('',#576,#604,#314,.T.);
#822=EDGE_CURVE('',#593,#590,#507,.T.);
#823=EDGE_CURVE('',#511,#594,#315,.T.);
#824=EDGE_CURVE('',#603,#601,#316,.T.);
#825=EDGE_CURVE('',#612,#609,#317,.T.);
#826=ORIENTED_EDGE('',*,*,#636,.T.);
#827=ORIENTED_EDGE('',*,*,#637,.T.);
#828=ORIENTED_EDGE('',*,*,#638,.T.);
#829=ORIENTED_EDGE('',*,*,#639,.T.);
#830=ORIENTED_EDGE('',*,*,#637,.F.);
#831=ORIENTED_EDGE('',*,*,#640,.F.);
#832=ORIENTED_EDGE('',*,*,#641,.F.);
#833=ORIENTED_EDGE('',*,*,#642,.T.);
#834=ORIENTED_EDGE('',*,*,#643,.F.);
#835=ORIENTED_EDGE('',*,*,#644,.T.);
#836=ORIENTED_EDGE('',*,*,#645,.F.);
#837=ORIENTED_EDGE('',*,*,#646,.T.);
#838=ORIENTED_EDGE('',*,*,#647,.T.);
#839=ORIENTED_EDGE('',*,*,#648,.T.);
#840=ORIENTED_EDGE('',*,*,#649,.T.);
#841=ORIENTED_EDGE('',*,*,#650,.T.);
#842=ORIENTED_EDGE('',*,*,#651,.T.);
#843=ORIENTED_EDGE('',*,*,#652,.F.);
#844=ORIENTED_EDGE('',*,*,#653,.T.);
#845=ORIENTED_EDGE('',*,*,#654,.F.);
#846=ORIENTED_EDGE('',*,*,#655,.T.);
#847=ORIENTED_EDGE('',*,*,#656,.F.);
#848=ORIENTED_EDGE('',*,*,#657,.T.);
#849=ORIENTED_EDGE('',*,*,#658,.F.);
#850=ORIENTED_EDGE('',*,*,#659,.T.);
#851=ORIENTED_EDGE('',*,*,#660,.F.);
#852=ORIENTED_EDGE('',*,*,#661,.T.);
#853=ORIENTED_EDGE('',*,*,#662,.F.);
#854=ORIENTED_EDGE('',*,*,#663,.T.);
#855=ORIENTED_EDGE('',*,*,#664,.F.);
#856=ORIENTED_EDGE('',*,*,#665,.T.);
#857=ORIENTED_EDGE('',*,*,#666,.F.);
#858=ORIENTED_EDGE('',*,*,#667,.T.);
#859=ORIENTED_EDGE('',*,*,#636,.F.);
#860=ORIENTED_EDGE('',*,*,#668,.T.);
#861=ORIENTED_EDGE('',*,*,#669,.F.);
#862=ORIENTED_EDGE('',*,*,#670,.T.);
#863=ORIENTED_EDGE('',*,*,#671,.F.);
#864=ORIENTED_EDGE('',*,*,#672,.T.);
#865=ORIENTED_EDGE('',*,*,#673,.F.);
#866=ORIENTED_EDGE('',*,*,#674,.T.);
#867=ORIENTED_EDGE('',*,*,#675,.F.);
#868=ORIENTED_EDGE('',*,*,#676,.T.);
#869=ORIENTED_EDGE('',*,*,#677,.F.);
#870=ORIENTED_EDGE('',*,*,#678,.T.);
#871=ORIENTED_EDGE('',*,*,#679,.F.);
#872=ORIENTED_EDGE('',*,*,#680,.T.);
#873=ORIENTED_EDGE('',*,*,#681,.F.);
#874=ORIENTED_EDGE('',*,*,#682,.T.);
#875=ORIENTED_EDGE('',*,*,#683,.F.);
#876=ORIENTED_EDGE('',*,*,#684,.T.);
#877=ORIENTED_EDGE('',*,*,#685,.F.);
#878=ORIENTED_EDGE('',*,*,#686,.T.);
#879=ORIENTED_EDGE('',*,*,#687,.F.);
#880=ORIENTED_EDGE('',*,*,#688,.T.);
#881=ORIENTED_EDGE('',*,*,#689,.F.);
#882=ORIENTED_EDGE('',*,*,#690,.T.);
#883=ORIENTED_EDGE('',*,*,#691,.F.);
#884=ORIENTED_EDGE('',*,*,#692,.T.);
#885=ORIENTED_EDGE('',*,*,#693,.F.);
#886=ORIENTED_EDGE('',*,*,#694,.T.);
#887=ORIENTED_EDGE('',*,*,#695,.F.);
#888=ORIENTED_EDGE('',*,*,#696,.T.);
#889=ORIENTED_EDGE('',*,*,#697,.F.);
#890=ORIENTED_EDGE('',*,*,#698,.T.);
#891=ORIENTED_EDGE('',*,*,#699,.F.);
#892=ORIENTED_EDGE('',*,*,#700,.T.);
#893=ORIENTED_EDGE('',*,*,#701,.F.);
#894=ORIENTED_EDGE('',*,*,#702,.T.);
#895=ORIENTED_EDGE('',*,*,#703,.F.);
#896=ORIENTED_EDGE('',*,*,#640,.T.);
#897=ORIENTED_EDGE('',*,*,#704,.T.);
#898=ORIENTED_EDGE('',*,*,#673,.T.);
#899=ORIENTED_EDGE('',*,*,#705,.T.);
#900=ORIENTED_EDGE('',*,*,#706,.T.);
#901=ORIENTED_EDGE('',*,*,#707,.T.);
#902=ORIENTED_EDGE('',*,*,#705,.F.);
#903=ORIENTED_EDGE('',*,*,#672,.F.);
#904=ORIENTED_EDGE('',*,*,#708,.F.);
#905=ORIENTED_EDGE('',*,*,#709,.T.);
#906=ORIENTED_EDGE('',*,*,#648,.F.);
#907=ORIENTED_EDGE('',*,*,#710,.F.);
#908=ORIENTED_EDGE('',*,*,#711,.F.);
#909=ORIENTED_EDGE('',*,*,#712,.T.);
#910=ORIENTED_EDGE('',*,*,#647,.F.);
#911=ORIENTED_EDGE('',*,*,#712,.F.);
#912=ORIENTED_EDGE('',*,*,#713,.F.);
#913=ORIENTED_EDGE('',*,*,#710,.T.);
#914=ORIENTED_EDGE('',*,*,#650,.F.);
#915=ORIENTED_EDGE('',*,*,#714,.F.);
#916=ORIENTED_EDGE('',*,*,#715,.F.);
#917=ORIENTED_EDGE('',*,*,#716,.T.);
#918=ORIENTED_EDGE('',*,*,#649,.F.);
#919=ORIENTED_EDGE('',*,*,#716,.F.);
#920=ORIENTED_EDGE('',*,*,#717,.F.);
#921=ORIENTED_EDGE('',*,*,#714,.T.);
#922=ORIENTED_EDGE('',*,*,#718,.T.);
#923=ORIENTED_EDGE('',*,*,#719,.T.);
#924=ORIENTED_EDGE('',*,*,#652,.T.);
#925=ORIENTED_EDGE('',*,*,#720,.T.);
#926=ORIENTED_EDGE('',*,*,#719,.F.);
#927=ORIENTED_EDGE('',*,*,#721,.F.);
#928=ORIENTED_EDGE('',*,*,#722,.F.);
#929=ORIENTED_EDGE('',*,*,#653,.F.);
#930=ORIENTED_EDGE('',*,*,#654,.T.);
#931=ORIENTED_EDGE('',*,*,#722,.T.);
#932=ORIENTED_EDGE('',*,*,#723,.T.);
#933=ORIENTED_EDGE('',*,*,#724,.T.);
#934=ORIENTED_EDGE('',*,*,#656,.T.);
#935=ORIENTED_EDGE('',*,*,#725,.T.);
#936=ORIENTED_EDGE('',*,*,#726,.T.);
#937=ORIENTED_EDGE('',*,*,#727,.T.);
#938=ORIENTED_EDGE('',*,*,#724,.F.);
#939=ORIENTED_EDGE('',*,*,#728,.F.);
#940=ORIENTED_EDGE('',*,*,#725,.F.);
#941=ORIENTED_EDGE('',*,*,#655,.F.);
#942=ORIENTED_EDGE('',*,*,#658,.T.);
#943=ORIENTED_EDGE('',*,*,#729,.T.);
#944=ORIENTED_EDGE('',*,*,#730,.T.);
#945=ORIENTED_EDGE('',*,*,#731,.T.);
#946=ORIENTED_EDGE('',*,*,#727,.F.);
#947=ORIENTED_EDGE('',*,*,#732,.F.);
#948=ORIENTED_EDGE('',*,*,#729,.F.);
#949=ORIENTED_EDGE('',*,*,#657,.F.);
#950=ORIENTED_EDGE('',*,*,#643,.T.);
#951=ORIENTED_EDGE('',*,*,#733,.T.);
#952=ORIENTED_EDGE('',*,*,#734,.T.);
#953=ORIENTED_EDGE('',*,*,#735,.T.);
#954=ORIENTED_EDGE('',*,*,#735,.F.);
#955=ORIENTED_EDGE('',*,*,#736,.T.);
#956=ORIENTED_EDGE('',*,*,#737,.F.);
#957=ORIENTED_EDGE('',*,*,#644,.F.);
#958=ORIENTED_EDGE('',*,*,#645,.T.);
#959=ORIENTED_EDGE('',*,*,#737,.T.);
#960=ORIENTED_EDGE('',*,*,#738,.T.);
#961=ORIENTED_EDGE('',*,*,#739,.T.);
#962=ORIENTED_EDGE('',*,*,#740,.T.);
#963=ORIENTED_EDGE('',*,*,#741,.T.);
#964=ORIENTED_EDGE('',*,*,#669,.T.);
#965=ORIENTED_EDGE('',*,*,#742,.T.);
#966=ORIENTED_EDGE('',*,*,#741,.F.);
#967=ORIENTED_EDGE('',*,*,#743,.T.);
#968=ORIENTED_EDGE('',*,*,#744,.F.);
#969=ORIENTED_EDGE('',*,*,#670,.F.);
#970=ORIENTED_EDGE('',*,*,#745,.T.);
#971=ORIENTED_EDGE('',*,*,#708,.T.);
#972=ORIENTED_EDGE('',*,*,#671,.T.);
#973=ORIENTED_EDGE('',*,*,#744,.T.);
#974=ORIENTED_EDGE('',*,*,#746,.T.);
#975=ORIENTED_EDGE('',*,*,#641,.T.);
#976=ORIENTED_EDGE('',*,*,#703,.T.);
#977=ORIENTED_EDGE('',*,*,#747,.T.);
#978=ORIENTED_EDGE('',*,*,#748,.T.);
#979=ORIENTED_EDGE('',*,*,#749,.T.);
#980=ORIENTED_EDGE('',*,*,#697,.T.);
#981=ORIENTED_EDGE('',*,*,#750,.T.);
#982=ORIENTED_EDGE('',*,*,#749,.F.);
#983=ORIENTED_EDGE('',*,*,#751,.T.);
#984=ORIENTED_EDGE('',*,*,#752,.F.);
#985=ORIENTED_EDGE('',*,*,#698,.F.);
#986=ORIENTED_EDGE('',*,*,#753,.T.);
#987=ORIENTED_EDGE('',*,*,#754,.T.);
#988=ORIENTED_EDGE('',*,*,#701,.T.);
#989=ORIENTED_EDGE('',*,*,#755,.T.);
#990=ORIENTED_EDGE('',*,*,#747,.F.);
#991=ORIENTED_EDGE('',*,*,#702,.F.);
#992=ORIENTED_EDGE('',*,*,#754,.F.);
#993=ORIENTED_EDGE('',*,*,#756,.T.);
#994=ORIENTED_EDGE('',*,*,#699,.T.);
#995=ORIENTED_EDGE('',*,*,#752,.T.);
#996=ORIENTED_EDGE('',*,*,#757,.T.);
#997=ORIENTED_EDGE('',*,*,#758,.T.);
#998=ORIENTED_EDGE('',*,*,#759,.T.);
#999=ORIENTED_EDGE('',*,*,#760,.T.);
#1000=ORIENTED_EDGE('',*,*,#675,.T.);
#1001=ORIENTED_EDGE('',*,*,#761,.T.);
#1002=ORIENTED_EDGE('',*,*,#760,.F.);
#1003=ORIENTED_EDGE('',*,*,#762,.T.);
#1004=ORIENTED_EDGE('',*,*,#763,.F.);
#1005=ORIENTED_EDGE('',*,*,#676,.F.);
#1006=ORIENTED_EDGE('',*,*,#764,.T.);
#1007=ORIENTED_EDGE('',*,*,#765,.T.);
#1008=ORIENTED_EDGE('',*,*,#677,.T.);
#1009=ORIENTED_EDGE('',*,*,#763,.T.);
#1010=ORIENTED_EDGE('',*,*,#765,.F.);
#1011=ORIENTED_EDGE('',*,*,#766,.T.);
#1012=ORIENTED_EDGE('',*,*,#767,.F.);
#1013=ORIENTED_EDGE('',*,*,#678,.F.);
#1014=ORIENTED_EDGE('',*,*,#768,.T.);
#1015=ORIENTED_EDGE('',*,*,#769,.T.);
#1016=ORIENTED_EDGE('',*,*,#681,.T.);
#1017=ORIENTED_EDGE('',*,*,#770,.T.);
#1018=ORIENTED_EDGE('',*,*,#769,.F.);
#1019=ORIENTED_EDGE('',*,*,#771,.T.);
#1020=ORIENTED_EDGE('',*,*,#772,.F.);
#1021=ORIENTED_EDGE('',*,*,#682,.F.);
#1022=ORIENTED_EDGE('',*,*,#679,.T.);
#1023=ORIENTED_EDGE('',*,*,#767,.T.);
#1024=ORIENTED_EDGE('',*,*,#773,.T.);
#1025=ORIENTED_EDGE('',*,*,#774,.T.);
#1026=ORIENTED_EDGE('',*,*,#775,.T.);
#1027=ORIENTED_EDGE('',*,*,#776,.T.);
#1028=ORIENTED_EDGE('',*,*,#683,.T.);
#1029=ORIENTED_EDGE('',*,*,#772,.T.);
#1030=ORIENTED_EDGE('',*,*,#776,.F.);
#1031=ORIENTED_EDGE('',*,*,#777,.F.);
#1032=ORIENTED_EDGE('',*,*,#778,.F.);
#1033=ORIENTED_EDGE('',*,*,#684,.F.);
#1034=ORIENTED_EDGE('',*,*,#695,.T.);
#1035=ORIENTED_EDGE('',*,*,#779,.T.);
#1036=ORIENTED_EDGE('',*,*,#780,.T.);
#1037=ORIENTED_EDGE('',*,*,#781,.T.);
#1038=ORIENTED_EDGE('',*,*,#779,.F.);
#1039=ORIENTED_EDGE('',*,*,#694,.F.);
#1040=ORIENTED_EDGE('',*,*,#782,.F.);
#1041=ORIENTED_EDGE('',*,*,#783,.F.);
#1042=ORIENTED_EDGE('',*,*,#784,.T.);
#1043=ORIENTED_EDGE('',*,*,#785,.T.);
#1044=ORIENTED_EDGE('',*,*,#687,.T.);
#1045=ORIENTED_EDGE('',*,*,#786,.T.);
#1046=ORIENTED_EDGE('',*,*,#785,.F.);
#1047=ORIENTED_EDGE('',*,*,#787,.F.);
#1048=ORIENTED_EDGE('',*,*,#788,.F.);
#1049=ORIENTED_EDGE('',*,*,#688,.F.);
#1050=ORIENTED_EDGE('',*,*,#789,.T.);
#1051=ORIENTED_EDGE('',*,*,#790,.T.);
#1052=ORIENTED_EDGE('',*,*,#685,.T.);
#1053=ORIENTED_EDGE('',*,*,#778,.T.);
#1054=ORIENTED_EDGE('',*,*,#791,.T.);
#1055=ORIENTED_EDGE('',*,*,#782,.T.);
#1056=ORIENTED_EDGE('',*,*,#693,.T.);
#1057=ORIENTED_EDGE('',*,*,#792,.T.);
#1058=ORIENTED_EDGE('',*,*,#792,.F.);
#1059=ORIENTED_EDGE('',*,*,#692,.F.);
#1060=ORIENTED_EDGE('',*,*,#793,.F.);
#1061=ORIENTED_EDGE('',*,*,#794,.F.);
#1062=ORIENTED_EDGE('',*,*,#691,.T.);
#1063=ORIENTED_EDGE('',*,*,#795,.T.);
#1064=ORIENTED_EDGE('',*,*,#796,.T.);
#1065=ORIENTED_EDGE('',*,*,#793,.T.);
#1066=ORIENTED_EDGE('',*,*,#795,.F.);
#1067=ORIENTED_EDGE('',*,*,#690,.F.);
#1068=ORIENTED_EDGE('',*,*,#797,.F.);
#1069=ORIENTED_EDGE('',*,*,#798,.F.);
#1070=ORIENTED_EDGE('',*,*,#799,.T.);
#1071=ORIENTED_EDGE('',*,*,#797,.T.);
#1072=ORIENTED_EDGE('',*,*,#689,.T.);
#1073=ORIENTED_EDGE('',*,*,#788,.T.);
#1074=ORIENTED_EDGE('',*,*,#662,.T.);
#1075=ORIENTED_EDGE('',*,*,#800,.T.);
#1076=ORIENTED_EDGE('',*,*,#801,.T.);
#1077=ORIENTED_EDGE('',*,*,#802,.T.);
#1078=ORIENTED_EDGE('',*,*,#800,.F.);
#1079=ORIENTED_EDGE('',*,*,#661,.F.);
#1080=ORIENTED_EDGE('',*,*,#803,.F.);
#1081=ORIENTED_EDGE('',*,*,#804,.F.);
#1082=ORIENTED_EDGE('',*,*,#664,.T.);
#1083=ORIENTED_EDGE('',*,*,#805,.T.);
#1084=ORIENTED_EDGE('',*,*,#806,.T.);
#1085=ORIENTED_EDGE('',*,*,#807,.T.);
#1086=ORIENTED_EDGE('',*,*,#802,.F.);
#1087=ORIENTED_EDGE('',*,*,#808,.F.);
#1088=ORIENTED_EDGE('',*,*,#805,.F.);
#1089=ORIENTED_EDGE('',*,*,#663,.F.);
#1090=ORIENTED_EDGE('',*,*,#660,.T.);
#1091=ORIENTED_EDGE('',*,*,#809,.T.);
#1092=ORIENTED_EDGE('',*,*,#810,.T.);
#1093=ORIENTED_EDGE('',*,*,#803,.T.);
#1094=ORIENTED_EDGE('',*,*,#809,.F.);
#1095=ORIENTED_EDGE('',*,*,#659,.F.);
#1096=ORIENTED_EDGE('',*,*,#811,.F.);
#1097=ORIENTED_EDGE('',*,*,#812,.F.);
#1098=ORIENTED_EDGE('',*,*,#666,.T.);
#1099=ORIENTED_EDGE('',*,*,#813,.T.);
#1100=ORIENTED_EDGE('',*,*,#814,.T.);
#1101=ORIENTED_EDGE('',*,*,#811,.T.);
#1102=ORIENTED_EDGE('',*,*,#807,.F.);
#1103=ORIENTED_EDGE('',*,*,#815,.F.);
#1104=ORIENTED_EDGE('',*,*,#813,.F.);
#1105=ORIENTED_EDGE('',*,*,#665,.F.);
#1106=ORIENTED_EDGE('',*,*,#786,.F.);
#1107=ORIENTED_EDGE('',*,*,#686,.F.);
#1108=ORIENTED_EDGE('',*,*,#790,.F.);
#1109=ORIENTED_EDGE('',*,*,#816,.F.);
#1110=ORIENTED_EDGE('',*,*,#750,.F.);
#1111=ORIENTED_EDGE('',*,*,#696,.F.);
#1112=ORIENTED_EDGE('',*,*,#781,.F.);
#1113=ORIENTED_EDGE('',*,*,#817,.T.);
#1114=ORIENTED_EDGE('',*,*,#720,.F.);
#1115=ORIENTED_EDGE('',*,*,#651,.F.);
#1116=ORIENTED_EDGE('',*,*,#731,.F.);
#1117=ORIENTED_EDGE('',*,*,#818,.T.);
#1118=ORIENTED_EDGE('',*,*,#704,.F.);
#1119=ORIENTED_EDGE('',*,*,#819,.F.);
#1120=ORIENTED_EDGE('',*,*,#667,.F.);
#1121=ORIENTED_EDGE('',*,*,#820,.F.);
#1122=ORIENTED_EDGE('',*,*,#707,.F.);
#1123=ORIENTED_EDGE('',*,*,#821,.T.);
#1124=ORIENTED_EDGE('',*,*,#761,.F.);
#1125=ORIENTED_EDGE('',*,*,#674,.F.);
#1126=ORIENTED_EDGE('',*,*,#733,.F.);
#1127=ORIENTED_EDGE('',*,*,#646,.F.);
#1128=ORIENTED_EDGE('',*,*,#739,.F.);
#1129=ORIENTED_EDGE('',*,*,#822,.T.);
#1130=ORIENTED_EDGE('',*,*,#639,.F.);
#1131=ORIENTED_EDGE('',*,*,#823,.T.);
#1132=ORIENTED_EDGE('',*,*,#742,.F.);
#1133=ORIENTED_EDGE('',*,*,#668,.F.);
#1134=ORIENTED_EDGE('',*,*,#755,.F.);
#1135=ORIENTED_EDGE('',*,*,#700,.F.);
#1136=ORIENTED_EDGE('',*,*,#758,.F.);
#1137=ORIENTED_EDGE('',*,*,#824,.T.);
#1138=ORIENTED_EDGE('',*,*,#770,.F.);
#1139=ORIENTED_EDGE('',*,*,#680,.F.);
#1140=ORIENTED_EDGE('',*,*,#774,.F.);
#1141=ORIENTED_EDGE('',*,*,#825,.T.);
#1142=ORIENTED_EDGE('',*,*,#734,.F.);
#1143=ORIENTED_EDGE('',*,*,#822,.F.);
#1144=ORIENTED_EDGE('',*,*,#738,.F.);
#1145=ORIENTED_EDGE('',*,*,#736,.F.);
#1146=ORIENTED_EDGE('',*,*,#638,.F.);
#1147=ORIENTED_EDGE('',*,*,#642,.F.);
#1148=ORIENTED_EDGE('',*,*,#746,.F.);
#1149=ORIENTED_EDGE('',*,*,#756,.F.);
#1150=ORIENTED_EDGE('',*,*,#753,.F.);
#1151=ORIENTED_EDGE('',*,*,#824,.F.);
#1152=ORIENTED_EDGE('',*,*,#757,.F.);
#1153=ORIENTED_EDGE('',*,*,#751,.F.);
#1154=ORIENTED_EDGE('',*,*,#748,.F.);
#1155=ORIENTED_EDGE('',*,*,#817,.F.);
#1156=ORIENTED_EDGE('',*,*,#780,.F.);
#1157=ORIENTED_EDGE('',*,*,#783,.T.);
#1158=ORIENTED_EDGE('',*,*,#791,.F.);
#1159=ORIENTED_EDGE('',*,*,#794,.T.);
#1160=ORIENTED_EDGE('',*,*,#796,.F.);
#1161=ORIENTED_EDGE('',*,*,#798,.T.);
#1162=ORIENTED_EDGE('',*,*,#799,.F.);
#1163=ORIENTED_EDGE('',*,*,#787,.T.);
#1164=ORIENTED_EDGE('',*,*,#784,.F.);
#1165=ORIENTED_EDGE('',*,*,#816,.T.);
#1166=ORIENTED_EDGE('',*,*,#789,.F.);
#1167=ORIENTED_EDGE('',*,*,#777,.T.);
#1168=ORIENTED_EDGE('',*,*,#775,.F.);
#1169=ORIENTED_EDGE('',*,*,#771,.F.);
#1170=ORIENTED_EDGE('',*,*,#768,.F.);
#1171=ORIENTED_EDGE('',*,*,#825,.F.);
#1172=ORIENTED_EDGE('',*,*,#773,.F.);
#1173=ORIENTED_EDGE('',*,*,#766,.F.);
#1174=ORIENTED_EDGE('',*,*,#764,.F.);
#1175=ORIENTED_EDGE('',*,*,#762,.F.);
#1176=ORIENTED_EDGE('',*,*,#759,.F.);
#1177=ORIENTED_EDGE('',*,*,#821,.F.);
#1178=ORIENTED_EDGE('',*,*,#706,.F.);
#1179=ORIENTED_EDGE('',*,*,#709,.F.);
#1180=ORIENTED_EDGE('',*,*,#745,.F.);
#1181=ORIENTED_EDGE('',*,*,#743,.F.);
#1182=ORIENTED_EDGE('',*,*,#740,.F.);
#1183=ORIENTED_EDGE('',*,*,#823,.F.);
#1184=ORIENTED_EDGE('',*,*,#713,.T.);
#1185=ORIENTED_EDGE('',*,*,#711,.T.);
#1186=ORIENTED_EDGE('',*,*,#717,.T.);
#1187=ORIENTED_EDGE('',*,*,#715,.T.);
#1188=ORIENTED_EDGE('',*,*,#812,.T.);
#1189=ORIENTED_EDGE('',*,*,#814,.F.);
#1190=ORIENTED_EDGE('',*,*,#815,.T.);
#1191=ORIENTED_EDGE('',*,*,#806,.F.);
#1192=ORIENTED_EDGE('',*,*,#808,.T.);
#1193=ORIENTED_EDGE('',*,*,#801,.F.);
#1194=ORIENTED_EDGE('',*,*,#804,.T.);
#1195=ORIENTED_EDGE('',*,*,#810,.F.);
#1196=ORIENTED_EDGE('',*,*,#820,.T.);
#1197=ORIENTED_EDGE('',*,*,#819,.T.);
#1198=ORIENTED_EDGE('',*,*,#732,.T.);
#1199=ORIENTED_EDGE('',*,*,#726,.F.);
#1200=ORIENTED_EDGE('',*,*,#728,.T.);
#1201=ORIENTED_EDGE('',*,*,#723,.F.);
#1202=ORIENTED_EDGE('',*,*,#721,.T.);
#1203=ORIENTED_EDGE('',*,*,#718,.F.);
#1204=ORIENTED_EDGE('',*,*,#818,.F.);
#1205=ORIENTED_EDGE('',*,*,#730,.F.);
#1206=CYLINDRICAL_SURFACE('',#1319,30.);
#1207=CYLINDRICAL_SURFACE('',#1362,30.);
#1208=CYLINDRICAL_SURFACE('',#1366,16.);
#1209=CYLINDRICAL_SURFACE('',#1369,16.);
#1210=CYLINDRICAL_SURFACE('',#1371,2.);
#1211=CYLINDRICAL_SURFACE('',#1374,2.);
#1212=CYLINDRICAL_SURFACE('',#1376,2.);
#1213=CYLINDRICAL_SURFACE('',#1379,2.);
#1214=CYLINDRICAL_SURFACE('',#1382,20.);
#1215=CYLINDRICAL_SURFACE('',#1385,20.);
#1216=CYLINDRICAL_SURFACE('',#1387,6.5);
#1217=CYLINDRICAL_SURFACE('',#1390,6.5);
#1218=CYLINDRICAL_SURFACE('',#1392,6.5);
#1219=CYLINDRICAL_SURFACE('',#1394,6.5);
#1220=CYLINDRICAL_SURFACE('',#1397,6.5);
#1221=CYLINDRICAL_SURFACE('',#1399,160.);
#1222=CYLINDRICAL_SURFACE('',#1401,6.5);
#1223=CYLINDRICAL_SURFACE('',#1403,6.5);
#1224=CYLINDRICAL_SURFACE('',#1405,160.);
#1225=CYLINDRICAL_SURFACE('',#1407,6.5);
#1226=CYLINDRICAL_SURFACE('',#1410,6.5);
#1227=CYLINDRICAL_SURFACE('',#1412,160.);
#1228=CYLINDRICAL_SURFACE('',#1414,6.5);
#1229=CYLINDRICAL_SURFACE('',#1416,6.5);
#1230=CYLINDRICAL_SURFACE('',#1419,6.5);
#1231=CYLINDRICAL_SURFACE('',#1422,6.5);
#1232=CYLINDRICAL_SURFACE('',#1425,6.5);
#1233=CYLINDRICAL_SURFACE('',#1427,6.5);
#1234=CYLINDRICAL_SURFACE('',#1430,6.5);
#1235=CYLINDRICAL_SURFACE('',#1433,6.5);
#1236=CYLINDRICAL_SURFACE('',#1435,2.25);
#1237=CYLINDRICAL_SURFACE('',#1438,2.25);
#1238=CYLINDRICAL_SURFACE('',#1441,2.25);
#1239=CYLINDRICAL_SURFACE('',#1444,2.25);
#1240=CYLINDRICAL_SURFACE('',#1448,160.);
#1241=CYLINDRICAL_SURFACE('',#1450,160.);
#1242=CYLINDRICAL_SURFACE('',#1452,1.65);
#1243=CYLINDRICAL_SURFACE('',#1454,1.65);
#1244=CYLINDRICAL_SURFACE('',#1457,165.);
#1245=ADVANCED_FACE('',(#58),#1206,.T.);
#1246=ADVANCED_FACE('',(#59),#31,.T.);
#1247=ADVANCED_FACE('',(#60,#15,#16,#17,#18,#19,#20,#21),#32,.T.);
#1248=ADVANCED_FACE('',(#61),#1207,.T.);
#1249=ADVANCED_FACE('',(#62),#33,.T.);
#1250=ADVANCED_FACE('',(#63),#34,.F.);
#1251=ADVANCED_FACE('',(#64),#1208,.F.);
#1252=ADVANCED_FACE('',(#65),#35,.F.);
#1253=ADVANCED_FACE('',(#66),#1209,.F.);
#1254=ADVANCED_FACE('',(#67),#1210,.F.);
#1255=ADVANCED_FACE('',(#68),#36,.T.);
#1256=ADVANCED_FACE('',(#69),#1211,.F.);
#1257=ADVANCED_FACE('',(#70),#1212,.F.);
#1258=ADVANCED_FACE('',(#71),#37,.T.);
#1259=ADVANCED_FACE('',(#72),#1213,.F.);
#1260=ADVANCED_FACE('',(#73),#38,.T.);
#1261=ADVANCED_FACE('',(#74),#1214,.T.);
#1262=ADVANCED_FACE('',(#75),#39,.T.);
#1263=ADVANCED_FACE('',(#76),#1215,.T.);
#1264=ADVANCED_FACE('',(#77),#1216,.F.);
#1265=ADVANCED_FACE('',(#78),#40,.T.);
#1266=ADVANCED_FACE('',(#79),#1217,.F.);
#1267=ADVANCED_FACE('',(#80),#1218,.F.);
#1268=ADVANCED_FACE('',(#81),#1219,.F.);
#1269=ADVANCED_FACE('',(#82),#41,.T.);
#1270=ADVANCED_FACE('',(#83),#1220,.F.);
#1271=ADVANCED_FACE('',(#84),#1221,.F.);
#1272=ADVANCED_FACE('',(#85),#1222,.T.);
#1273=ADVANCED_FACE('',(#86),#1223,.F.);
#1274=ADVANCED_FACE('',(#87),#1224,.F.);
#1275=ADVANCED_FACE('',(#88),#1225,.F.);
#1276=ADVANCED_FACE('',(#89),#42,.T.);
#1277=ADVANCED_FACE('',(#90),#1226,.F.);
#1278=ADVANCED_FACE('',(#91),#1227,.F.);
#1279=ADVANCED_FACE('',(#92),#1228,.T.);
#1280=ADVANCED_FACE('',(#93),#1229,.F.);
#1281=ADVANCED_FACE('',(#94),#43,.T.);
#1282=ADVANCED_FACE('',(#95),#1230,.F.);
#1283=ADVANCED_FACE('',(#96),#44,.T.);
#1284=ADVANCED_FACE('',(#97),#1231,.F.);
#1285=ADVANCED_FACE('',(#98),#45,.T.);
#1286=ADVANCED_FACE('',(#99),#1232,.T.);
#1287=ADVANCED_FACE('',(#100),#1233,.T.);
#1288=ADVANCED_FACE('',(#101),#46,.T.);
#1289=ADVANCED_FACE('',(#102),#1234,.F.);
#1290=ADVANCED_FACE('',(#103),#47,.T.);
#1291=ADVANCED_FACE('',(#104),#1235,.T.);
#1292=ADVANCED_FACE('',(#105),#1236,.F.);
#1293=ADVANCED_FACE('',(#106),#48,.F.);
#1294=ADVANCED_FACE('',(#107),#1237,.F.);
#1295=ADVANCED_FACE('',(#108),#49,.F.);
#1296=ADVANCED_FACE('',(#109),#1238,.F.);
#1297=ADVANCED_FACE('',(#110),#50,.F.);
#1298=ADVANCED_FACE('',(#111),#1239,.F.);
#1299=ADVANCED_FACE('',(#112),#51,.F.);
#1300=ADVANCED_FACE('',(#113),#52,.T.);
#1301=ADVANCED_FACE('',(#114),#1240,.F.);
#1302=ADVANCED_FACE('',(#115),#1241,.F.);
#1303=ADVANCED_FACE('',(#116,#22),#1242,.F.);
#1304=ADVANCED_FACE('',(#117,#23),#1243,.F.);
#1305=ADVANCED_FACE('',(#118),#53,.T.);
#1306=ADVANCED_FACE('',(#119),#1244,.T.);
#1307=ADVANCED_FACE('',(#120),#54,.T.);
#1308=ADVANCED_FACE('',(#121),#55,.T.);
#1309=ADVANCED_FACE('',(#122),#56,.T.);
#1310=ADVANCED_FACE('',(#123,#24,#25,#26,#27,#28,#29,#30),#57,.F.);
#1311=CLOSED_SHELL('',(#1245,#1246,#1247,#1248,#1249,#1250,#1251,#1252,
#1253,#1254,#1255,#1256,#1257,#1258,#1259,#1260,#1261,#1262,#1263,#1264,
#1265,#1266,#1267,#1268,#1269,#1270,#1271,#1272,#1273,#1274,#1275,#1276,
#1277,#1278,#1279,#1280,#1281,#1282,#1283,#1284,#1285,#1286,#1287,#1288,
#1289,#1290,#1291,#1292,#1293,#1294,#1295,#1296,#1297,#1298,#1299,#1300,
#1301,#1302,#1303,#1304,#1305,#1306,#1307,#1308,#1309,#1310));
#1312=DATE_TIME_ROLE('creation_date');
#1313=APPLIED_DATE_AND_TIME_ASSIGNMENT(#1314,#1312,(#2264));
#1314=DATE_AND_TIME(#1315,#1316);
#1315=CALENDAR_DATE(2016,14,12);
#1316=LOCAL_TIME(17,13,14.,#1317);
#1317=COORDINATED_UNIVERSAL_TIME_OFFSET(0,0,.BEHIND.);
#1318=AXIS2_PLACEMENT_3D('placement',#1865,#1463,#1464);
#1319=AXIS2_PLACEMENT_3D('',#1866,#1465,#1466);
#1320=AXIS2_PLACEMENT_3D('',#1869,#1467,#1468);
#1321=AXIS2_PLACEMENT_3D('',#1873,#1470,#1471);
#1322=AXIS2_PLACEMENT_3D('',#1875,#1473,#1474);
#1323=AXIS2_PLACEMENT_3D('',#1881,#1478,#1479);
#1324=AXIS2_PLACEMENT_3D('',#1884,#1480,#1481);
#1325=AXIS2_PLACEMENT_3D('',#1888,#1483,#1484);
#1326=AXIS2_PLACEMENT_3D('',#1889,#1485,#1486);
#1327=AXIS2_PLACEMENT_3D('',#1892,#1487,#1488);
#1328=AXIS2_PLACEMENT_3D('',#1896,#1490,#1491);
#1329=AXIS2_PLACEMENT_3D('',#1900,#1493,#1494);
#1330=AXIS2_PLACEMENT_3D('',#1902,#1495,#1496);
#1331=AXIS2_PLACEMENT_3D('',#1906,#1498,#1499);
#1332=AXIS2_PLACEMENT_3D('',#1910,#1501,#1502);
#1333=AXIS2_PLACEMENT_3D('',#1913,#1504,#1505);
#1334=AXIS2_PLACEMENT_3D('',#1918,#1507,#1508);
#1335=AXIS2_PLACEMENT_3D('',#1922,#1510,#1511);
#1336=AXIS2_PLACEMENT_3D('',#1926,#1513,#1514);
#1337=AXIS2_PLACEMENT_3D('',#1929,#1516,#1517);
#1338=AXIS2_PLACEMENT_3D('',#1931,#1518,#1519);
#1339=AXIS2_PLACEMENT_3D('',#1935,#1521,#1522);
#1340=AXIS2_PLACEMENT_3D('',#1939,#1524,#1525);
#1341=AXIS2_PLACEMENT_3D('',#1943,#1527,#1528);
#1342=AXIS2_PLACEMENT_3D('',#1947,#1530,#1531);
#1343=AXIS2_PLACEMENT_3D('',#1949,#1532,#1533);
#1344=AXIS2_PLACEMENT_3D('',#1951,#1534,#1535);
#1345=AXIS2_PLACEMENT_3D('',#1955,#1537,#1538);
#1346=AXIS2_PLACEMENT_3D('',#1959,#1540,#1541);
#1347=AXIS2_PLACEMENT_3D('',#1961,#1542,#1543);
#1348=AXIS2_PLACEMENT_3D('',#1963,#1544,#1545);
#1349=AXIS2_PLACEMENT_3D('',#1967,#1547,#1548);
#1350=AXIS2_PLACEMENT_3D('',#1971,#1550,#1551);
#1351=AXIS2_PLACEMENT_3D('',#1975,#1553,#1554);
#1352=AXIS2_PLACEMENT_3D('',#1979,#1556,#1557);
#1353=AXIS2_PLACEMENT_3D('',#1983,#1559,#1560);
#1354=AXIS2_PLACEMENT_3D('',#1987,#1562,#1563);
#1355=AXIS2_PLACEMENT_3D('',#1989,#1564,#1565);
#1356=AXIS2_PLACEMENT_3D('',#1991,#1566,#1567);
#1357=AXIS2_PLACEMENT_3D('',#1995,#1569,#1570);
#1358=AXIS2_PLACEMENT_3D('',#1999,#1572,#1573);
#1359=AXIS2_PLACEMENT_3D('',#2001,#1574,#1575);
#1360=AXIS2_PLACEMENT_3D('',#2002,#1576,#1577);
#1361=AXIS2_PLACEMENT_3D('',#2004,#1578,#1579);
#1362=AXIS2_PLACEMENT_3D('',#2005,#1580,#1581);
#1363=AXIS2_PLACEMENT_3D('',#2009,#1583,#1584);
#1364=AXIS2_PLACEMENT_3D('',#2011,#1586,#1587);
#1365=AXIS2_PLACEMENT_3D('',#2015,#1590,#1591);
#1366=AXIS2_PLACEMENT_3D('',#2021,#1595,#1596);
#1367=AXIS2_PLACEMENT_3D('',#2022,#1597,#1598);
#1368=AXIS2_PLACEMENT_3D('',#2023,#1599,#1600);
#1369=AXIS2_PLACEMENT_3D('',#2029,#1604,#1605);
#1370=AXIS2_PLACEMENT_3D('',#2030,#1606,#1607);
#1371=AXIS2_PLACEMENT_3D('',#2031,#1608,#1609);
#1372=AXIS2_PLACEMENT_3D('',#2034,#1610,#1611);
#1373=AXIS2_PLACEMENT_3D('',#2037,#1614,#1615);
#1374=AXIS2_PLACEMENT_3D('',#2041,#1618,#1619);
#1375=AXIS2_PLACEMENT_3D('',#2043,#1620,#1621);
#1376=AXIS2_PLACEMENT_3D('',#2045,#1623,#1624);
#1377=AXIS2_PLACEMENT_3D('',#2049,#1626,#1627);
#1378=AXIS2_PLACEMENT_3D('',#2051,#1629,#1630);
#1379=AXIS2_PLACEMENT_3D('',#2053,#1632,#1633);
#1380=AXIS2_PLACEMENT_3D('',#2057,#1635,#1636);
#1381=AXIS2_PLACEMENT_3D('',#2059,#1638,#1639);
#1382=AXIS2_PLACEMENT_3D('',#2061,#1641,#1642);
#1383=AXIS2_PLACEMENT_3D('',#2065,#1644,#1645);
#1384=AXIS2_PLACEMENT_3D('',#2067,#1647,#1648);
#1385=AXIS2_PLACEMENT_3D('',#2071,#1651,#1652);
#1386=AXIS2_PLACEMENT_3D('',#2073,#1653,#1654);
#1387=AXIS2_PLACEMENT_3D('',#2075,#1656,#1657);
#1388=AXIS2_PLACEMENT_3D('',#2078,#1658,#1659);
#1389=AXIS2_PLACEMENT_3D('',#2081,#1662,#1663);
#1390=AXIS2_PLACEMENT_3D('',#2085,#1666,#1667);
#1391=AXIS2_PLACEMENT_3D('',#2086,#1668,#1669);
#1392=AXIS2_PLACEMENT_3D('',#2087,#1670,#1671);
#1393=AXIS2_PLACEMENT_3D('',#2089,#1672,#1673);
#1394=AXIS2_PLACEMENT_3D('',#2091,#1675,#1676);
#1395=AXIS2_PLACEMENT_3D('',#2094,#1677,#1678);
#1396=AXIS2_PLACEMENT_3D('',#2097,#1681,#1682);
#1397=AXIS2_PLACEMENT_3D('',#2101,#1685,#1686);
#1398=AXIS2_PLACEMENT_3D('',#2104,#1687,#1688);
#1399=AXIS2_PLACEMENT_3D('',#2107,#1691,#1692);
#1400=AXIS2_PLACEMENT_3D('',#2108,#1693,#1694);
#1401=AXIS2_PLACEMENT_3D('',#2109,#1695,#1696);
#1402=AXIS2_PLACEMENT_3D('',#2111,#1697,#1698);
#1403=AXIS2_PLACEMENT_3D('',#2113,#1700,#1701);
#1404=AXIS2_PLACEMENT_3D('',#2116,#1702,#1703);
#1405=AXIS2_PLACEMENT_3D('',#2119,#1706,#1707);
#1406=AXIS2_PLACEMENT_3D('',#2121,#1708,#1709);
#1407=AXIS2_PLACEMENT_3D('',#2123,#1711,#1712);
#1408=AXIS2_PLACEMENT_3D('',#2125,#1713,#1714);
#1409=AXIS2_PLACEMENT_3D('',#2127,#1716,#1717);
#1410=AXIS2_PLACEMENT_3D('',#2131,#1720,#1721);
#1411=AXIS2_PLACEMENT_3D('',#2134,#1722,#1723);
#1412=AXIS2_PLACEMENT_3D('',#2137,#1726,#1727);
#1413=AXIS2_PLACEMENT_3D('',#2139,#1728,#1729);
#1414=AXIS2_PLACEMENT_3D('',#2141,#1731,#1732);
#1415=AXIS2_PLACEMENT_3D('',#2143,#1733,#1734);
#1416=AXIS2_PLACEMENT_3D('',#2145,#1736,#1737);
#1417=AXIS2_PLACEMENT_3D('',#2147,#1738,#1739);
#1418=AXIS2_PLACEMENT_3D('',#2149,#1741,#1742);
#1419=AXIS2_PLACEMENT_3D('',#2153,#1745,#1746);
#1420=AXIS2_PLACEMENT_3D('',#2157,#1748,#1749);
#1421=AXIS2_PLACEMENT_3D('',#2159,#1751,#1752);
#1422=AXIS2_PLACEMENT_3D('',#2163,#1755,#1756);
#1423=AXIS2_PLACEMENT_3D('',#2166,#1757,#1758);
#1424=AXIS2_PLACEMENT_3D('',#2169,#1761,#1762);
#1425=AXIS2_PLACEMENT_3D('',#2173,#1765,#1766);
#1426=AXIS2_PLACEMENT_3D('',#2175,#1767,#1768);
#1427=AXIS2_PLACEMENT_3D('',#2177,#1770,#1771);
#1428=AXIS2_PLACEMENT_3D('',#2179,#1772,#1773);
#1429=AXIS2_PLACEMENT_3D('',#2181,#1775,#1776);
#1430=AXIS2_PLACEMENT_3D('',#2185,#1779,#1780);
#1431=AXIS2_PLACEMENT_3D('',#2188,#1782,#1783);
#1432=AXIS2_PLACEMENT_3D('',#2189,#1784,#1785);
#1433=AXIS2_PLACEMENT_3D('',#2193,#1788,#1789);
#1434=AXIS2_PLACEMENT_3D('',#2194,#1790,#1791);
#1435=AXIS2_PLACEMENT_3D('',#2195,#1792,#1793);
#1436=AXIS2_PLACEMENT_3D('',#2199,#1795,#1796);
#1437=AXIS2_PLACEMENT_3D('',#2201,#1798,#1799);
#1438=AXIS2_PLACEMENT_3D('',#2205,#1802,#1803);
#1439=AXIS2_PLACEMENT_3D('',#2209,#1805,#1806);
#1440=AXIS2_PLACEMENT_3D('',#2211,#1808,#1809);
#1441=AXIS2_PLACEMENT_3D('',#2213,#1811,#1812);
#1442=AXIS2_PLACEMENT_3D('',#2216,#1814,#1815);
#1443=AXIS2_PLACEMENT_3D('',#2217,#1816,#1817);
#1444=AXIS2_PLACEMENT_3D('',#2221,#1820,#1821);
#1445=AXIS2_PLACEMENT_3D('',#2224,#1823,#1824);
#1446=AXIS2_PLACEMENT_3D('',#2225,#1825,#1826);
#1447=AXIS2_PLACEMENT_3D('',#2227,#1828,#1829);
#1448=AXIS2_PLACEMENT_3D('',#2229,#1831,#1832);
#1449=AXIS2_PLACEMENT_3D('',#2230,#1833,#1834);
#1450=AXIS2_PLACEMENT_3D('',#2231,#1835,#1836);
#1451=AXIS2_PLACEMENT_3D('',#2232,#1837,#1838);
#1452=AXIS2_PLACEMENT_3D('',#2233,#1839,#1840);
#1453=AXIS2_PLACEMENT_3D('',#2235,#1841,#1842);
#1454=AXIS2_PLACEMENT_3D('',#2236,#1843,#1844);
#1455=AXIS2_PLACEMENT_3D('',#2238,#1845,#1846);
#1456=AXIS2_PLACEMENT_3D('',#2239,#1847,#1848);
#1457=AXIS2_PLACEMENT_3D('',#2241,#1850,#1851);
#1458=AXIS2_PLACEMENT_3D('',#2242,#1852,#1853);
#1459=AXIS2_PLACEMENT_3D('',#2243,#1854,#1855);
#1460=AXIS2_PLACEMENT_3D('',#2245,#1857,#1858);
#1461=AXIS2_PLACEMENT_3D('',#2247,#1860,#1861);
#1462=AXIS2_PLACEMENT_3D('',#2249,#1863,#1864);
#1463=DIRECTION('axis',(0.,0.,1.));
#1464=DIRECTION('refdir',(1.,0.,0.));
#1465=DIRECTION('center_axis',(0.,0.,1.));
#1466=DIRECTION('ref_axis',(-0.573576436351046,0.819152044288992,0.));
#1467=DIRECTION('center_axis',(0.,0.,-1.));
#1468=DIRECTION('ref_axis',(-0.573576436351046,0.819152044288992,0.));
#1469=DIRECTION('',(0.,0.,-1.));
#1470=DIRECTION('center_axis',(0.,0.,1.));
#1471=DIRECTION('ref_axis',(-0.573576436351046,0.819152044288992,0.));
#1472=DIRECTION('',(0.,0.,1.));
#1473=DIRECTION('center_axis',(0.17364817766693,0.984807753012208,0.));
#1474=DIRECTION('ref_axis',(-0.984807753012208,0.17364817766693,0.));
#1475=DIRECTION('',(-0.984807753012208,0.17364817766693,0.));
#1476=DIRECTION('',(0.,0.,1.));
#1477=DIRECTION('',(-0.984807753012208,0.17364817766693,0.));
#1478=DIRECTION('center_axis',(0.,0.,1.));
#1479=DIRECTION('ref_axis',(1.,0.,0.));
#1480=DIRECTION('center_axis',(0.,0.,-1.));
#1481=DIRECTION('ref_axis',(-0.685686292714891,-0.727897182288068,0.));
#1482=DIRECTION('',(1.,0.,0.));
#1483=DIRECTION('center_axis',(0.,0.,-1.));
#1484=DIRECTION('ref_axis',(0.685686292714891,-0.727897182288068,0.));
#1485=DIRECTION('center_axis',(0.,0.,1.));
#1486=DIRECTION('ref_axis',(0.984807753012208,-0.17364817766693,0.));
#1487=DIRECTION('center_axis',(0.,0.,-1.));
#1488=DIRECTION('ref_axis',(-1.,0.,0.));
#1489=DIRECTION('',(-0.984807753012208,-0.17364817766693,0.));
#1490=DIRECTION('center_axis',(0.,0.,-1.));
#1491=DIRECTION('ref_axis',(-1.,0.,0.));
#1492=DIRECTION('',(-0.984807753012208,0.17364817766693,0.));
#1493=DIRECTION('center_axis',(0.,0.,-1.));
#1494=DIRECTION('ref_axis',(0.,-1.,0.));
#1495=DIRECTION('center_axis',(0.,0.,1.));
#1496=DIRECTION('ref_axis',(0.73562166941052,0.677392618422787,0.));
#1497=DIRECTION('',(0.,-1.,0.));
#1498=DIRECTION('center_axis',(0.,0.,1.));
#1499=DIRECTION('ref_axis',(0.707106781186549,-0.707106781186546,0.));
#1500=DIRECTION('',(-1.,0.,0.));
#1501=DIRECTION('center_axis',(0.,0.,1.));
#1502=DIRECTION('ref_axis',(-0.707106781186549,-0.707106781186546,0.));
#1503=DIRECTION('',(0.,1.,0.));
#1504=DIRECTION('center_axis',(0.,0.,1.));
#1505=DIRECTION('ref_axis',(-0.735621669410523,0.677392618422784,0.));
#1506=DIRECTION('',(-1.,0.,0.));
#1507=DIRECTION('center_axis',(0.,0.,1.));
#1508=DIRECTION('ref_axis',(-0.707106781186551,-0.707106781186544,0.));
#1509=DIRECTION('',(-9.43689570931383E-16,1.,0.));
#1510=DIRECTION('center_axis',(0.,0.,1.));
#1511=DIRECTION('ref_axis',(-0.707106781186545,0.70710678118655,0.));
#1512=DIRECTION('',(1.,0.,0.));
#1513=DIRECTION('center_axis',(0.,0.,1.));
#1514=DIRECTION('ref_axis',(0.707106781186551,0.707106781186544,0.));
#1515=DIRECTION('',(-5.55111512312578E-17,-1.,0.));
#1516=DIRECTION('center_axis',(0.,0.,1.));
#1517=DIRECTION('ref_axis',(0.707106781186545,-0.70710678118655,0.));
#1518=DIRECTION('center_axis',(0.,0.,-1.));
#1519=DIRECTION('ref_axis',(-1.,0.,0.));
#1520=DIRECTION('',(-0.17364817766693,-0.984807753012208,0.));
#1521=DIRECTION('center_axis',(0.,0.,1.));
#1522=DIRECTION('ref_axis',(0.642787609686541,-0.766044443118976,0.));
#1523=DIRECTION('',(-1.,0.,0.));
#1524=DIRECTION('center_axis',(0.,0.,1.));
#1525=DIRECTION('ref_axis',(-0.642787609686541,-0.766044443118976,0.));
#1526=DIRECTION('',(-0.17364817766693,0.984807753012208,0.));
#1527=DIRECTION('center_axis',(0.,0.,-1.));
#1528=DIRECTION('ref_axis',(0.573576436351046,0.819152044288992,0.));
#1529=DIRECTION('',(-0.984807753012208,-0.17364817766693,0.));
#1530=DIRECTION('center_axis',(0.,0.,1.));
#1531=DIRECTION('ref_axis',(-0.682557517162512,-0.730831879275218,0.));
#1532=DIRECTION('center_axis',(0.,0.,-1.));
#1533=DIRECTION('ref_axis',(0.,-1.,0.));
#1534=DIRECTION('center_axis',(0.,0.,1.));
#1535=DIRECTION('ref_axis',(-0.366333247515339,0.930483719236863,0.));
#1536=DIRECTION('',(1.,0.,0.));
#1537=DIRECTION('center_axis',(0.,0.,-1.));
#1538=DIRECTION('ref_axis',(0.707106781186549,-0.707106781186547,0.));
#1539=DIRECTION('',(0.,1.,0.));
#1540=DIRECTION('center_axis',(0.,0.,1.));
#1541=DIRECTION('ref_axis',(-0.84978605326668,0.527127748912386,0.));
#1542=DIRECTION('center_axis',(0.,0.,-1.));
#1543=DIRECTION('ref_axis',(0.,-1.,0.));
#1544=DIRECTION('center_axis',(0.,0.,1.));
#1545=DIRECTION('ref_axis',(0.643180209396214,0.765714841335234,0.));
#1546=DIRECTION('',(3.08984515257673E-16,-1.,0.));
#1547=DIRECTION('center_axis',(0.,0.,-1.));
#1548=DIRECTION('ref_axis',(-0.707106781186548,-0.707106781186547,0.));
#1549=DIRECTION('',(1.,0.,0.));
#1550=DIRECTION('center_axis',(0.,0.,1.));
#1551=DIRECTION('ref_axis',(0.707106781186548,0.707106781186547,0.));
#1552=DIRECTION('',(5.55111512312578E-16,-1.,0.));
#1553=DIRECTION('center_axis',(0.,0.,-1.));
#1554=DIRECTION('ref_axis',(0.707106781186546,-0.707106781186549,0.));
#1555=DIRECTION('',(2.22044604925031E-16,1.,0.));
#1556=DIRECTION('center_axis',(0.,0.,1.));
#1557=DIRECTION('ref_axis',(-0.707106781186548,0.707106781186547,0.));
#1558=DIRECTION('',(1.,0.,0.));
#1559=DIRECTION('center_axis',(0.,0.,-1.));
#1560=DIRECTION('ref_axis',(0.707106781186548,-0.707106781186547,0.));
#1561=DIRECTION('',(0.,1.,0.));
#1562=DIRECTION('center_axis',(0.,0.,1.));
#1563=DIRECTION('ref_axis',(-0.643180209396213,0.765714841335235,0.));
#1564=DIRECTION('center_axis',(0.,0.,-1.));
#1565=DIRECTION('ref_axis',(0.,-1.,0.));
#1566=DIRECTION('center_axis',(0.,0.,1.));
#1567=DIRECTION('ref_axis',(0.84978605326668,0.527127748912386,0.));
#1568=DIRECTION('',(0.,-1.,0.));
#1569=DIRECTION('center_axis',(0.,0.,-1.));
#1570=DIRECTION('ref_axis',(-0.707106781186546,-0.707106781186549,0.));
#1571=DIRECTION('',(1.,0.,0.));
#1572=DIRECTION('center_axis',(0.,0.,1.));
#1573=DIRECTION('ref_axis',(0.366333247515339,0.930483719236863,0.));
#1574=DIRECTION('center_axis',(0.,0.,-1.));
#1575=DIRECTION('ref_axis',(-0.984807753012208,0.17364817766693,0.));
#1576=DIRECTION('center_axis',(0.,0.,1.));
#1577=DIRECTION('ref_axis',(0.682557517162509,-0.730831879275221,0.));
#1578=DIRECTION('center_axis',(0.,0.,-1.));
#1579=DIRECTION('ref_axis',(-1.,0.,0.));
#1580=DIRECTION('center_axis',(0.,0.,1.));
#1581=DIRECTION('ref_axis',(0.573576436351046,0.819152044288992,0.));
#1582=DIRECTION('',(0.,0.,-1.));
#1583=DIRECTION('center_axis',(0.,0.,1.));
#1584=DIRECTION('ref_axis',(0.573576436351046,0.819152044288992,0.));
#1585=DIRECTION('',(0.,0.,1.));
#1586=DIRECTION('center_axis',(0.984807753012208,0.17364817766693,0.));
#1587=DIRECTION('ref_axis',(-0.173648177666929,0.984807753012208,0.));
#1588=DIRECTION('',(0.,0.,1.));
#1589=DIRECTION('',(-0.17364817766693,0.984807753012208,0.));
#1590=DIRECTION('center_axis',(0.17364817766693,-0.984807753012208,0.));
#1591=DIRECTION('ref_axis',(0.984807753012208,0.17364817766693,0.));
#1592=DIRECTION('',(0.,0.,1.));
#1593=DIRECTION('',(0.984807753012208,0.17364817766693,0.));
#1594=DIRECTION('',(0.,0.,1.));
#1595=DIRECTION('center_axis',(0.,0.,1.));
#1596=DIRECTION('ref_axis',(-1.,0.,0.));
#1597=DIRECTION('center_axis',(0.,0.,1.));
#1598=DIRECTION('ref_axis',(-1.,0.,0.));
#1599=DIRECTION('center_axis',(-0.17364817766693,-0.984807753012208,0.));
#1600=DIRECTION('ref_axis',(0.984807753012208,-0.17364817766693,0.));
#1601=DIRECTION('',(0.,0.,1.));
#1602=DIRECTION('',(0.984807753012208,-0.17364817766693,0.));
#1603=DIRECTION('',(0.,0.,1.));
#1604=DIRECTION('center_axis',(0.,0.,1.));
#1605=DIRECTION('ref_axis',(-1.,0.,0.));
#1606=DIRECTION('center_axis',(0.,0.,1.));
#1607=DIRECTION('ref_axis',(-1.,0.,0.));
#1608=DIRECTION('center_axis',(0.,0.,1.));
#1609=DIRECTION('ref_axis',(0.73562166941052,0.677392618422787,0.));
#1610=DIRECTION('center_axis',(0.,0.,-1.));
#1611=DIRECTION('ref_axis',(0.73562166941052,0.677392618422787,0.));
#1612=DIRECTION('',(0.,0.,1.));
#1613=DIRECTION('',(0.,0.,-1.));
#1614=DIRECTION('center_axis',(-1.,0.,0.));
#1615=DIRECTION('ref_axis',(0.,1.,0.));
#1616=DIRECTION('',(0.,1.,0.));
#1617=DIRECTION('',(0.,0.,-1.));
#1618=DIRECTION('center_axis',(0.,0.,-1.));
#1619=DIRECTION('ref_axis',(0.707106781186549,-0.707106781186546,0.));
#1620=DIRECTION('center_axis',(0.,0.,-1.));
#1621=DIRECTION('ref_axis',(0.707106781186549,-0.707106781186546,0.));
#1622=DIRECTION('',(0.,0.,1.));
#1623=DIRECTION('center_axis',(0.,0.,-1.));
#1624=DIRECTION('ref_axis',(-0.707106781186549,-0.707106781186546,0.));
#1625=DIRECTION('',(0.,0.,-1.));
#1626=DIRECTION('center_axis',(0.,0.,-1.));
#1627=DIRECTION('ref_axis',(-0.707106781186549,-0.707106781186546,0.));
#1628=DIRECTION('',(0.,0.,1.));
#1629=DIRECTION('center_axis',(0.,1.,0.));
#1630=DIRECTION('ref_axis',(1.,0.,0.));
#1631=DIRECTION('',(1.,0.,0.));
#1632=DIRECTION('center_axis',(0.,0.,-1.));
#1633=DIRECTION('ref_axis',(-0.735621669410523,0.677392618422784,0.));
#1634=DIRECTION('',(0.,0.,-1.));
#1635=DIRECTION('center_axis',(0.,0.,-1.));
#1636=DIRECTION('ref_axis',(-0.735621669410523,0.677392618422784,0.));
#1637=DIRECTION('',(0.,0.,1.));
#1638=DIRECTION('center_axis',(1.,0.,0.));
#1639=DIRECTION('ref_axis',(0.,-1.,0.));
#1640=DIRECTION('',(0.,-1.,0.));
#1641=DIRECTION('center_axis',(0.,0.,1.));
#1642=DIRECTION('ref_axis',(-0.685686292714891,-0.727897182288068,0.));
#1643=DIRECTION('',(0.,0.,-1.));
#1644=DIRECTION('center_axis',(0.,0.,1.));
#1645=DIRECTION('ref_axis',(-0.685686292714891,-0.727897182288068,0.));
#1646=DIRECTION('',(0.,0.,1.));
#1647=DIRECTION('center_axis',(0.,-1.,0.));
#1648=DIRECTION('ref_axis',(1.,0.,0.));
#1649=DIRECTION('',(1.,0.,0.));
#1650=DIRECTION('',(0.,0.,-1.));
#1651=DIRECTION('center_axis',(0.,0.,1.));
#1652=DIRECTION('ref_axis',(0.685686292714891,-0.727897182288068,0.));
#1653=DIRECTION('center_axis',(0.,0.,1.));
#1654=DIRECTION('ref_axis',(0.685686292714891,-0.727897182288068,0.));
#1655=DIRECTION('',(0.,0.,1.));
#1656=DIRECTION('center_axis',(0.,0.,1.));
#1657=DIRECTION('ref_axis',(0.642787609686541,-0.766044443118976,0.));
#1658=DIRECTION('center_axis',(0.,0.,-1.));
#1659=DIRECTION('ref_axis',(0.642787609686541,-0.766044443118976,0.));
#1660=DIRECTION('',(0.,0.,1.));
#1661=DIRECTION('',(0.,0.,-1.));
#1662=DIRECTION('center_axis',(0.,1.,0.));
#1663=DIRECTION('ref_axis',(-1.,0.,0.));
#1664=DIRECTION('',(-1.,0.,0.));
#1665=DIRECTION('',(0.,0.,-1.));
#1666=DIRECTION('center_axis',(0.,0.,1.));
#1667=DIRECTION('ref_axis',(-0.642787609686541,-0.766044443118976,0.));
#1668=DIRECTION('center_axis',(0.,0.,-1.));
#1669=DIRECTION('ref_axis',(-0.642787609686541,-0.766044443118976,0.));
#1670=DIRECTION('center_axis',(0.,0.,1.));
#1671=DIRECTION('ref_axis',(0.682557517162509,-0.730831879275221,0.));
#1672=DIRECTION('center_axis',(0.,0.,-1.));
#1673=DIRECTION('ref_axis',(0.682557517162509,-0.730831879275221,0.));
#1674=DIRECTION('',(0.,0.,-1.));
#1675=DIRECTION('center_axis',(0.,0.,1.));
#1676=DIRECTION('ref_axis',(0.84978605326668,0.527127748912386,0.));
#1677=DIRECTION('center_axis',(0.,0.,-1.));
#1678=DIRECTION('ref_axis',(0.84978605326668,0.527127748912386,0.));
#1679=DIRECTION('',(0.,0.,1.));
#1680=DIRECTION('',(0.,0.,-1.));
#1681=DIRECTION('center_axis',(-1.,0.,0.));
#1682=DIRECTION('ref_axis',(0.,-1.,0.));
#1683=DIRECTION('',(0.,-1.,0.));
#1684=DIRECTION('',(0.,0.,-1.));
#1685=DIRECTION('center_axis',(0.,0.,1.));
#1686=DIRECTION('ref_axis',(0.366333247515339,0.930483719236863,0.));
#1687=DIRECTION('center_axis',(0.,0.,-1.));
#1688=DIRECTION('ref_axis',(0.366333247515339,0.930483719236863,0.));
#1689=DIRECTION('',(0.,0.,1.));
#1690=DIRECTION('',(0.,0.,-1.));
#1691=DIRECTION('center_axis',(0.,0.,1.));
#1692=DIRECTION('ref_axis',(-0.984807753012208,0.17364817766693,0.));
#1693=DIRECTION('center_axis',(0.,0.,-1.));
#1694=DIRECTION('ref_axis',(-0.984807753012208,0.17364817766693,0.));
#1695=DIRECTION('center_axis',(0.,0.,1.));
#1696=DIRECTION('ref_axis',(-0.707106781186546,-0.707106781186549,0.));
#1697=DIRECTION('center_axis',(0.,0.,1.));
#1698=DIRECTION('ref_axis',(-0.707106781186546,-0.707106781186549,0.));
#1699=DIRECTION('',(0.,0.,1.));
#1700=DIRECTION('center_axis',(0.,0.,1.));
#1701=DIRECTION('ref_axis',(-0.682557517162512,-0.730831879275218,0.));
#1702=DIRECTION('center_axis',(0.,0.,-1.));
#1703=DIRECTION('ref_axis',(-0.682557517162512,-0.730831879275218,0.));
#1704=DIRECTION('',(0.,0.,1.));
#1705=DIRECTION('',(0.,0.,-1.));
#1706=DIRECTION('center_axis',(0.,0.,1.));
#1707=DIRECTION('ref_axis',(0.,-1.,0.));
#1708=DIRECTION('center_axis',(0.,0.,-1.));
#1709=DIRECTION('ref_axis',(0.,-1.,0.));
#1710=DIRECTION('',(0.,0.,-1.));
#1711=DIRECTION('center_axis',(0.,0.,1.));
#1712=DIRECTION('ref_axis',(-0.366333247515339,0.930483719236863,0.));
#1713=DIRECTION('center_axis',(0.,0.,-1.));
#1714=DIRECTION('ref_axis',(-0.366333247515339,0.930483719236863,0.));
#1715=DIRECTION('',(0.,0.,1.));
#1716=DIRECTION('center_axis',(0.,-1.,0.));
#1717=DIRECTION('ref_axis',(1.,0.,0.));
#1718=DIRECTION('',(1.,0.,0.));
#1719=DIRECTION('',(0.,0.,-1.));
#1720=DIRECTION('center_axis',(0.,0.,1.));
#1721=DIRECTION('ref_axis',(-0.84978605326668,0.527127748912386,0.));
#1722=DIRECTION('center_axis',(0.,0.,-1.));
#1723=DIRECTION('ref_axis',(-0.84978605326668,0.527127748912386,0.));
#1724=DIRECTION('',(0.,0.,1.));
#1725=DIRECTION('',(0.,0.,-1.));
#1726=DIRECTION('center_axis',(0.,0.,1.));
#1727=DIRECTION('ref_axis',(-0.984807753012208,0.17364817766693,0.));
#1728=DIRECTION('center_axis',(0.,0.,-1.));
#1729=DIRECTION('ref_axis',(0.,-1.,0.));
#1730=DIRECTION('',(0.,0.,-1.));
#1731=DIRECTION('center_axis',(0.,0.,1.));
#1732=DIRECTION('ref_axis',(0.707106781186549,-0.707106781186547,0.));
#1733=DIRECTION('center_axis',(0.,0.,1.));
#1734=DIRECTION('ref_axis',(0.707106781186549,-0.707106781186547,0.));
#1735=DIRECTION('',(0.,0.,1.));
#1736=DIRECTION('center_axis',(0.,0.,1.));
#1737=DIRECTION('ref_axis',(0.643180209396214,0.765714841335234,0.));
#1738=DIRECTION('center_axis',(0.,0.,-1.));
#1739=DIRECTION('ref_axis',(0.643180209396214,0.765714841335234,0.));
#1740=DIRECTION('',(0.,0.,1.));
#1741=DIRECTION('center_axis',(-1.,-3.08984515257673E-16,0.));
#1742=DIRECTION('ref_axis',(-3.5527136788005E-16,1.,0.));
#1743=DIRECTION('',(-3.08984515257673E-16,1.,0.));
#1744=DIRECTION('',(0.,0.,-1.));
#1745=DIRECTION('center_axis',(0.,0.,-1.));
#1746=DIRECTION('ref_axis',(-0.643180209396213,0.765714841335235,0.));
#1747=DIRECTION('',(0.,0.,-1.));
#1748=DIRECTION('center_axis',(0.,0.,-1.));
#1749=DIRECTION('ref_axis',(-0.643180209396213,0.765714841335235,0.));
#1750=DIRECTION('',(0.,0.,1.));
#1751=DIRECTION('center_axis',(1.,0.,0.));
#1752=DIRECTION('ref_axis',(0.,-1.,0.));
#1753=DIRECTION('',(0.,0.,1.));
#1754=DIRECTION('',(0.,-1.,0.));
#1755=DIRECTION('center_axis',(0.,0.,1.));
#1756=DIRECTION('ref_axis',(0.707106781186548,0.707106781186547,0.));
#1757=DIRECTION('center_axis',(0.,0.,-1.));
#1758=DIRECTION('ref_axis',(0.707106781186548,0.707106781186547,0.));
#1759=DIRECTION('',(0.,0.,1.));
#1760=DIRECTION('',(0.,0.,-1.));
#1761=DIRECTION('center_axis',(-1.,-5.55111512312578E-16,0.));
#1762=DIRECTION('ref_axis',(-5.32907051820075E-16,1.,0.));
#1763=DIRECTION('',(-5.55111512312578E-16,1.,0.));
#1764=DIRECTION('',(0.,0.,-1.));
#1765=DIRECTION('center_axis',(0.,0.,-1.));
#1766=DIRECTION('ref_axis',(-0.707106781186548,-0.707106781186547,0.));
#1767=DIRECTION('center_axis',(0.,0.,1.));
#1768=DIRECTION('ref_axis',(-0.707106781186548,-0.707106781186547,0.));
#1769=DIRECTION('',(0.,0.,1.));
#1770=DIRECTION('center_axis',(0.,0.,-1.));
#1771=DIRECTION('ref_axis',(0.707106781186548,-0.707106781186547,0.));
#1772=DIRECTION('center_axis',(0.,0.,1.));
#1773=DIRECTION('ref_axis',(0.707106781186548,-0.707106781186547,0.));
#1774=DIRECTION('',(0.,0.,-1.));
#1775=DIRECTION('center_axis',(0.,-1.,0.));
#1776=DIRECTION('ref_axis',(-1.,0.,0.));
#1777=DIRECTION('',(0.,0.,1.));
#1778=DIRECTION('',(-1.,0.,0.));
#1779=DIRECTION('center_axis',(0.,0.,-1.));
#1780=DIRECTION('ref_axis',(-0.707106781186548,0.707106781186547,0.));
#1781=DIRECTION('',(0.,0.,-1.));
#1782=DIRECTION('center_axis',(0.,0.,-1.));
#1783=DIRECTION('ref_axis',(-0.707106781186548,0.707106781186547,0.));
#1784=DIRECTION('center_axis',(1.,-2.22044604925031E-16,0.));
#1785=DIRECTION('ref_axis',(-1.77635683940025E-16,-1.,0.));
#1786=DIRECTION('',(0.,0.,1.));
#1787=DIRECTION('',(-2.22044604925031E-16,-1.,0.));
#1788=DIRECTION('center_axis',(0.,0.,-1.));
#1789=DIRECTION('ref_axis',(0.707106781186546,-0.707106781186549,0.));
#1790=DIRECTION('center_axis',(0.,0.,1.));
#1791=DIRECTION('ref_axis',(-0.707106781186548,-0.707106781186547,0.));
#1792=DIRECTION('center_axis',(0.,0.,-1.));
#1793=DIRECTION('ref_axis',(-0.707106781186545,0.70710678118655,0.));
#1794=DIRECTION('',(0.,0.,-1.));
#1795=DIRECTION('center_axis',(0.,0.,-1.));
#1796=DIRECTION('ref_axis',(-0.707106781186545,0.70710678118655,0.));
#1797=DIRECTION('',(0.,0.,1.));
#1798=DIRECTION('center_axis',(-1.,-9.43689570931383E-16,0.));
#1799=DIRECTION('ref_axis',(-9.32587340685132E-16,1.,0.));
#1800=DIRECTION('',(0.,0.,1.));
#1801=DIRECTION('',(9.43689570931383E-16,-1.,0.));
#1802=DIRECTION('center_axis',(0.,0.,-1.));
#1803=DIRECTION('ref_axis',(0.707106781186551,0.707106781186544,0.));
#1804=DIRECTION('',(0.,0.,-1.));
#1805=DIRECTION('center_axis',(0.,0.,-1.));
#1806=DIRECTION('ref_axis',(0.707106781186551,0.707106781186544,0.));
#1807=DIRECTION('',(0.,0.,1.));
#1808=DIRECTION('center_axis',(0.,1.,0.));
#1809=DIRECTION('ref_axis',(1.,0.,0.));
#1810=DIRECTION('',(-1.,0.,0.));
#1811=DIRECTION('center_axis',(0.,0.,-1.));
#1812=DIRECTION('ref_axis',(-0.707106781186551,-0.707106781186544,0.));
#1813=DIRECTION('',(0.,0.,-1.));
#1814=DIRECTION('center_axis',(0.,0.,-1.));
#1815=DIRECTION('ref_axis',(-0.707106781186551,-0.707106781186544,0.));
#1816=DIRECTION('center_axis',(0.,-1.,0.));
#1817=DIRECTION('ref_axis',(-1.,0.,0.));
#1818=DIRECTION('',(0.,0.,1.));
#1819=DIRECTION('',(1.,0.,0.));
#1820=DIRECTION('center_axis',(0.,0.,-1.));
#1821=DIRECTION('ref_axis',(0.707106781186545,-0.70710678118655,0.));
#1822=DIRECTION('',(0.,0.,-1.));
#1823=DIRECTION('center_axis',(0.,0.,-1.));
#1824=DIRECTION('ref_axis',(0.707106781186545,-0.70710678118655,0.));
#1825=DIRECTION('center_axis',(1.,-5.55111512312578E-17,0.));
#1826=DIRECTION('ref_axis',(-4.44089209850063E-17,-1.,0.));
#1827=DIRECTION('',(5.55111512312578E-17,1.,0.));
#1828=DIRECTION('center_axis',(0.,-1.,0.));
#1829=DIRECTION('ref_axis',(-1.,0.,0.));
#1830=DIRECTION('',(-1.,0.,0.));
#1831=DIRECTION('center_axis',(0.,0.,1.));
#1832=DIRECTION('ref_axis',(-0.984807753012208,0.17364817766693,0.));
#1833=DIRECTION('center_axis',(0.,0.,-1.));
#1834=DIRECTION('ref_axis',(0.,-1.,0.));
#1835=DIRECTION('center_axis',(0.,0.,1.));
#1836=DIRECTION('ref_axis',(-0.984807753012208,0.17364817766693,0.));
#1837=DIRECTION('center_axis',(0.,0.,-1.));
#1838=DIRECTION('ref_axis',(0.,-1.,0.));
#1839=DIRECTION('center_axis',(0.,0.,1.));
#1840=DIRECTION('ref_axis',(-1.,0.,0.));
#1841=DIRECTION('center_axis',(0.,0.,1.));
#1842=DIRECTION('ref_axis',(-1.,0.,0.));
#1843=DIRECTION('center_axis',(0.,0.,1.));
#1844=DIRECTION('ref_axis',(-1.,0.,0.));
#1845=DIRECTION('center_axis',(0.,0.,1.));
#1846=DIRECTION('ref_axis',(-1.,0.,0.));
#1847=DIRECTION('center_axis',(-0.17364817766693,0.984807753012208,0.));
#1848=DIRECTION('ref_axis',(-0.984807753012208,-0.17364817766693,0.));
#1849=DIRECTION('',(-0.984807753012208,-0.17364817766693,0.));
#1850=DIRECTION('center_axis',(0.,0.,1.));
#1851=DIRECTION('ref_axis',(0.,1.,0.));
#1852=DIRECTION('center_axis',(0.,0.,1.));
#1853=DIRECTION('ref_axis',(0.984807753012208,-0.17364817766693,0.));
#1854=DIRECTION('center_axis',(-0.984807753012208,0.17364817766693,0.));
#1855=DIRECTION('ref_axis',(-0.173648177666929,-0.984807753012208,0.));
#1856=DIRECTION('',(-0.17364817766693,-0.984807753012208,0.));
#1857=DIRECTION('center_axis',(0.,-1.,0.));
#1858=DIRECTION('ref_axis',(1.,0.,0.));
#1859=DIRECTION('',(1.,0.,0.));
#1860=DIRECTION('center_axis',(1.,0.,0.));
#1861=DIRECTION('ref_axis',(0.,1.,0.));
#1862=DIRECTION('',(0.,1.,0.));
#1863=DIRECTION('center_axis',(0.,0.,1.));
#1864=DIRECTION('ref_axis',(1.,0.,0.));
#1865=CARTESIAN_POINT('',(0.,0.,0.));
#1866=CARTESIAN_POINT('Origin',(129.073146487882,-16.6299737310941,0.));
#1867=CARTESIAN_POINT('',(99.5289138975157,-11.4205284010862,3.));
#1868=CARTESIAN_POINT('',(134.28259181789,12.9142588592721,3.));
#1869=CARTESIAN_POINT('Origin',(129.073146487882,-16.6299737310941,3.));
#1870=CARTESIAN_POINT('',(134.28259181789,12.9142588592721,0.));
#1871=CARTESIAN_POINT('',(134.28259181789,12.9142588592721,0.));
#1872=CARTESIAN_POINT('',(99.5289138975157,-11.4205284010862,0.));
#1873=CARTESIAN_POINT('Origin',(129.073146487882,-16.6299737310941,0.));
#1874=CARTESIAN_POINT('',(99.5289138975157,-11.4205284010862,0.));
#1875=CARTESIAN_POINT('Origin',(159.778365436299,8.41866607631149,0.));
#1876=CARTESIAN_POINT('',(151.505675822463,9.87736445825757,3.));
#1877=CARTESIAN_POINT('',(159.778365436299,8.41866607631149,3.));
#1878=CARTESIAN_POINT('',(151.505675822463,9.87736445825757,0.));
#1879=CARTESIAN_POINT('',(151.505675822463,9.87736445825757,0.));
#1880=CARTESIAN_POINT('',(159.778365436299,8.41866607631149,0.));
#1881=CARTESIAN_POINT('Origin',(-110.404686877766,68.3141311122107,3.));
#1882=CARTESIAN_POINT('',(-144.741644916209,-28.6519493150435,3.));
#1883=CARTESIAN_POINT('',(-164.706009732238,-9.84532163435986,3.));
#1884=CARTESIAN_POINT('Origin',(-144.741644916209,-8.65194931504351,3.));
#1885=CARTESIAN_POINT('',(144.741644916209,-28.6519493150435,3.));
#1886=CARTESIAN_POINT('',(-162.493279247014,-28.6519493150435,3.));
#1887=CARTESIAN_POINT('',(164.706009732238,-9.84532163435986,3.));
#1888=CARTESIAN_POINT('Origin',(144.741644916209,-8.65194931504351,3.));
#1889=CARTESIAN_POINT('Origin',(0.,0.,3.));
#1890=CARTESIAN_POINT('',(-143.346491685715,-19.3551271109061,3.));
#1891=CARTESIAN_POINT('',(-113.753059673107,-14.1370065953217,3.));
#1892=CARTESIAN_POINT('Origin',(-129.504840656579,-11.3296242115467,3.));
#1893=CARTESIAN_POINT('',(-119.876084694696,-15.216661110181,3.));
#1894=CARTESIAN_POINT('',(113.752609229206,-14.1370065953217,3.));
#1895=CARTESIAN_POINT('',(143.346041241814,-19.3551271109061,3.));
#1896=CARTESIAN_POINT('Origin',(129.504390212678,-11.3296242115467,3.));
#1897=CARTESIAN_POINT('',(-1.99644154332135,6.27267404726886,3.));
#1898=CARTESIAN_POINT('',(-13.1645569620253,159.457500419371,3.));
#1899=CARTESIAN_POINT('',(13.1645569620253,159.457500419371,3.));
#1900=CARTESIAN_POINT('Origin',(0.,0.,3.));
#1901=CARTESIAN_POINT('',(15.,157.464281664129,3.));
#1902=CARTESIAN_POINT('Origin',(13.,157.464281664129,3.));
#1903=CARTESIAN_POINT('',(15.,137.,3.));
#1904=CARTESIAN_POINT('',(15.,159.29532322074,3.));
#1905=CARTESIAN_POINT('',(13.,135.,3.));
#1906=CARTESIAN_POINT('Origin',(13.,137.,3.));
#1907=CARTESIAN_POINT('',(-13.,135.,3.));
#1908=CARTESIAN_POINT('',(15.,135.,3.));
#1909=CARTESIAN_POINT('',(-15.,137.,3.));
#1910=CARTESIAN_POINT('Origin',(-13.,137.,3.));
#1911=CARTESIAN_POINT('',(-15.,157.464281664129,3.));
#1912=CARTESIAN_POINT('',(-15.,135.,3.));
#1913=CARTESIAN_POINT('Origin',(-13.,157.464281664129,3.));
#1914=CARTESIAN_POINT('',(0.349999999999996,100.,3.));
#1915=CARTESIAN_POINT('',(-0.349999999999999,100.,3.));
#1916=CARTESIAN_POINT('',(1.29999999999999,100.,3.));
#1917=CARTESIAN_POINT('',(-2.6,102.25,3.));
#1918=CARTESIAN_POINT('Origin',(-0.349999999999999,102.25,3.));
#1919=CARTESIAN_POINT('',(-2.6,107.75,3.));
#1920=CARTESIAN_POINT('',(-2.60000000000002,120.523631013219,3.));
#1921=CARTESIAN_POINT('',(-0.350000000000004,110.,3.));
#1922=CARTESIAN_POINT('Origin',(-0.350000000000004,107.75,3.));
#1923=CARTESIAN_POINT('',(0.349999999999996,110.,3.));
#1924=CARTESIAN_POINT('',(-1.30000000000001,110.,3.));
#1925=CARTESIAN_POINT('',(2.6,107.75,3.));
#1926=CARTESIAN_POINT('Origin',(0.349999999999996,107.75,3.));
#1927=CARTESIAN_POINT('',(2.6,102.25,3.));
#1928=CARTESIAN_POINT('',(2.6,125.523631013219,3.));
#1929=CARTESIAN_POINT('Origin',(0.349999999999996,102.25,3.));
#1930=CARTESIAN_POINT('',(83.345855252254,125.800585191814,3.));
#1931=CARTESIAN_POINT('Origin',(81.695855252254,125.800585191814,3.));
#1932=CARTESIAN_POINT('',(98.3192871699103,-18.2806624698786,3.));
#1933=CARTESIAN_POINT('',(104.738359227524,18.12370418928,3.));
#1934=CARTESIAN_POINT('',(91.9180367753309,-23.6519493150435,3.));
#1935=CARTESIAN_POINT('Origin',(91.9180367753309,-17.1519493150435,3.));
#1936=CARTESIAN_POINT('',(-91.9180367753309,-23.6519493150435,3.));
#1937=CARTESIAN_POINT('',(162.493279247014,-23.6519493150435,3.));
#1938=CARTESIAN_POINT('',(-98.3192871699103,-18.2806624698785,3.));
#1939=CARTESIAN_POINT('Origin',(-91.9180367753309,-17.1519493150435,3.));
#1940=CARTESIAN_POINT('',(-99.5289138975157,-11.4205284010862,3.));
#1941=CARTESIAN_POINT('',(-97.3721843779833,-23.6519493150435,3.));
#1942=CARTESIAN_POINT('',(-134.28259181789,12.9142588592721,3.));
#1943=CARTESIAN_POINT('Origin',(-129.073146487882,-16.6299737310941,3.));
#1944=CARTESIAN_POINT('',(-151.505675822463,9.87736445825757,3.));
#1945=CARTESIAN_POINT('',(-104.738359227524,18.1237041892801,3.));
#1946=CARTESIAN_POINT('',(-159.097734438877,16.9679373058886,3.));
#1947=CARTESIAN_POINT('Origin',(-152.634388977298,16.2786148528369,3.));
#1948=CARTESIAN_POINT('',(-109.077479241021,117.055984564757,3.));
#1949=CARTESIAN_POINT('Origin',(0.,0.,3.));
#1950=CARTESIAN_POINT('',(-104.646206646855,118.800585191814,3.));
#1951=CARTESIAN_POINT('Origin',(-104.646206646855,112.300585191814,3.));
#1952=CARTESIAN_POINT('',(-81.195855252254,118.800585191814,3.));
#1953=CARTESIAN_POINT('',(-107.174721637533,118.800585191814,3.));
#1954=CARTESIAN_POINT('',(-74.695855252254,125.300585191814,3.));
#1955=CARTESIAN_POINT('Origin',(-81.195855252254,125.300585191814,3.));
#1956=CARTESIAN_POINT('',(-74.695855252254,137.519363459891,3.));
#1957=CARTESIAN_POINT('',(-74.695855252254,118.800585191814,3.));
#1958=CARTESIAN_POINT('',(-71.0836276244993,143.342658980994,3.));
#1959=CARTESIAN_POINT('Origin',(-68.195855252254,137.519363459891,3.));
#1960=CARTESIAN_POINT('',(-27.6221498371336,157.597642236091,3.));
#1961=CARTESIAN_POINT('Origin',(0.,0.,3.));
#1962=CARTESIAN_POINT('',(-20.,151.19523802025,3.));
#1963=CARTESIAN_POINT('Origin',(-26.5,151.19523802025,3.));
#1964=CARTESIAN_POINT('',(-20.,136.5,3.));
#1965=CARTESIAN_POINT('',(-20.,158.745078663875,3.));
#1966=CARTESIAN_POINT('',(-13.5,130.,3.));
#1967=CARTESIAN_POINT('Origin',(-13.5,136.5,3.));
#1968=CARTESIAN_POINT('',(-13.,130.,3.));
#1969=CARTESIAN_POINT('',(-20.,130.,3.));
#1970=CARTESIAN_POINT('',(-6.50000000000002,123.5,3.));
#1971=CARTESIAN_POINT('Origin',(-13.,123.5,3.));
#1972=CARTESIAN_POINT('',(-6.5,96.5,3.));
#1973=CARTESIAN_POINT('',(-6.50000000000002,130.,3.));
#1974=CARTESIAN_POINT('',(6.5,96.5,3.));
#1975=CARTESIAN_POINT('Origin',(2.38697950294409E-15,96.5,3.));
#1976=CARTESIAN_POINT('',(6.50000000000001,123.5,3.));
#1977=CARTESIAN_POINT('',(6.5,90.,3.));
#1978=CARTESIAN_POINT('',(13.,130.,3.));
#1979=CARTESIAN_POINT('Origin',(13.,123.5,3.));
#1980=CARTESIAN_POINT('',(13.5,130.,3.));
#1981=CARTESIAN_POINT('',(-20.,130.,3.));
#1982=CARTESIAN_POINT('',(20.,136.5,3.));
#1983=CARTESIAN_POINT('Origin',(13.5,136.5,3.));
#1984=CARTESIAN_POINT('',(20.,151.19523802025,3.));
#1985=CARTESIAN_POINT('',(20.,130.,3.));
#1986=CARTESIAN_POINT('',(27.6221498371335,157.597642236091,3.));
#1987=CARTESIAN_POINT('Origin',(26.5,151.19523802025,3.));
#1988=CARTESIAN_POINT('',(71.0836276244993,143.342658980994,3.));
#1989=CARTESIAN_POINT('Origin',(0.,0.,3.));
#1990=CARTESIAN_POINT('',(74.695855252254,137.519363459891,3.));
#1991=CARTESIAN_POINT('Origin',(68.195855252254,137.519363459891,3.));
#1992=CARTESIAN_POINT('',(74.695855252254,125.300585191814,3.));
#1993=CARTESIAN_POINT('',(74.695855252254,141.49391933272,3.));
#1994=CARTESIAN_POINT('',(81.195855252254,118.800585191814,3.));
#1995=CARTESIAN_POINT('Origin',(81.195855252254,125.300585191814,3.));
#1996=CARTESIAN_POINT('',(104.646206646855,118.800585191814,3.));
#1997=CARTESIAN_POINT('',(74.695855252254,118.800585191814,3.));
#1998=CARTESIAN_POINT('',(109.077479241021,117.055984564757,3.));
#1999=CARTESIAN_POINT('Origin',(104.646206646855,112.300585191814,3.));
#2000=CARTESIAN_POINT('',(159.097734438877,16.9679373058886,3.));
#2001=CARTESIAN_POINT('Origin',(0.,0.,3.));
#2002=CARTESIAN_POINT('Origin',(152.634388977298,16.2786148528369,3.));
#2003=CARTESIAN_POINT('',(-80.0458552522541,125.800585191814,3.));
#2004=CARTESIAN_POINT('Origin',(-81.695855252254,125.800585191814,3.));
#2005=CARTESIAN_POINT('Origin',(-129.073146487882,-16.6299737310941,0.));
#2006=CARTESIAN_POINT('',(-99.5289138975157,-11.4205284010862,0.));
#2007=CARTESIAN_POINT('',(-99.5289138975157,-11.4205284010862,0.));
#2008=CARTESIAN_POINT('',(-134.28259181789,12.9142588592721,0.));
#2009=CARTESIAN_POINT('Origin',(-129.073146487882,-16.6299737310941,0.));
#2010=CARTESIAN_POINT('',(-134.28259181789,12.9142588592721,0.));
#2011=CARTESIAN_POINT('Origin',(-98.4807753012208,-17.364817766693,0.));
#2012=CARTESIAN_POINT('',(-98.3192871699103,-18.2806624698785,0.));
#2013=CARTESIAN_POINT('',(-98.3192871699103,-18.2806624698785,0.));
#2014=CARTESIAN_POINT('',(-97.3721843779833,-23.6519493150435,0.));
#2015=CARTESIAN_POINT('Origin',(-143.346491685715,-19.3551271109061,0.));
#2016=CARTESIAN_POINT('',(-113.753059673107,-14.1370065953217,0.));
#2017=CARTESIAN_POINT('',(-113.753059673107,-14.1370065953217,0.));
#2018=CARTESIAN_POINT('',(-143.346491685715,-19.3551271109061,0.));
#2019=CARTESIAN_POINT('',(-103.475188670224,-12.3247406332724,0.));
#2020=CARTESIAN_POINT('',(-143.346491685715,-19.3551271109061,0.));
#2021=CARTESIAN_POINT('Origin',(-129.504840656579,-11.3296242115467,0.));
#2022=CARTESIAN_POINT('Origin',(-129.504840656579,-11.3296242115467,0.));
#2023=CARTESIAN_POINT('Origin',(113.752609229206,-14.1370065953217,0.));
#2024=CARTESIAN_POINT('',(143.346041241814,-19.3551271109061,0.));
#2025=CARTESIAN_POINT('',(143.346041241814,-19.3551271109061,0.));
#2026=CARTESIAN_POINT('',(113.752609229206,-14.1370065953217,0.));
#2027=CARTESIAN_POINT('',(4.53177305524829,5.12157367768616,0.));
#2028=CARTESIAN_POINT('',(113.752609229206,-14.1370065953217,0.));
#2029=CARTESIAN_POINT('Origin',(129.504390212678,-11.3296242115467,0.));
#2030=CARTESIAN_POINT('Origin',(129.504390212678,-11.3296242115467,0.));
#2031=CARTESIAN_POINT('Origin',(13.,157.464281664129,0.));
#2032=CARTESIAN_POINT('',(13.1645569620253,159.457500419371,0.));
#2033=CARTESIAN_POINT('',(15.,157.464281664129,0.));
#2034=CARTESIAN_POINT('Origin',(13.,157.464281664129,0.));
#2035=CARTESIAN_POINT('',(15.,157.464281664129,0.));
#2036=CARTESIAN_POINT('',(13.1645569620253,159.457500419371,0.));
#2037=CARTESIAN_POINT('Origin',(15.,135.,3.));
#2038=CARTESIAN_POINT('',(15.,137.,0.));
#2039=CARTESIAN_POINT('',(15.,159.29532322074,0.));
#2040=CARTESIAN_POINT('',(15.,137.,3.));
#2041=CARTESIAN_POINT('Origin',(13.,137.,3.));
#2042=CARTESIAN_POINT('',(13.,135.,0.));
#2043=CARTESIAN_POINT('Origin',(13.,137.,0.));
#2044=CARTESIAN_POINT('',(13.,135.,3.));
#2045=CARTESIAN_POINT('Origin',(-13.,137.,3.));
#2046=CARTESIAN_POINT('',(-13.,135.,0.));
#2047=CARTESIAN_POINT('',(-13.,135.,3.));
#2048=CARTESIAN_POINT('',(-15.,137.,0.));
#2049=CARTESIAN_POINT('Origin',(-13.,137.,0.));
#2050=CARTESIAN_POINT('',(-15.,137.,3.));
#2051=CARTESIAN_POINT('Origin',(-15.,135.,3.));
#2052=CARTESIAN_POINT('',(15.,135.,0.));
#2053=CARTESIAN_POINT('Origin',(-13.,157.464281664129,0.));
#2054=CARTESIAN_POINT('',(-15.,157.464281664129,0.));
#2055=CARTESIAN_POINT('',(-15.,157.464281664129,0.));
#2056=CARTESIAN_POINT('',(-13.1645569620253,159.457500419371,0.));
#2057=CARTESIAN_POINT('Origin',(-13.,157.464281664129,0.));
#2058=CARTESIAN_POINT('',(-13.1645569620253,159.457500419371,0.));
#2059=CARTESIAN_POINT('Origin',(-15.,159.29532322074,3.));
#2060=CARTESIAN_POINT('',(-15.,135.,0.));
#2061=CARTESIAN_POINT('Origin',(-144.741644916209,-8.65194931504351,0.));
#2062=CARTESIAN_POINT('',(-164.706009732238,-9.84532163435986,0.));
#2063=CARTESIAN_POINT('',(-164.706009732238,-9.84532163435986,0.));
#2064=CARTESIAN_POINT('',(-144.741644916209,-28.6519493150435,0.));
#2065=CARTESIAN_POINT('Origin',(-144.741644916209,-8.65194931504351,0.));
#2066=CARTESIAN_POINT('',(-144.741644916209,-28.6519493150435,0.));
#2067=CARTESIAN_POINT('Origin',(-162.493279247014,-28.6519493150435,0.));
#2068=CARTESIAN_POINT('',(144.741644916209,-28.6519493150435,0.));
#2069=CARTESIAN_POINT('',(-162.493279247014,-28.6519493150435,0.));
#2070=CARTESIAN_POINT('',(144.741644916209,-28.6519493150435,0.));
#2071=CARTESIAN_POINT('Origin',(144.741644916209,-8.65194931504351,0.));
#2072=CARTESIAN_POINT('',(164.706009732238,-9.84532163435986,0.));
#2073=CARTESIAN_POINT('Origin',(144.741644916209,-8.65194931504351,0.));
#2074=CARTESIAN_POINT('',(164.706009732238,-9.84532163435986,0.));
#2075=CARTESIAN_POINT('Origin',(91.9180367753309,-17.1519493150435,0.));
#2076=CARTESIAN_POINT('',(98.3192871699103,-18.2806624698786,0.));
#2077=CARTESIAN_POINT('',(91.9180367753309,-23.6519493150435,0.));
#2078=CARTESIAN_POINT('Origin',(91.9180367753309,-17.1519493150435,0.));
#2079=CARTESIAN_POINT('',(91.9180367753309,-23.6519493150435,0.));
#2080=CARTESIAN_POINT('',(98.3192871699103,-18.2806624698785,0.));
#2081=CARTESIAN_POINT('Origin',(97.3721843779833,-23.6519493150435,0.));
#2082=CARTESIAN_POINT('',(-91.9180367753309,-23.6519493150435,0.));
#2083=CARTESIAN_POINT('',(162.493279247014,-23.6519493150435,0.));
#2084=CARTESIAN_POINT('',(-91.9180367753309,-23.6519493150435,0.));
#2085=CARTESIAN_POINT('Origin',(-91.9180367753309,-17.1519493150435,0.));
#2086=CARTESIAN_POINT('Origin',(-91.9180367753309,-17.1519493150435,0.));
#2087=CARTESIAN_POINT('Origin',(152.634388977298,16.2786148528369,0.));
#2088=CARTESIAN_POINT('',(159.097734438877,16.9679373058886,0.));
#2089=CARTESIAN_POINT('Origin',(152.634388977298,16.2786148528369,0.));
#2090=CARTESIAN_POINT('',(159.097734438877,16.9679373058886,0.));
#2091=CARTESIAN_POINT('Origin',(68.195855252254,137.519363459891,0.));
#2092=CARTESIAN_POINT('',(71.0836276244993,143.342658980994,0.));
#2093=CARTESIAN_POINT('',(74.695855252254,137.519363459891,0.));
#2094=CARTESIAN_POINT('Origin',(68.195855252254,137.519363459891,0.));
#2095=CARTESIAN_POINT('',(74.695855252254,137.519363459891,0.));
#2096=CARTESIAN_POINT('',(71.0836276244993,143.342658980994,0.));
#2097=CARTESIAN_POINT('Origin',(74.695855252254,141.49391933272,0.));
#2098=CARTESIAN_POINT('',(74.695855252254,125.300585191814,0.));
#2099=CARTESIAN_POINT('',(74.695855252254,141.49391933272,0.));
#2100=CARTESIAN_POINT('',(74.695855252254,125.300585191814,0.));
#2101=CARTESIAN_POINT('Origin',(104.646206646855,112.300585191814,0.));
#2102=CARTESIAN_POINT('',(104.646206646855,118.800585191814,0.));
#2103=CARTESIAN_POINT('',(109.077479241021,117.055984564757,0.));
#2104=CARTESIAN_POINT('Origin',(104.646206646855,112.300585191814,0.));
#2105=CARTESIAN_POINT('',(109.077479241021,117.055984564757,0.));
#2106=CARTESIAN_POINT('',(104.646206646855,118.800585191814,0.));
#2107=CARTESIAN_POINT('Origin',(0.,0.,0.));
#2108=CARTESIAN_POINT('Origin',(0.,0.,0.));
#2109=CARTESIAN_POINT('Origin',(81.195855252254,125.300585191814,0.));
#2110=CARTESIAN_POINT('',(81.195855252254,118.800585191814,0.));
#2111=CARTESIAN_POINT('Origin',(81.195855252254,125.300585191814,0.));
#2112=CARTESIAN_POINT('',(81.195855252254,118.800585191814,0.));
#2113=CARTESIAN_POINT('Origin',(-152.634388977298,16.2786148528369,0.));
#2114=CARTESIAN_POINT('',(-151.505675822463,9.87736445825757,0.));
#2115=CARTESIAN_POINT('',(-159.097734438877,16.9679373058886,0.));
#2116=CARTESIAN_POINT('Origin',(-152.634388977298,16.2786148528369,0.));
#2117=CARTESIAN_POINT('',(-159.097734438877,16.9679373058886,0.));
#2118=CARTESIAN_POINT('',(-151.505675822463,9.87736445825758,0.));
#2119=CARTESIAN_POINT('Origin',(0.,0.,0.));
#2120=CARTESIAN_POINT('',(-109.077479241021,117.055984564757,0.));
#2121=CARTESIAN_POINT('Origin',(0.,0.,0.));
#2122=CARTESIAN_POINT('',(-109.077479241021,117.055984564757,0.));
#2123=CARTESIAN_POINT('Origin',(-104.646206646855,112.300585191814,0.));
#2124=CARTESIAN_POINT('',(-104.646206646855,118.800585191814,0.));
#2125=CARTESIAN_POINT('Origin',(-104.646206646855,112.300585191814,0.));
#2126=CARTESIAN_POINT('',(-104.646206646855,118.800585191814,0.));
#2127=CARTESIAN_POINT('Origin',(-107.174721637533,118.800585191814,0.));
#2128=CARTESIAN_POINT('',(-81.195855252254,118.800585191814,0.));
#2129=CARTESIAN_POINT('',(-107.174721637533,118.800585191814,0.));
#2130=CARTESIAN_POINT('',(-81.195855252254,118.800585191814,0.));
#2131=CARTESIAN_POINT('Origin',(-68.195855252254,137.519363459891,0.));
#2132=CARTESIAN_POINT('',(-74.695855252254,137.519363459891,0.));
#2133=CARTESIAN_POINT('',(-71.0836276244993,143.342658980994,0.));
#2134=CARTESIAN_POINT('Origin',(-68.195855252254,137.519363459891,0.));
#2135=CARTESIAN_POINT('',(-71.0836276244993,143.342658980994,0.));
#2136=CARTESIAN_POINT('',(-74.695855252254,137.519363459891,0.));
#2137=CARTESIAN_POINT('Origin',(0.,0.,0.));
#2138=CARTESIAN_POINT('',(-27.6221498371336,157.597642236091,0.));
#2139=CARTESIAN_POINT('Origin',(0.,0.,0.));
#2140=CARTESIAN_POINT('',(-27.6221498371336,157.597642236091,0.));
#2141=CARTESIAN_POINT('Origin',(-81.195855252254,125.300585191814,0.));
#2142=CARTESIAN_POINT('',(-74.695855252254,125.300585191814,0.));
#2143=CARTESIAN_POINT('Origin',(-81.195855252254,125.300585191814,0.));
#2144=CARTESIAN_POINT('',(-74.695855252254,125.300585191814,0.));
#2145=CARTESIAN_POINT('Origin',(-26.5,151.19523802025,0.));
#2146=CARTESIAN_POINT('',(-20.,151.19523802025,0.));
#2147=CARTESIAN_POINT('Origin',(-26.5,151.19523802025,0.));
#2148=CARTESIAN_POINT('',(-20.,151.19523802025,0.));
#2149=CARTESIAN_POINT('Origin',(-20.,130.,3.));
#2150=CARTESIAN_POINT('',(-20.,136.5,0.));
#2151=CARTESIAN_POINT('',(-20.,158.745078663875,0.));
#2152=CARTESIAN_POINT('',(-20.,136.5,3.));
#2153=CARTESIAN_POINT('Origin',(26.5,151.19523802025,0.));
#2154=CARTESIAN_POINT('',(20.,151.19523802025,0.));
#2155=CARTESIAN_POINT('',(20.,151.19523802025,0.));
#2156=CARTESIAN_POINT('',(27.6221498371335,157.597642236091,0.));
#2157=CARTESIAN_POINT('Origin',(26.5,151.19523802025,0.));
#2158=CARTESIAN_POINT('',(27.6221498371335,157.597642236091,0.));
#2159=CARTESIAN_POINT('Origin',(20.,158.745078663875,3.));
#2160=CARTESIAN_POINT('',(20.,136.5,0.));
#2161=CARTESIAN_POINT('',(20.,136.5,3.));
#2162=CARTESIAN_POINT('',(20.,130.,0.));
#2163=CARTESIAN_POINT('Origin',(-13.,123.5,3.));
#2164=CARTESIAN_POINT('',(-13.,130.,0.));
#2165=CARTESIAN_POINT('',(-6.50000000000002,123.5,0.));
#2166=CARTESIAN_POINT('Origin',(-13.,123.5,0.));
#2167=CARTESIAN_POINT('',(-6.50000000000002,123.5,3.));
#2168=CARTESIAN_POINT('',(-13.,130.,3.));
#2169=CARTESIAN_POINT('Origin',(-6.5,90.,3.));
#2170=CARTESIAN_POINT('',(-6.5,96.5,0.));
#2171=CARTESIAN_POINT('',(-6.50000000000002,130.,0.));
#2172=CARTESIAN_POINT('',(-6.5,96.5,3.));
#2173=CARTESIAN_POINT('Origin',(-13.5,136.5,3.));
#2174=CARTESIAN_POINT('',(-13.5,130.,0.));
#2175=CARTESIAN_POINT('Origin',(-13.5,136.5,0.));
#2176=CARTESIAN_POINT('',(-13.5,130.,3.));
#2177=CARTESIAN_POINT('Origin',(13.5,136.5,3.));
#2178=CARTESIAN_POINT('',(13.5,130.,0.));
#2179=CARTESIAN_POINT('Origin',(13.5,136.5,0.));
#2180=CARTESIAN_POINT('',(13.5,130.,3.));
#2181=CARTESIAN_POINT('Origin',(20.,130.,3.));
#2182=CARTESIAN_POINT('',(13.,130.,0.));
#2183=CARTESIAN_POINT('',(13.,130.,3.));
#2184=CARTESIAN_POINT('',(-20.,130.,0.));
#2185=CARTESIAN_POINT('Origin',(13.,123.5,3.));
#2186=CARTESIAN_POINT('',(6.50000000000001,123.5,0.));
#2187=CARTESIAN_POINT('',(6.50000000000001,123.5,3.));
#2188=CARTESIAN_POINT('Origin',(13.,123.5,0.));
#2189=CARTESIAN_POINT('Origin',(6.50000000000001,130.,3.));
#2190=CARTESIAN_POINT('',(6.5,96.5,0.));
#2191=CARTESIAN_POINT('',(6.5,96.5,3.));
#2192=CARTESIAN_POINT('',(6.5,90.,0.));
#2193=CARTESIAN_POINT('Origin',(2.38697950294409E-15,96.5,3.));
#2194=CARTESIAN_POINT('Origin',(-2.22044604925031E-15,96.5,0.));
#2195=CARTESIAN_POINT('Origin',(-0.350000000000004,107.75,3.));
#2196=CARTESIAN_POINT('',(-2.6,107.75,-5.55111512312578E-16));
#2197=CARTESIAN_POINT('',(-2.6,107.75,3.));
#2198=CARTESIAN_POINT('',(-0.350000000000004,110.,-5.55111512312578E-16));
#2199=CARTESIAN_POINT('Origin',(-0.350000000000004,107.75,0.));
#2200=CARTESIAN_POINT('',(-0.350000000000004,110.,3.));
#2201=CARTESIAN_POINT('Origin',(-2.6,100.,3.));
#2202=CARTESIAN_POINT('',(-2.6,102.25,-5.55111512312578E-16));
#2203=CARTESIAN_POINT('',(-2.6,102.25,3.));
#2204=CARTESIAN_POINT('',(-2.60000000000002,120.523631013219,-5.55111512312578E-16));
#2205=CARTESIAN_POINT('Origin',(0.349999999999996,107.75,3.));
#2206=CARTESIAN_POINT('',(0.349999999999996,110.,-5.55111512312578E-16));
#2207=CARTESIAN_POINT('',(0.349999999999996,110.,3.));
#2208=CARTESIAN_POINT('',(2.6,107.75,-5.55111512312578E-16));
#2209=CARTESIAN_POINT('Origin',(0.349999999999996,107.75,0.));
#2210=CARTESIAN_POINT('',(2.6,107.75,3.));
#2211=CARTESIAN_POINT('Origin',(-2.60000000000001,110.,3.));
#2212=CARTESIAN_POINT('',(-1.30000000000001,110.,-5.55111512312578E-16));
#2213=CARTESIAN_POINT('Origin',(-0.349999999999999,102.25,3.));
#2214=CARTESIAN_POINT('',(-0.349999999999999,100.,-5.55111512312578E-16));
#2215=CARTESIAN_POINT('',(-0.349999999999999,100.,3.));
#2216=CARTESIAN_POINT('Origin',(-0.349999999999999,102.25,0.));
#2217=CARTESIAN_POINT('Origin',(2.6,100.,3.));
#2218=CARTESIAN_POINT('',(0.349999999999996,100.,-5.55111512312578E-16));
#2219=CARTESIAN_POINT('',(0.349999999999996,100.,3.));
#2220=CARTESIAN_POINT('',(1.29999999999999,100.,-5.55111512312578E-16));
#2221=CARTESIAN_POINT('Origin',(0.349999999999996,102.25,3.));
#2222=CARTESIAN_POINT('',(2.6,102.25,-5.55111512312578E-16));
#2223=CARTESIAN_POINT('',(2.6,102.25,3.));
#2224=CARTESIAN_POINT('Origin',(0.349999999999996,102.25,0.));
#2225=CARTESIAN_POINT('Origin',(2.6,110.,3.));
#2226=CARTESIAN_POINT('',(2.6,125.523631013219,-5.55111512312578E-16));
#2227=CARTESIAN_POINT('Origin',(20.,130.,3.));
#2228=CARTESIAN_POINT('',(-20.,130.,0.));
#2229=CARTESIAN_POINT('Origin',(0.,0.,0.));
#2230=CARTESIAN_POINT('Origin',(0.,0.,0.));
#2231=CARTESIAN_POINT('Origin',(0.,0.,0.));
#2232=CARTESIAN_POINT('Origin',(0.,0.,0.));
#2233=CARTESIAN_POINT('Origin',(-81.695855252254,125.800585191814,0.));
#2234=CARTESIAN_POINT('',(-80.0458552522541,125.800585191814,0.));
#2235=CARTESIAN_POINT('Origin',(-81.695855252254,125.800585191814,0.));
#2236=CARTESIAN_POINT('Origin',(81.695855252254,125.800585191814,0.));
#2237=CARTESIAN_POINT('',(83.345855252254,125.800585191814,0.));
#2238=CARTESIAN_POINT('Origin',(81.695855252254,125.800585191814,0.));
#2239=CARTESIAN_POINT('Origin',(-104.738359227524,18.1237041892801,0.));
#2240=CARTESIAN_POINT('',(-104.738359227524,18.1237041892801,0.));
#2241=CARTESIAN_POINT('Origin',(0.,0.,0.));
#2242=CARTESIAN_POINT('Origin',(0.,0.,0.));
#2243=CARTESIAN_POINT('Origin',(98.4807753012208,-17.364817766693,0.));
#2244=CARTESIAN_POINT('',(104.738359227524,18.12370418928,0.));
#2245=CARTESIAN_POINT('Origin',(74.695855252254,118.800585191814,0.));
#2246=CARTESIAN_POINT('',(74.695855252254,118.800585191814,0.));
#2247=CARTESIAN_POINT('Origin',(-74.695855252254,118.800585191814,0.));
#2248=CARTESIAN_POINT('',(-74.695855252254,118.800585191814,0.));
#2249=CARTESIAN_POINT('Origin',(-86.7626825959213,126.045709901133,0.));
#2250=UNCERTAINTY_MEASURE_WITH_UNIT(LENGTH_MEASURE(0.01),#2254,
'DISTANCE_ACCURACY_VALUE',
'Maximum model space distance between geometric entities at asserted c
onnectivities');
#2251=UNCERTAINTY_MEASURE_WITH_UNIT(LENGTH_MEASURE(1.E-6),#2254,
'DISTANCE_ACCURACY_VALUE',
'Maximum model space distance between geometric entities at asserted c
onnectivities');
#2252=(
GEOMETRIC_REPRESENTATION_CONTEXT(3)
GLOBAL_UNCERTAINTY_ASSIGNED_CONTEXT((#2250))
GLOBAL_UNIT_ASSIGNED_CONTEXT((#2254,#2257,#2255))
REPRESENTATION_CONTEXT('','3D')
);
#2253=(
GEOMETRIC_REPRESENTATION_CONTEXT(3)
GLOBAL_UNCERTAINTY_ASSIGNED_CONTEXT((#2251))
GLOBAL_UNIT_ASSIGNED_CONTEXT((#2254,#2257,#2255))
REPRESENTATION_CONTEXT('','3D')
);
#2254=(
LENGTH_UNIT()
NAMED_UNIT(*)
SI_UNIT(.MILLI.,.METRE.)
);
#2255=(
NAMED_UNIT(*)
SI_UNIT($,.STERADIAN.)
SOLID_ANGLE_UNIT()
);
#2256=DIMENSIONAL_EXPONENTS(0.,0.,0.,0.,0.,0.,0.);
#2257=(
CONVERSION_BASED_UNIT('degree',#2259)
NAMED_UNIT(#2256)
PLANE_ANGLE_UNIT()
);
#2258=(
NAMED_UNIT(*)
PLANE_ANGLE_UNIT()
SI_UNIT($,.RADIAN.)
);
#2259=PLANE_ANGLE_MEASURE_WITH_UNIT(PLANE_ANGLE_MEASURE(0.01745329252),
#2258);
#2260=SHAPE_DEFINITION_REPRESENTATION(#2261,#2262);
#2261=PRODUCT_DEFINITION_SHAPE('',$,#2264);
#2262=SHAPE_REPRESENTATION('',(#1318),#2252);
#2263=PRODUCT_DEFINITION_CONTEXT('part definition',#2268,'design');
#2264=PRODUCT_DEFINITION('paragolpes_V2','LOLA3_003_paragolpes',#2265,#2263);
#2265=PRODUCT_DEFINITION_FORMATION('',$,#2270);
#2266=PRODUCT_RELATED_PRODUCT_CATEGORY('LOLA3_003_paragolpes',
'LOLA3_003_paragolpes',(#2270));
#2267=APPLICATION_PROTOCOL_DEFINITION('international standard',
'automotive_design',2009,#2268);
#2268=APPLICATION_CONTEXT(
'Core Data for Automotive Mechanical Design Process');
#2269=PRODUCT_CONTEXT('part definition',#2268,'mechanical');
#2270=PRODUCT('paragolpes_V2','LOLA3_003_paragolpes',$,(#2269));
#2271=PRESENTATION_STYLE_ASSIGNMENT((#2272));
#2272=SURFACE_STYLE_USAGE(.BOTH.,#2273);
#2273=SURFACE_SIDE_STYLE('',(#2274));
#2274=SURFACE_STYLE_FILL_AREA(#2275);
#2275=FILL_AREA_STYLE('',(#2276));
#2276=FILL_AREA_STYLE_COLOUR('',#2277);
#2277=COLOUR_RGB('',0.956862745098039,0.956862745098039,0.956862745098039);
ENDSEC;
END-ISO-10303-21;
